Laboratory/2nd_day/tek0004.csv

Model,DPO3014
Firmware Version,2.40

Waveform Type,ANALOG,,,
Point Format,Y,,,
Horizontal Units,s,,,
Horizontal Scale,0.01,,,
Horizontal Delay,0.1926,,,
Sample Interval,1e-05,,,
Record Length,10000,,,
Gating,0.0% to 100.0%,,,
Probe Attenuation,500,,,
Vertical Units,V,,,
Vertical Offset,0,,,
Vertical Scale,500,,,
Vertical Position,1.62,,,
,,,,
,,,,
,,,,
Label,,,,
TIME,CH1,CH2,CH3,CH4
1.42600e-01,367.734,60.7031,-572.109,-11.1094
1.42610e-01,365.938,59.9219,-568.828,-11.0953
1.42620e-01,365.156,57.4219,-566.406,-11.0813
1.42630e-01,367.812,56.5625,-567.422,-11.0859
1.42640e-01,369.141,57.4219,-565.859,-11.0781
1.42650e-01,367.109,60.2344,-565,-11.0719
1.42660e-01,364.062,60.9375,-564.688,-11.0672
1.42670e-01,365.469,60.8594,-569.453,-11.0891
1.42680e-01,365.703,61.7188,-570.938,-11.1234
1.42690e-01,366.953,60,-567.422,-11.1094
1.42700e-01,366.797,54.8438,-563.828,-11.0938
1.42710e-01,369.062,50.0781,-564.141,-11.1266
1.42720e-01,372.422,46.5625,-563.047,-11.1641
1.42730e-01,377.656,40.8594,-566.094,-11.2234
1.42740e-01,381.016,39.7656,-566.406,-11.2453
1.42750e-01,382.891,40.5469,-564.766,-11.2516
1.42760e-01,381.328,40.0781,-564.375,-11.2984
1.42770e-01,380.703,38.6719,-563.672,-11.3328
1.42780e-01,381.172,37.8125,-562.969,-11.3422
1.42790e-01,380.859,35.7031,-563.438,-11.325
1.42800e-01,381.797,33.75,-564.297,-11.3188
1.42810e-01,382.5,33.2812,-562.891,-11.3016
1.42820e-01,383.75,32.1875,-561.328,-11.3063
1.42830e-01,385.938,28.4375,-561.328,-11.3141
1.42840e-01,388.984,27.5,-560.938,-11.3313
1.42850e-01,391.719,25.4688,-557.656,-11.3531
1.42860e-01,391.875,22.6562,-556.172,-11.3859
1.42870e-01,392.031,19.375,-555.625,-11.375
1.42880e-01,393.828,16.25,-555.156,-11.325
1.42890e-01,394.453,14.6094,-555.469,-11.3203
1.42900e-01,395.391,13.5156,-553.75,-11.2844
1.42910e-01,393.594,15.4688,-551.641,-11.2422
1.42920e-01,391.25,17.5781,-550.391,-11.2109
1.42930e-01,389.141,17.7344,-551.875,-11.2125
1.42940e-01,388.203,16.875,-553.125,-11.2172
1.42950e-01,389.922,15.9375,-556.094,-11.2391
1.42960e-01,393.438,16.6406,-555.938,-11.2516
1.42970e-01,394.375,14.4531,-553.75,-11.2578
1.42980e-01,393.672,7.10938,-550.469,-11.2766
1.42990e-01,396.328,2.5,-549.062,-11.3141
1.43000e-01,401.25,-2.89062,-547.344,-11.3391
1.43010e-01,406.25,-7.1875,-548.594,-11.3938
1.43020e-01,410.781,-8.98438,-548.75,-11.4172
1.43030e-01,412.109,-10.625,-548.75,-11.4578
1.43040e-01,409.844,-11.9531,-548.75,-11.5047
1.43050e-01,411.172,-10.7031,-547.969,-11.5453
1.43060e-01,411.094,-11.6406,-548.594,-11.5766
1.43070e-01,410.703,-11.9531,-546.562,-11.5594
1.43080e-01,412.031,-11.7188,-548.047,-11.5656
1.43090e-01,410.781,-12.7344,-547.266,-11.5109
1.43100e-01,410.859,-14.1406,-546.875,-11.475
1.43110e-01,411.719,-15.4688,-546.875,-11.4609
1.43120e-01,413.047,-16.6406,-548.047,-11.475
1.43130e-01,417.188,-17.6562,-548.906,-11.5156
1.43140e-01,421.094,-20.9375,-549.062,-11.5797
1.43150e-01,422.812,-25.4688,-547.969,-11.6203
1.43160e-01,424.844,-31.7969,-543.125,-11.6516
1.43170e-01,431.953,-37.6562,-542.969,-11.6906
1.43180e-01,435.391,-40.7812,-542.188,-11.7219
1.43190e-01,435.469,-42.5,-540.781,-11.7375
1.43200e-01,434.609,-44.6094,-540.156,-11.7563
1.43210e-01,433.594,-45.2344,-538.438,-11.7859
1.43220e-01,432.344,-47.2656,-537.734,-11.8313
1.43230e-01,430.938,-47.5,-535.938,-11.7766
1.43240e-01,432.734,-47.5781,-534.922,-11.6938
1.43250e-01,432.734,-47.2656,-532.188,-11.6109
1.43260e-01,431.172,-48.3594,-532.422,-11.5594
1.43270e-01,431.562,-49.375,-530.625,-11.4969
1.43280e-01,433.516,-50.3125,-530.469,-11.4813
1.43290e-01,434.375,-52.2656,-531.875,-11.5016
1.43300e-01,435.391,-54.4531,-533.438,-11.5594
1.43310e-01,436.25,-54.6875,-532.188,-11.6156
1.43320e-01,436.094,-56.0156,-531.953,-11.6625
1.43330e-01,438.125,-56.0156,-531.406,-11.6797
1.43340e-01,441.406,-59.2188,-532.188,-11.6469
1.43350e-01,439.219,-63.9844,-526.484,-11.5844
1.43360e-01,437.031,-71.25,-520.703,-11.4766
1.43370e-01,438.516,-77.9688,-519.219,-11.3797
1.43380e-01,439.219,-81.25,-515.469,-11.3453
1.43390e-01,436.719,-80.3906,-510.156,-11.2672
1.43400e-01,433.203,-80.3125,-507.5,-11.2125
1.43410e-01,431.172,-79.6875,-506.094,-11.2016
1.43420e-01,430,-78.9062,-505.391,-11.1906
1.43430e-01,429.531,-79.0625,-506.094,-11.1609
1.43440e-01,430.625,-79.0625,-507.031,-11.1766
1.43450e-01,433.984,-79.2188,-509.062,-11.2125
1.43460e-01,437.5,-79.5312,-508.672,-11.2266
1.43470e-01,438.828,-83.4375,-506.406,-11.2266
1.43480e-01,439.375,-87.8906,-505.234,-11.2625
1.43490e-01,442.5,-91.6406,-504.375,-11.2656
1.43500e-01,447.031,-95,-503.906,-11.3344
1.43510e-01,451.953,-98.125,-505.703,-11.3875
1.43520e-01,454.062,-100.859,-508.984,-11.4563
1.43530e-01,456.094,-99.7656,-511.016,-11.4703
1.43540e-01,455.938,-99.2188,-510.156,-11.5094
1.43550e-01,456.172,-101.25,-508.438,-11.5234
1.43560e-01,455.547,-104.609,-506.641,-11.5359
1.43570e-01,456.406,-106.875,-504.609,-11.5563
1.43580e-01,455.938,-109.062,-503.047,-11.5578
1.43590e-01,455.156,-111.172,-500.781,-11.5094
1.43600e-01,456.562,-113.906,-500.156,-11.4297
1.43610e-01,456.25,-116.797,-498.281,-11.3734
1.43620e-01,456.719,-118.828,-496.406,-11.3531
1.43630e-01,456.172,-118.672,-496.094,-11.3594
1.43640e-01,457.109,-119.531,-495.547,-11.3859
1.43650e-01,458.125,-119.141,-495.312,-11.3969
1.43660e-01,460.234,-118.438,-495.703,-11.4469
1.43670e-01,464.219,-120.547,-498.75,-11.5094
1.43680e-01,467.188,-120.234,-499.297,-11.5312
1.43690e-01,469.922,-124.609,-499.297,-11.5781
1.43700e-01,471.797,-128.203,-497.422,-11.6406
1.43710e-01,471.562,-129.844,-498.828,-11.6531
1.43720e-01,469.766,-130.078,-495.859,-11.6391
1.43730e-01,469.375,-132.891,-492.344,-11.5906
1.43740e-01,467.656,-136.562,-488.203,-11.5297
1.43750e-01,469.844,-138.672,-486.641,-11.5031
1.43760e-01,470.781,-141.094,-485.469,-11.5016
1.43770e-01,471.875,-142.109,-482.188,-11.5031
1.43780e-01,472.5,-142.5,-479.062,-11.4891
1.43790e-01,472.656,-143.906,-477.656,-11.4375
1.43800e-01,472.656,-147.266,-477.031,-11.3719
1.43810e-01,470.859,-147.812,-474.375,-11.3219
1.43820e-01,470.078,-148.359,-472.969,-11.2672
1.43830e-01,468.672,-149.219,-472.969,-11.2781
1.43840e-01,468.672,-149.844,-473.594,-11.2594
1.43850e-01,470.859,-151.016,-474.922,-11.2563
1.43860e-01,472.5,-151.797,-475.703,-11.2656
1.43870e-01,474.531,-154.766,-473.906,-11.3219
1.43880e-01,474.609,-159.453,-471.25,-11.3484
1.43890e-01,475.938,-160.781,-467.891,-11.3375
1.43900e-01,475.859,-165,-465,-11.3422
1.43910e-01,474.922,-167.109,-462.344,-11.3172
1.43920e-01,477.031,-169.766,-461.641,-11.2781
1.43930e-01,477.578,-170.312,-457.969,-11.2094
1.43940e-01,476.328,-172.578,-456.641,-11.175
1.43950e-01,476.25,-173.906,-457.266,-11.1609
1.43960e-01,477.422,-174.531,-456.875,-11.1891
1.43970e-01,477.656,-174.453,-457.266,-11.2328
1.43980e-01,478.672,-174.297,-458.516,-11.2469
1.43990e-01,481.875,-174.766,-462.422,-11.3016
1.44000e-01,486.406,-175.859,-463.75,-11.3766
1.44010e-01,487.344,-178.906,-463.594,-11.4203
1.44020e-01,487.656,-181.719,-462.266,-11.4641
1.44030e-01,492.734,-185.078,-463.984,-11.5016
1.44040e-01,494.375,-186.484,-462.578,-11.4766
1.44050e-01,488.906,-187.031,-455.625,-11.3656
1.44060e-01,483.125,-189.141,-449.297,-11.2375
1.44070e-01,478.125,-190,-444.922,-11.1359
1.44080e-01,473.516,-190.547,-439.531,-11.0141
1.44090e-01,471.562,-189.844,-434.609,-10.9109
1.44100e-01,469.062,-188.203,-432.031,-10.8578
1.44110e-01,466.641,-186.875,-431.328,-10.8297
1.44120e-01,465.391,-186.016,-432.344,-10.8063
1.44130e-01,464.375,-186.016,-434.297,-10.8016
1.44140e-01,465.703,-185,-433.672,-10.7891
1.44150e-01,466.797,-184.844,-430,-10.7375
1.44160e-01,465,-186.875,-427.969,-10.7266
1.44170e-01,466.172,-189.219,-429.141,-10.7172
1.44180e-01,468.047,-191.562,-429.453,-10.7078
1.44190e-01,467.344,-196.25,-426.094,-10.7313
1.44200e-01,468.359,-200.156,-422.812,-10.725
1.44210e-01,470.547,-202.5,-421.641,-10.7328
1.44220e-01,472.656,-205.156,-421.172,-10.7578
1.44230e-01,477.969,-207.578,-424.219,-10.8078
1.44240e-01,483.047,-210.469,-424.688,-10.8297
1.44250e-01,486.797,-214.922,-423.438,-10.8672
1.44260e-01,490,-218.125,-422.812,-10.8875
1.44270e-01,492.031,-218.672,-423.203,-10.9328
1.44280e-01,491.953,-217.969,-422.656,-10.9219
1.44290e-01,491.406,-219.609,-421.016,-10.9234
1.44300e-01,490.625,-221.719,-418.203,-10.9219
1.44310e-01,492.266,-226.016,-419.219,-10.9313
1.44320e-01,495.156,-229.375,-419.375,-10.9438
1.44330e-01,497.031,-233.281,-416.328,-10.9484
1.44340e-01,499.141,-236.094,-414.297,-10.9359
1.44350e-01,499.062,-237.266,-414.531,-10.9281
1.44360e-01,497.031,-237.266,-412.969,-10.8984
1.44370e-01,495.703,-237.422,-410.234,-10.8844
1.44380e-01,492.422,-238.672,-406.953,-10.8344
1.44390e-01,493.984,-241.797,-406.719,-10.8266
1.44400e-01,497.5,-243.828,-405.781,-10.8094
1.44410e-01,496.719,-245.156,-400.781,-10.8031
1.44420e-01,496.094,-248.984,-399.141,-10.7953
1.44430e-01,497.5,-252.344,-399.609,-10.7953
1.44440e-01,498.906,-254.375,-399.609,-10.8344
1.44450e-01,499.453,-254.844,-398.516,-10.8578
1.44460e-01,500.078,-254.609,-397.578,-10.8703
1.44470e-01,499.922,-256.562,-397.891,-10.85
1.44480e-01,501.562,-259.062,-398.516,-10.7984
1.44490e-01,498.125,-260.938,-393.516,-10.7516
1.44500e-01,495.156,-263.828,-389.531,-10.7344
1.44510e-01,495.391,-263.594,-387.031,-10.6984
1.44520e-01,495.469,-263.672,-385.859,-10.6938
1.44530e-01,497.812,-265,-388.203,-10.6797
1.44540e-01,501.094,-266.016,-388.594,-10.6797
1.44550e-01,499.609,-268.672,-386.328,-10.7031
1.44560e-01,497.578,-271.406,-385.156,-10.7313
1.44570e-01,498.516,-270.156,-382.5,-10.7281
1.44580e-01,498.047,-270,-381.328,-10.7141
1.44590e-01,498.75,-272.109,-381.094,-10.6938
1.44600e-01,502.109,-273.75,-380.859,-10.6438
1.44610e-01,498.438,-274.062,-375,-10.5891
1.44620e-01,496.016,-276.172,-370.469,-10.5359
1.44630e-01,494.453,-278.516,-369.297,-10.5125
1.44640e-01,493.281,-279.297,-367.891,-10.4922
1.44650e-01,495.859,-279.766,-368.203,-10.5016
1.44660e-01,497.344,-281.094,-368.594,-10.4891
1.44670e-01,497.031,-281.406,-366.094,-10.4813
1.44680e-01,497.344,-282.266,-364.453,-10.475
1.44690e-01,499.453,-284.531,-366.016,-10.4984
1.44700e-01,502.344,-286.875,-366.406,-10.5047
1.44710e-01,503.984,-288.75,-363.672,-10.5063
1.44720e-01,505,-291.875,-363.828,-10.5547
1.44730e-01,506.953,-292.266,-362.969,-10.5703
1.44740e-01,510,-294.766,-363.359,-10.5672
1.44750e-01,508.984,-297.812,-357.891,-10.5469
1.44760e-01,509.141,-303.828,-355.547,-10.5156
1.44770e-01,506.719,-304.141,-349.688,-10.4594
1.44780e-01,502.891,-305.312,-346.719,-10.4031
1.44790e-01,500.859,-305.234,-342.5,-10.3188
1.44800e-01,498.594,-307.656,-340.156,-10.2016
1.44810e-01,492.734,-307.188,-336.172,-10.1125
1.44820e-01,489.375,-305.859,-333.672,-10
1.44830e-01,487.656,-303.906,-332.422,-9.94219
1.44840e-01,486.953,-302.812,-331.016,-9.89375
1.44850e-01,483.516,-300.391,-327.969,-9.85625
1.44860e-01,477.969,-302.422,-328.438,-9.85
1.44870e-01,478.359,-303.828,-329.922,-9.81719
1.44880e-01,480.156,-302.734,-328.203,-9.78125
1.44890e-01,478.438,-302.891,-325.938,-9.78125
1.44900e-01,479.375,-306.328,-323.828,-9.76875
1.44910e-01,479.922,-306.719,-318.906,-9.72969
1.44920e-01,478.984,-309.375,-315.859,-9.71406
1.44930e-01,479.922,-312.656,-315.547,-9.73125
1.44940e-01,484.844,-315.156,-318.594,-9.73125
1.44950e-01,486.641,-316.406,-316.172,-9.76094
1.44960e-01,487.812,-317.812,-315,-9.79219
1.44970e-01,492.344,-320.938,-316.641,-9.81875
1.44980e-01,498.359,-325.391,-319.688,-9.89219
1.44990e-01,499.375,-327.031,-318.047,-9.95469
1.45000e-01,496.719,-328.516,-318.75,-9.99063
1.45010e-01,497.734,-331.172,-319.609,-10.0203
1.45020e-01,503.594,-335,-320.938,-9.98281
1.45030e-01,502.109,-336.719,-315.312,-9.95469
1.45040e-01,501.328,-338.984,-314.609,-9.94844
1.45050e-01,503.125,-339.688,-315.469,-9.95938
1.45060e-01,507.109,-343.203,-317.266,-9.9875
1.45070e-01,505.938,-342.109,-312.891,-10.0047
1.45080e-01,501.953,-341.719,-311.562,-10.0047
1.45090e-01,502.188,-340.625,-310.391,-9.92969
1.45100e-01,506.641,-344.375,-311.797,-9.87969
1.45110e-01,505.859,-345.391,-306.328,-9.80469
1.45120e-01,503.359,-348.594,-302.891,-9.74844
1.45130e-01,500.078,-351.641,-296.406,-9.7
1.45140e-01,498.359,-353.438,-292.969,-9.64688
1.45150e-01,498.594,-357.188,-292.344,-9.63594
1.45160e-01,501.25,-359.766,-292.109,-9.60781
1.45170e-01,501.25,-361.172,-288.203,-9.61563
1.45180e-01,501.562,-362.5,-286.25,-9.61875
1.45190e-01,504.297,-363.594,-286.328,-9.61875
1.45200e-01,507.969,-365.938,-287.266,-9.64219
1.45210e-01,506.953,-365.781,-282.812,-9.6125
1.45220e-01,504.688,-366.797,-281.562,-9.62813
1.45230e-01,504.609,-368.125,-278.984,-9.55313
1.45240e-01,508.047,-372.812,-278.516,-9.53125
1.45250e-01,504.531,-375.312,-273.281,-9.45625
1.45260e-01,502.344,-376.641,-269.453,-9.40156
1.45270e-01,501.25,-380.625,-270.625,-9.45625
1.45280e-01,502.5,-382.969,-272.578,-9.44063
1.45290e-01,501.562,-382.812,-269.766,-9.42656
1.45300e-01,499.844,-382.969,-267.734,-9.41719
1.45310e-01,499.453,-383.828,-267.5,-9.44063
1.45320e-01,499.922,-384.141,-268.438,-9.45781
1.45330e-01,496.797,-383.828,-264.141,-9.3875
1.45340e-01,494.297,-386.25,-262.031,-9.33125
1.45350e-01,493.828,-386.25,-259.531,-9.26562
1.45360e-01,494.609,-387.734,-258.359,-9.22188
1.45370e-01,492.422,-387.188,-254.141,-9.15156
1.45380e-01,490.156,-386.172,-252.344,-9.11406
1.45390e-01,489.531,-385.859,-251.875,-9.10625
1.45400e-01,490.312,-387.5,-255.156,-9.13281
1.45410e-01,490.312,-387.891,-256.094,-9.12813
1.45420e-01,490,-388.75,-253.438,-9.09219
1.45430e-01,492.109,-388.75,-252.109,-9.0875
1.45440e-01,493.281,-392.891,-250.391,-9.09219
1.45450e-01,492.578,-396.641,-246.406,-9.09375
1.45460e-01,493.125,-399.219,-246.641,-9.12031
1.45470e-01,495.391,-401.094,-247.422,-9.13594
1.45480e-01,497.578,-402.891,-246.953,-9.1375
1.45490e-01,495.469,-404.297,-243.125,-9.09688
1.45500e-01,495.156,-406.016,-239.531,-9.01719
1.45510e-01,493.828,-408.75,-236.094,-8.96563
1.45520e-01,496.172,-411.641,-235.391,-8.92813
1.45530e-01,494.375,-413.203,-231.953,-8.91094
1.45540e-01,492.031,-412.969,-230.312,-8.89531
1.45550e-01,491.953,-410,-229.297,-8.90938
1.45560e-01,493.281,-410.391,-232.266,-8.92969
1.45570e-01,492.891,-410.781,-230.156,-8.88125
1.45580e-01,491.406,-416.406,-228.203,-8.82969
1.45590e-01,487.5,-417.422,-221.719,-8.775
1.45600e-01,484.141,-417.109,-217.188,-8.70625
1.45610e-01,481.719,-417.188,-215.547,-8.64219
1.45620e-01,483.516,-418.984,-215.312,-8.60781
1.45630e-01,484.062,-419.531,-214.453,-8.57812
1.45640e-01,483.125,-420.156,-213.203,-8.56719
1.45650e-01,481.406,-423.359,-210.078,-8.54375
1.45660e-01,479.453,-425.469,-209.062,-8.55469
1.45670e-01,480.078,-426.406,-209.375,-8.57031
1.45680e-01,485.156,-427.422,-211.406,-8.58125
1.45690e-01,487.891,-428.047,-211.875,-8.58125
1.45700e-01,489.844,-430.469,-212.734,-8.63281
1.45710e-01,490.703,-431.484,-211.562,-8.65
1.45720e-01,490.391,-435.156,-210.703,-8.66875
1.45730e-01,488.906,-437.969,-206.406,-8.60938
1.45740e-01,488.594,-441.484,-203.594,-8.53906
1.45750e-01,485.781,-443.359,-198.906,-8.50156
1.45760e-01,482.188,-442.734,-195.078,-8.44531
1.45770e-01,479.609,-441.719,-191.484,-8.37969
1.45780e-01,480.703,-445.469,-191.484,-8.29531
1.45790e-01,476.25,-444.922,-185.938,-8.17031
1.45800e-01,470.859,-444.219,-183.125,-8.10625
1.45810e-01,466.641,-444.141,-182.5,-8.05781
1.45820e-01,467.344,-443.594,-183.594,-8.03125
1.45830e-01,467.422,-440.312,-181.875,-7.99688
1.45840e-01,465.781,-440.781,-180.703,-7.98125
1.45850e-01,465.469,-442.5,-178.75,-7.94688
1.45860e-01,465.391,-444.141,-177.266,-7.90781
1.45870e-01,465.469,-445.547,-175.781,-7.91094
1.45880e-01,467.031,-447.891,-174.297,-7.8875
1.45890e-01,467.5,-449.141,-171.172,-7.85469
1.45900e-01,467.734,-451.875,-170.859,-7.88594
1.45910e-01,468.828,-454.297,-170.078,-7.93281
1.45920e-01,469.922,-455.469,-170.156,-7.92969
1.45930e-01,469.375,-458.125,-167.109,-7.90469
1.45940e-01,470.156,-462.812,-163.672,-7.825
1.45950e-01,468.516,-465.078,-156.875,-7.75469
1.45960e-01,467.422,-467.812,-153.438,-7.71406
1.45970e-01,466.094,-471.328,-152.031,-7.71094
1.45980e-01,469.062,-472.812,-151.641,-7.69375
1.45990e-01,469.453,-473.281,-148.75,-7.66563
1.46000e-01,468.125,-474.609,-149.375,-7.71406
1.46010e-01,469.375,-475.859,-151.328,-7.74844
1.46020e-01,470.547,-476.25,-151.406,-7.76562
1.46030e-01,469.844,-475.938,-150.312,-7.72813
1.46040e-01,472.656,-477.344,-146.875,-7.65938
1.46050e-01,470.469,-480.625,-142.109,-7.625
1.46060e-01,467.812,-480.781,-140.469,-7.57969
1.46070e-01,469.062,-480.625,-140.859,-7.57188
1.46080e-01,471.875,-481.016,-140.547,-7.57344
1.46090e-01,471.484,-482.5,-140.469,-7.57188
1.46100e-01,471.875,-483.984,-141.172,-7.58438
1.46110e-01,472.188,-485.469,-140.781,-7.57812
1.46120e-01,475,-487.734,-139.766,-7.58594
1.46130e-01,475,-488.516,-136.719,-7.60156
1.46140e-01,471.094,-489.844,-135.703,-7.62188
1.46150e-01,472.422,-492.578,-134.766,-7.6
1.46160e-01,474.141,-495.234,-132.734,-7.54375
1.46170e-01,469.375,-495.469,-127.266,-7.46094
1.46180e-01,465.781,-497.5,-123.906,-7.35469
1.46190e-01,463.281,-497.266,-119.688,-7.26562
1.46200e-01,462.188,-498.438,-118.672,-7.20156
1.46210e-01,459.453,-497.656,-115.625,-7.15156
1.46220e-01,455.781,-496.719,-116.172,-7.12656
1.46230e-01,454.141,-494.609,-117.266,-7.14062
1.46240e-01,456.953,-492.891,-119.297,-7.14062
1.46250e-01,457.422,-491.172,-121.641,-7.17813
1.46260e-01,456.875,-488.984,-123.438,-7.19219
1.46270e-01,457.188,-484.844,-123.828,-7.1875
1.46280e-01,455.469,-482.656,-122.891,-7.19844
1.46290e-01,453.75,-484.688,-121.797,-7.18125
1.46300e-01,452.969,-489.844,-120.156,-7.13594
1.46310e-01,451.016,-491.484,-116.25,-7.07656
1.46320e-01,449.062,-494.297,-111.719,-7.01406
1.46330e-01,448.438,-497.656,-106.719,-6.97656
1.46340e-01,448.594,-500.703,-101.719,-6.91875
1.46350e-01,449.219,-502.188,-96.4844,-6.86875
1.46360e-01,448.047,-504.766,-93.6719,-6.8625
1.46370e-01,447.656,-506.25,-92.5,-6.85781
1.46380e-01,448.906,-508.203,-92.8125,-6.85313
1.46390e-01,447.5,-508.984,-88.5938,-6.82656
1.46400e-01,444.766,-511.719,-88.75,-6.8
1.46410e-01,443.75,-509.766,-86.1719,-6.7625
1.46420e-01,442.188,-509.375,-86.6406,-6.73906
1.46430e-01,439.688,-508.984,-82.8125,-6.67969
1.46440e-01,438.281,-510.312,-78.4375,-6.58125
1.46450e-01,433.906,-510.938,-72.1875,-6.49844
1.46460e-01,428.984,-513.75,-67.8906,-6.43125
1.46470e-01,423.984,-515.703,-62.3438,-6.35625
1.46480e-01,421.719,-515.078,-57.8125,-6.29531
1.46490e-01,420.312,-513.125,-56.3281,-6.25938
1.46500e-01,423.047,-513.984,-57.9688,-6.26719
1.46510e-01,423.047,-514.688,-58.2812,-6.27969
1.46520e-01,424.062,-514.219,-58.3594,-6.28906
1.46530e-01,425,-515.469,-58.2031,-6.31406
1.46540e-01,426.406,-517.188,-58.5156,-6.34844
1.46550e-01,427.812,-518.672,-60.2344,-6.4
1.46560e-01,430.859,-521.25,-61.5625,-6.43125
1.46570e-01,434.531,-523.438,-61.0156,-6.44375
1.46580e-01,434.922,-526.016,-60.5469,-6.46719
1.46590e-01,435,-528.906,-57.2656,-6.46875
1.46600e-01,432.734,-530.703,-53.125,-6.41875
1.46610e-01,431.641,-532.656,-49.1406,-6.37656
1.46620e-01,433.672,-539.375,-46.6406,-6.30938
1.46630e-01,430.234,-540.078,-41.1719,-6.23281
1.46640e-01,428.125,-540.469,-39.8438,-6.18125
1.46650e-01,427.5,-539.766,-40.0781,-6.16406
1.46660e-01,430.859,-540.781,-40.4688,-6.16719
1.46670e-01,431.641,-540.859,-40.1562,-6.16563
1.46680e-01,432.188,-539.141,-40.0781,-6.2
1.46690e-01,432.891,-538.75,-39.2188,-6.21563
1.46700e-01,430.781,-539.688,-40.7812,-6.25938
1.46710e-01,430.625,-542.422,-39.1406,-6.2
1.46720e-01,431.25,-545.234,-34.4531,-6.125
1.46730e-01,429.609,-545.859,-26.4844,-6.0375
1.46740e-01,424.766,-546.172,-23.4375,-5.9625
1.46750e-01,422.969,-546.484,-19.7656,-5.86094
1.46760e-01,426.094,-550.625,-16.25,-5.7625
1.46770e-01,422.422,-549.375,-9.84375,-5.68906
1.46780e-01,416.25,-548.281,-8.82812,-5.64062
1.46790e-01,413.438,-546.875,-9.84375,-5.62656
1.46800e-01,413.828,-547.812,-13.9062,-5.63281
1.46810e-01,412.5,-544.922,-14.5312,-5.64062
1.46820e-01,412.734,-543.828,-15.3125,-5.68281
1.46830e-01,413.906,-540.625,-17.0312,-5.69688
