Laboratory/step1_Steady60_THD_tek0017_WRONG.csv

Model,DPO3014
Firmware Version,2.40

Waveform Type,ANALOG,,,
Point Format,Y,,,
Horizontal Units,s,,,
Horizontal Scale,0.01,,,
Horizontal Delay,-0.0004,,,
Sample Interval,1e-05,,,
Record Length,10000,,,
Gating,0.0% to 100.0%,,,
Probe Attenuation,500,,,
Vertical Units,V,,,
Vertical Offset,0,,,
Vertical Scale,250,,,
Vertical Position,1.58,,,
,,,,
,,,,
,,,,
Label,,,,
TIME,CH1,CH2,CH3,CH4
-5.0400e-02,369.766,173.711,-531.562,-5.91406
-5.0390e-02,370.469,171.836,-531.875,-5.94531
-5.0380e-02,371.484,170.352,-531.992,-5.90469
-5.0370e-02,373.086,169.883,-531.172,-5.89219
-5.0360e-02,373.945,167.227,-529.648,-5.90156
-5.0350e-02,375.391,164.062,-528.594,-5.88438
-5.0340e-02,378.32,160.898,-527.812,-5.88438
-5.0330e-02,381.797,157.188,-528.32,-5.92188
-5.0320e-02,387.031,154.062,-531.406,-5.92813
-5.0310e-02,389.961,152.461,-531.523,-5.94219
-5.0300e-02,392.305,152.07,-532.422,-5.96094
-5.0290e-02,393.242,148.555,-531.367,-5.97031
-5.0280e-02,396.211,144.336,-529.453,-5.95312
-5.0270e-02,396.914,139.844,-526.445,-5.94063
-5.0260e-02,396.055,137.695,-522.656,-5.94063
-5.0250e-02,395.977,134.375,-521.289,-5.94688
-5.0240e-02,399.219,133.281,-523.438,-5.96094
-5.0230e-02,399.102,133.281,-522.617,-5.95469
-5.0220e-02,398.594,134.102,-522.5,-5.92188
-5.0210e-02,397.109,132.93,-520.312,-5.94219
-5.0200e-02,396.133,129.531,-515,-5.92656
-5.0190e-02,396.445,124.375,-512.344,-5.93906
-5.0180e-02,399.961,120.977,-512.266,-5.90781
-5.0170e-02,400.312,119.18,-509.688,-5.88438
-5.0160e-02,398.203,118.398,-505.977,-5.85938
-5.0150e-02,396.836,116.719,-505.117,-5.84531
-5.0140e-02,397.461,115.938,-504.688,-5.84531
-5.0130e-02,399.023,114.766,-504.766,-5.85156
-5.0120e-02,401.445,113.32,-505.195,-5.86094
-5.0110e-02,404.805,111.602,-506.602,-5.90625
-5.0100e-02,410.039,109.883,-511.094,-5.93906
-5.0090e-02,411.914,110.156,-512.773,-5.96719
-5.0080e-02,413.711,111.406,-514.727,-5.97344
-5.0070e-02,414.062,110.234,-514.844,-5.97031
-5.0060e-02,414.727,107.344,-512.266,-5.99063
-5.0050e-02,416.719,102.383,-511.328,-6.03594
-5.0040e-02,422.266,99.5703,-513.594,-6.03906
-5.0030e-02,424.102,98.2812,-513.242,-6.03906
-5.0020e-02,423.867,98.125,-511.484,-6.00469
-5.0010e-02,423.75,97.6172,-512.266,-6.05156
-5.0000e-02,423.086,97.4219,-510.547,-6.08906
-4.9990e-02,423.008,95.9766,-510.664,-6.08906
-4.9980e-02,423.242,95.3125,-510.664,-6.11406
-4.9970e-02,424.219,95.3125,-509.805,-6.09688
-4.9960e-02,423.75,94.0234,-507.93,-6.07969
-4.9950e-02,423.906,92.3438,-507.07,-6.08906
-4.9940e-02,425.43,90.4688,-506.719,-6.09531
-4.9930e-02,427.031,88.2422,-506.758,-6.10313
-4.9920e-02,430.43,86.0938,-507.07,-6.10938
-4.9910e-02,433.633,83.7891,-507.656,-6.125
-4.9900e-02,435.117,81.0938,-505.859,-6.16094
-4.9890e-02,437.422,77.5391,-505.859,-6.16094
-4.9880e-02,439.492,74.6484,-505.781,-6.14688
-4.9870e-02,442.656,72.5781,-505.078,-6.15781
-4.9860e-02,445.625,69.6094,-506.25,-6.16875
-4.9850e-02,445.43,68.6328,-504.492,-6.14688
-4.9840e-02,444.844,68.5156,-503.555,-6.11719
-4.9830e-02,443.359,67.1094,-500.312,-6.08906
-4.9820e-02,441.484,63.7891,-494.102,-6.06563
-4.9810e-02,441.367,59.4141,-491.562,-6.0375
-4.9800e-02,443.203,55.8203,-489.18,-6.04531
-4.9790e-02,445.234,51.7969,-487.422,-6.08281
-4.9780e-02,449.531,48.1641,-488.711,-6.1125
-4.9770e-02,450.898,47.1875,-487.266,-6.10313
-4.9760e-02,449.531,47.7734,-484.961,-6.08281
-4.9750e-02,447.812,47.3047,-485.234,-6.08438
-4.9740e-02,449.141,47.4219,-486.094,-6.06406
-4.9730e-02,450.82,47.5781,-487.852,-6.1
-4.9720e-02,455.156,46.7969,-491.953,-6.12031
-4.9710e-02,458.008,44.6875,-491.523,-6.14688
-4.9700e-02,461.328,40.5859,-491.016,-6.15313
-4.9690e-02,461.992,37.6953,-488.828,-6.14531
-4.9680e-02,461.094,37.0703,-486.328,-6.15313
-4.9670e-02,460.547,35.8203,-486.445,-6.16094
-4.9660e-02,462.188,35.2344,-487.266,-6.18125
-4.9650e-02,464.141,34.8047,-488.477,-6.1875
-4.9640e-02,463.438,34.2969,-486.914,-6.2
-4.9630e-02,464.062,33.0078,-487.031,-6.19531
-4.9620e-02,464.414,31.6406,-486.914,-6.18594
-4.9610e-02,465.547,31.3672,-486.406,-6.16875
-4.9600e-02,465.352,30.4297,-485.117,-6.17344
-4.9590e-02,466.055,29.1797,-484.297,-6.18125
-4.9580e-02,466.914,27.6562,-484.297,-6.16719
-4.9570e-02,468.789,26.6406,-484.531,-6.18594
-4.9560e-02,468.438,25.2344,-482.422,-6.21406
-4.9550e-02,468.555,23.3984,-482.383,-6.19375
-4.9540e-02,469.102,21.5234,-481.641,-6.17969
-4.9530e-02,469.844,20.625,-480.859,-6.16406
-4.9520e-02,469.453,19.1016,-478.906,-6.15
-4.9510e-02,469.492,17.2656,-477.773,-6.15156
-4.9500e-02,470.664,15.9375,-477.07,-6.16094
-4.9490e-02,472.344,14.0234,-477.305,-6.16719
-4.9480e-02,471.562,12.6172,-474.688,-6.19531
-4.9470e-02,472.07,10.3906,-474.141,-6.19375
-4.9460e-02,472.07,8.4375,-473.047,-6.15313
-4.9450e-02,473.242,7.53906,-471.836,-6.12344
-4.9440e-02,472.773,5.78125,-470.039,-6.12031
-4.9430e-02,472.773,3.90625,-468.203,-6.09844
-4.9420e-02,474.062,2.22656,-467.461,-6.1125
-4.9410e-02,475.43,0.664062,-467.695,-6.125
-4.9400e-02,477.539,-1.01562,-467.891,-6.14531
-4.9390e-02,480.234,-2.53906,-469.102,-6.16563
-4.9380e-02,480.703,-3.90625,-467.734,-6.18438
-4.9370e-02,481.758,-5.70312,-468.047,-6.19375
-4.9360e-02,483.008,-7.5,-468.086,-6.2
-4.9350e-02,484.766,-8.32031,-467.969,-6.15781
-4.9340e-02,487.266,-10.5078,-468.711,-6.15313
-4.9330e-02,488.555,-13.5938,-465.82,-6.15
-4.9320e-02,487.422,-18.3984,-459.492,-6.13906
-4.9310e-02,489.375,-24.1406,-456.836,-6.1125
-4.9300e-02,494.102,-29.1797,-457.109,-6.10625
-4.9290e-02,495.195,-31.1719,-455.234,-6.11406
-4.9280e-02,493.477,-31.4844,-452.656,-6.09844
-4.9270e-02,491.445,-31.7188,-451.836,-6.09688
-4.9260e-02,493.594,-32.2266,-454.609,-6.10625
-4.9250e-02,495.117,-33.2812,-453.047,-6.07812
-4.9240e-02,494.219,-36.6797,-448.711,-6.05156
-4.9230e-02,495.391,-40.7031,-447.383,-6.03125
-4.9220e-02,498.477,-43.6719,-446.758,-6.05938
-4.9210e-02,501.055,-46.875,-446.758,-6.08281
-4.9200e-02,501.602,-49.3359,-443.867,-6.10313
-4.9190e-02,502.539,-52.4609,-443.438,-6.10938
-4.9180e-02,503.633,-55.2734,-442.578,-6.1125
-4.9170e-02,505.859,-57.0703,-441.133,-6.075
-4.9160e-02,506.094,-59.375,-438.828,-6.06875
-4.9150e-02,506.68,-61.3672,-438.008,-6.05781
-4.9140e-02,508.164,-63.0859,-437.461,-6.07656
-4.9130e-02,509.961,-64.4531,-437.812,-6.09531
-4.9120e-02,508.945,-65.1562,-435.547,-6.09531
-4.9110e-02,509.453,-66.6797,-435.43,-6.10313
-4.9100e-02,509.414,-67.8516,-435.117,-6.08281
-4.9090e-02,510.703,-68.2812,-434.258,-6.07031
-4.9080e-02,509.609,-69.0234,-432.578,-6.06875
-4.9070e-02,509.453,-69.5703,-432.07,-6.06406
-4.9060e-02,509.609,-69.7656,-432.188,-6.08281
-4.9050e-02,510.391,-70.3125,-433.164,-6.1125
-4.9040e-02,514.18,-70.9375,-436.523,-6.09219
-4.9030e-02,516.367,-72.3047,-435.82,-6.09688
-4.9020e-02,516.758,-75.1953,-432.734,-6.10313
-4.9010e-02,518.945,-78.4766,-432.422,-6.12344
-4.9000e-02,519.258,-80.6641,-429.531,-6.14062
-4.8990e-02,520.469,-83.9453,-428.672,-6.14375
-4.8980e-02,521.289,-86.5234,-427.773,-6.12969
-4.8970e-02,522.578,-88.5938,-426.211,-6.09219
-4.8960e-02,522.891,-90.0391,-423.672,-6.09063
-4.8950e-02,523.086,-91.7578,-422.695,-6.07969
-4.8940e-02,523.906,-93.0859,-422.305,-6.09844
-4.8930e-02,525.312,-93.8281,-422.422,-6.10313
-4.8920e-02,524.258,-93.7891,-420.43,-6.13438
-4.8910e-02,523.906,-94.8438,-420.742,-6.15
-4.8900e-02,523.398,-95.2344,-420.469,-6.125
-4.8890e-02,524.062,-95.0781,-419.609,-6.12031
-4.8880e-02,524.609,-96.0547,-420.195,-6.1125
-4.8870e-02,524.219,-97.3828,-417.148,-6.10313
-4.8860e-02,521.367,-99.4531,-412.266,-6.06406
-4.8850e-02,521.523,-102.383,-410.508,-6.05625
-4.8840e-02,521.875,-104.531,-409.219,-6.04844
-4.8830e-02,523.086,-106.602,-408.672,-6.04844
-4.8820e-02,525.156,-108.164,-408.516,-6.07031
-4.8810e-02,526.992,-109.688,-409.336,-6.075
-4.8800e-02,526.094,-109.727,-407.969,-6.08281
-4.8790e-02,526.523,-110.664,-408.32,-6.08594
-4.8780e-02,528.984,-112.812,-409.883,-6.07656
-4.8770e-02,530.391,-114.453,-407.852,-6.07656
-4.8760e-02,527.109,-116.914,-402.109,-6.05781
-4.8750e-02,525.938,-120.625,-399.57,-6.02344
-4.8740e-02,526.172,-123.633,-397.539,-6.00313
-4.8730e-02,526.914,-125.898,-395.977,-5.98438
-4.8720e-02,527.891,-127.578,-395.469,-5.99688
-4.8710e-02,529.414,-129.453,-395.625,-5.99531
-4.8700e-02,533.633,-131.758,-397.734,-5.98281
-4.8690e-02,536.719,-134.258,-396.992,-6.00938
-4.8680e-02,539.219,-138.164,-395.82,-6.03594
-4.8670e-02,539.961,-140.078,-395.234,-6.02969
-4.8660e-02,540.391,-139.844,-395.508,-6.02188
-4.8650e-02,538.75,-139.727,-393.945,-6.00781
-4.8640e-02,535.898,-140.859,-391.367,-5.975
-4.8630e-02,535.82,-142.812,-390.781,-5.96719
-4.8620e-02,539.219,-145.195,-391.797,-5.96719
-4.8610e-02,540.586,-147.695,-390.352,-5.93906
-4.8600e-02,539.453,-150.82,-386.68,-5.94688
-4.8590e-02,541.094,-154.883,-385.938,-5.96875
-4.8580e-02,540.508,-156.25,-382.734,-5.95469
-4.8570e-02,540.781,-158.867,-381.484,-5.93281
-4.8560e-02,541.367,-161.758,-380.469,-5.93594
-4.8550e-02,541.953,-163.164,-378.32,-5.92188
-4.8540e-02,541.094,-164.453,-376.445,-5.93281
-4.8530e-02,540.781,-165.039,-375.664,-5.94063
-4.8520e-02,543.164,-166.641,-377.578,-5.93906
-4.8510e-02,544.375,-167.93,-375.938,-5.92656
-4.8500e-02,543.477,-169.922,-372.188,-5.92031
-4.8490e-02,544.023,-172.969,-371.641,-5.93281
-4.8480e-02,543.164,-173.477,-368.672,-5.92656
-4.8470e-02,542.5,-175.195,-368.164,-5.90781
-4.8460e-02,542.227,-177.148,-367.852,-5.90156
-4.8450e-02,542.969,-177.812,-366.289,-5.875
-4.8440e-02,543.398,-179.297,-366.68,-5.83125
-4.8430e-02,543.398,-180.508,-364.18,-5.82656
-4.8420e-02,540.469,-182.031,-359.18,-5.79219
-4.8410e-02,539.922,-184.492,-357.852,-5.77656
-4.8400e-02,541.172,-186.133,-357.148,-5.78281
-4.8390e-02,542.109,-187.031,-357.148,-5.79844
-4.8380e-02,545.586,-188.984,-359.648,-5.825
-4.8370e-02,547.852,-190.898,-359.297,-5.82969
-4.8360e-02,547.773,-192.812,-356.133,-5.8375
-4.8350e-02,549.961,-195.898,-356.484,-5.85
-4.8340e-02,550.039,-196.367,-354.766,-5.87344
-4.8330e-02,550.312,-198.125,-355.352,-5.8875
-4.8320e-02,550.586,-199.57,-354.922,-5.86563
-4.8310e-02,552.344,-200.43,-354.688,-5.84688
-4.8300e-02,553.477,-201.602,-355.469,-5.83125
-4.8290e-02,553.789,-202.539,-353.398,-5.8125
-4.8280e-02,551.836,-203.828,-349.102,-5.79531
-4.8270e-02,551.562,-206.289,-348.359,-5.79219
-4.8260e-02,554.219,-208.828,-349.805,-5.80625
-4.8250e-02,556.523,-211.211,-348.477,-5.78594
-4.8240e-02,555.938,-213.32,-344.688,-5.79063
-4.8230e-02,557.07,-216.562,-344.336,-5.81563
-4.8220e-02,556.68,-217.148,-341.875,-5.81563
-4.8210e-02,556.523,-218.672,-341.719,-5.8
-4.8200e-02,556.641,-220.117,-340.742,-5.79219
-4.8190e-02,557.539,-220.781,-339.922,-5.78438
-4.8180e-02,558.008,-221.992,-340.352,-5.80313
-4.8170e-02,557.852,-222.93,-338.008,-5.79531
-4.8160e-02,555.273,-223.711,-333.555,-5.76875
-4.8150e-02,554.414,-225.391,-332.344,-5.76562
-4.8140e-02,556.523,-227.383,-333.555,-5.75156
-4.8130e-02,558.516,-228.906,-332.422,-5.74844
-4.8120e-02,557.227,-230.508,-328.75,-5.725
-4.8110e-02,558.164,-233.125,-328.438,-5.72969
-4.8100e-02,556.953,-233.008,-326.445,-5.72813
-4.8090e-02,556.484,-234.023,-326.094,-5.73125
-4.8080e-02,556.602,-235.664,-326.367,-5.70312
-4.8070e-02,559.062,-237.031,-325.156,-5.7
-4.8060e-02,555,-237.617,-319.727,-5.68906
-4.8050e-02,553.047,-238.867,-317.578,-5.64844
-4.8040e-02,553.438,-240.195,-317.93,-5.64531
-4.8030e-02,554.57,-241.602,-316.445,-5.63281
-4.8020e-02,552.031,-242.383,-311.914,-5.61563
-4.8010e-02,551.875,-244.336,-310.859,-5.58594
-4.8000e-02,553.789,-245.859,-312.07,-5.6
-4.7990e-02,556.523,-247.539,-312.422,-5.60156
-4.7980e-02,555.43,-248.633,-309.297,-5.61875
-4.7970e-02,556.641,-250.977,-309.883,-5.62031
-4.7960e-02,557.578,-251.133,-309.883,-5.63906
-4.7950e-02,558.672,-253.359,-309.141,-5.63594
-4.7940e-02,556.641,-255.078,-304.453,-5.60469
-4.7930e-02,556.523,-257.617,-301.523,-5.59531
-4.7920e-02,555.82,-259.57,-300.117,-5.56406
-4.7910e-02,557.383,-261.562,-298.477,-5.53125
-4.7900e-02,554.805,-262.695,-293.477,-5.54531
-4.7890e-02,554.414,-264.648,-292.227,-5.55
-4.7880e-02,555.82,-266.133,-292.93,-5.52656
-4.7870e-02,558.711,-267.734,-293.438,-5.54688
-4.7860e-02,557.578,-268.672,-290.195,-5.53594
-4.7850e-02,558.516,-270.391,-290.859,-5.53594
-4.7840e-02,559.18,-270.586,-291.016,-5.54063
-4.7830e-02,560.273,-272.461,-290.703,-5.5375
-4.7820e-02,557.227,-273.477,-285.977,-5.52031
-4.7810e-02,556.953,-275.938,-283.75,-5.49844
-4.7800e-02,556.289,-277.656,-281.68,-5.46094
-4.7790e-02,556.953,-279.492,-280.352,-5.42969
-4.7780e-02,554.219,-280,-275.43,-5.40938
-4.7770e-02,553.242,-281.289,-274.297,-5.37656
-4.7760e-02,553.984,-282.227,-275.195,-5.37969
-4.7750e-02,556.445,-283.438,-275.703,-5.38906
-4.7740e-02,555.195,-283.555,-272.93,-5.38125
-4.7730e-02,555.352,-284.453,-273.711,-5.40625
-4.7720e-02,556.133,-284.609,-274.648,-5.44063
-4.7710e-02,556.445,-285.82,-273.867,-5.42969
-4.7700e-02,552.891,-286.25,-269.062,-5.39062
-4.7690e-02,552.539,-288.477,-266.367,-5.33906
-4.7680e-02,551.68,-290.352,-265.156,-5.30469
-4.7670e-02,551.328,-291.797,-262.188,-5.26719
-4.7660e-02,548.086,-292.109,-256.953,-5.2375
-4.7650e-02,546.953,-293.516,-255.625,-5.22969
-4.7640e-02,548.086,-294.883,-256.445,-5.21563
-4.7630e-02,549.727,-296.562,-255.273,-5.21875
-4.7620e-02,547.812,-297.188,-252.148,-5.20156
-4.7610e-02,548.281,-298.438,-252.5,-5.2125
-4.7600e-02,548.242,-298.555,-252.383,-5.20938
-4.7590e-02,548.984,-299.648,-251.602,-5.21563
-4.7580e-02,544.766,-300.586,-246.836,-5.16719
-4.7570e-02,544.258,-302.695,-244.141,-5.10625
-4.7560e-02,543.203,-304.414,-242.5,-5.09375
-4.7550e-02,542.5,-305.781,-239.883,-5.08125
-4.7540e-02,539.375,-306.211,-235.078,-5.08594
-4.7530e-02,537.578,-307.5,-233.867,-5.06094
-4.7520e-02,539.062,-309.18,-234.922,-5.07969
-4.7510e-02,540.82,-310.312,-234.062,-5.07656
-4.7500e-02,541.289,-312.383,-232.539,-5.08125
-4.7490e-02,541.797,-315.352,-230.195,-5.06563
-4.7480e-02,541.133,-317.422,-226.406,-5.04688
-4.7470e-02,541.992,-320.469,-225.938,-5.07344
-4.7460e-02,541.602,-320.43,-223.984,-5.09375
-4.7450e-02,541.484,-321.289,-224.18,-5.10938
-4.7440e-02,542.344,-323.203,-225.156,-5.08125
-4.7430e-02,544.922,-325.078,-223.164,-5.05313
-4.7420e-02,543.203,-327.266,-219.453,-5.03906
-4.7410e-02,542.461,-329.688,-215.508,-5.01875
-4.7400e-02,540.078,-331.836,-209.844,-4.99688
-4.7390e-02,539.219,-334.766,-208.086,-4.98438
-4.7380e-02,541.25,-337.812,-208.359,-4.93594
-4.7370e-02,543.828,-340.273,-206.641,-4.93125
-4.7360e-02,542.734,-341.719,-203.359,-4.9375
-4.7350e-02,543.906,-343.672,-203.828,-4.95312
-4.7340e-02,543.633,-343.633,-203.672,-4.98281
-4.7330e-02,545.781,-345.82,-204.609,-4.98594
-4.7320e-02,542.852,-346.055,-200.508,-4.95312
-4.7310e-02,543.242,-347.969,-198.359,-4.92969
-4.7300e-02,542.344,-348.75,-198.047,-4.93281
-4.7290e-02,543.984,-349.766,-197.969,-4.93125
-4.7280e-02,541.016,-348.555,-194.805,-4.93125
-4.7270e-02,539.805,-348.555,-195.664,-4.91563
-4.7260e-02,542.539,-349.141,-198.75,-4.92969
-4.7250e-02,544.414,-348.906,-199.453,-4.96406
-4.7240e-02,545.273,-349.922,-199.727,-4.97188
-4.7230e-02,546.992,-351.602,-199.609,-4.96563
-4.7220e-02,543.711,-350.156,-195.703,-4.95
-4.7210e-02,542.891,-351.328,-195.664,-4.94375
-4.7200e-02,543.242,-353.047,-195.977,-4.92344
-4.7190e-02,546.562,-355.781,-194.727,-4.92813
-4.7180e-02,544.688,-357.461,-190.781,-4.89062
-4.7170e-02,543.555,-359.961,-187.344,-4.85469
-4.7160e-02,540.82,-361.016,-182.227,-4.84688
-4.7150e-02,540.078,-363.281,-180.664,-4.83594
-4.7140e-02,540.781,-364.805,-180.898,-4.82969
-4.7130e-02,544.18,-366.367,-181.328,-4.82656
-4.7120e-02,540.273,-363.945,-176.641,-4.8375
-4.7110e-02,538.125,-364.57,-176.953,-4.82344
-4.7100e-02,537.5,-365.195,-177.031,-4.80781
-4.7090e-02,539.961,-367.188,-176.133,-4.75156
-4.7080e-02,537.773,-367.852,-172.109,-4.7625
-4.7070e-02,535.508,-369.453,-168.867,-4.70781
-4.7060e-02,534.258,-371.758,-165.312,-4.6875
-4.7050e-02,533.516,-374.805,-161.523,-4.64531
-4.7040e-02,530.938,-376.758,-156.211,-4.59688
-4.7030e-02,530.742,-379.141,-154.414,-4.5875
-4.7020e-02,532.109,-381.211,-154.258,-4.5875
-4.7010e-02,535.625,-383.438,-154.609,-4.59531
-4.7000e-02,531.914,-381.875,-150.117,-4.58438
-4.6990e-02,530.156,-382.539,-150.156,-4.58125
-4.6980e-02,530.781,-384.375,-151.016,-4.55625
-4.6970e-02,532.891,-386.133,-148.242,-4.54063
-4.6960e-02,531.055,-387.383,-144.219,-4.50625
-4.6950e-02,529.062,-389.219,-140.469,-4.47188
-4.6940e-02,526.094,-390.195,-135.273,-4.48281
-4.6930e-02,525.586,-391.25,-134.062,-4.46875
-4.6920e-02,526.992,-392.5,-134.805,-4.46719
-4.6910e-02,529.414,-393.594,-134.141,-4.47188
-4.6900e-02,530.273,-394.844,-133.281,-4.51875
-4.6890e-02,531.797,-396.719,-132.344,-4.52188
-4.6880e-02,528.672,-395.898,-127.93,-4.53281
-4.6870e-02,527.422,-397.344,-127.578,-4.52969
-4.6860e-02,528.672,-399.961,-127.812,-4.49844
-4.6850e-02,531.094,-403.125,-124.766,-4.47813
-4.6840e-02,527.148,-403.32,-119.531,-4.44688
-4.6830e-02,525.742,-403.906,-118.398,-4.41406
-4.6820e-02,526.68,-404.844,-119.414,-4.42031
-4.6810e-02,528.359,-405.234,-119.648,-4.42813
-4.6800e-02,528.984,-406.094,-119.062,-4.44063
-4.6790e-02,529.688,-407.422,-118.594,-4.44375
-4.6780e-02,526.25,-405.625,-114.766,-4.4125
-4.6770e-02,524.922,-406.055,-115.312,-4.40938
-4.6760e-02,524.531,-407.148,-115.547,-4.41719
-4.6750e-02,527.305,-409.023,-114.609,-4.37813
-4.6740e-02,525.43,-410,-111.289,-4.36563
-4.6730e-02,524.023,-411.094,-108.789,-4.35156
-4.6720e-02,522.93,-412.93,-106.211,-4.32969
-4.6710e-02,522.852,-415.703,-103.203,-4.32969
-4.6700e-02,520.859,-416.797,-99.3359,-4.31406
-4.6690e-02,521.133,-418.555,-98.75,-4.32188
-4.6680e-02,521.211,-418.828,-98.7109,-4.33594
-4.6670e-02,522.227,-419.805,-97.5781,-4.33906
-4.6660e-02,518.164,-419.922,-93.6719,-4.30938
-4.6650e-02,517.734,-421.68,-91.9531,-4.26719
-4.6640e-02,516.211,-421.836,-90.8594,-4.24688
-4.6630e-02,517.461,-422.188,-90.7031,-4.22813
-4.6620e-02,516.289,-422.344,-89.9219,-4.21406
-4.6610e-02,515.586,-422.93,-89.1016,-4.17344
-4.6600e-02,516.016,-424.375,-88.2031,-4.2125
-4.6590e-02,516.758,-425.938,-86.875,-4.1875
-4.6580e-02,513.125,-424.18,-82.7344,-4.18906
-4.6570e-02,511.094,-425.039,-82.7734,-4.19531
-4.6560e-02,510.898,-426.211,-82.7344,-4.17188
-4.6550e-02,513.633,-428.828,-81.1328,-4.125
-4.6540e-02,511.797,-429.648,-77.7344,-4.12656
-4.6530e-02,509.883,-431.172,-75.2734,-4.10313
-4.6520e-02,509.219,-433.359,-72.5391,-4.1
-4.6510e-02,508.672,-435.977,-69.7656,-4.08281
-4.6500e-02,506.797,-437.266,-65.9766,-4.05469
-4.6490e-02,506.992,-438.867,-65.7031,-4.09063
-4.6480e-02,506.289,-438.008,-65.5469,-4.08906
-4.6470e-02,508.203,-439.258,-66.4062,-4.09063
-4.6460e-02,505.352,-439.062,-63.5547,-4.06563
-4.6450e-02,504.648,-439.648,-62.7344,-4.05469
-4.6440e-02,501.211,-436.289,-61.9141,-4.04844
-4.6430e-02,500.195,-435.43,-62.2266,-4.02344
-4.6420e-02,498.086,-435.898,-60.2344,-3.97969
-4.6410e-02,495.273,-435.938,-56.4062,-3.96094
-4.6400e-02,491.641,-436.523,-53.0078,-3.92656
-4.6390e-02,489.297,-437.344,-49.4531,-3.87031
-4.6380e-02,487.266,-438.711,-46.2109,-3.82969
-4.6370e-02,486.406,-441.055,-42.6172,-3.82969
-4.6360e-02,485.547,-443.828,-39.1797,-3.79844
-4.6350e-02,485.469,-447.539,-35.7812,-3.78281
-4.6340e-02,484.336,-449.492,-31.4844,-3.7625
-4.6330e-02,484.609,-451.875,-30.5078,-3.7625
-4.6320e-02,485.664,-452.5,-30.1953,-3.77969
-4.6310e-02,486.992,-454.609,-29.3359,-3.77656
-4.6300e-02,483.516,-454.922,-25.7422,-3.76094
-4.6290e-02,483.594,-457.227,-24.0234,-3.72344
-4.6280e-02,481.523,-456.367,-22.5,-3.74219
-4.6270e-02,479.727,-456.484,-21.0938,-3.72344
-4.6260e-02,476.172,-456.367,-17.2656,-3.68125
-4.6250e-02,473.164,-455.273,-14.9219,-3.63281
-4.6240e-02,471.211,-454.531,-15.6641,-3.58438
-4.6230e-02,471.523,-453.047,-15.5078,-3.57344
-4.6220e-02,470,-451.68,-15.625,-3.57188
-4.6210e-02,469.453,-450.977,-15.625,-3.53906
-4.6200e-02,469.531,-451.094,-16.1328,-3.55
-4.6190e-02,470.156,-451.602,-16.4844,-3.54063
-4.6180e-02,469.414,-450.859,-14.7656,-3.54063
-4.6170e-02,469.062,-452.344,-13.6328,-3.54531
