Laboratory/step1_Steady30_detail_tek0001.csv

Model,DPO3014
Firmware Version,2.40

Waveform Type,ANALOG,,,
Point Format,Y,,,
Horizontal Units,s,,,
Horizontal Scale,0.004,,,
Horizontal Delay,0,,,
Sample Interval,4e-06,,,
Record Length,10000,,,
Gating,0.0% to 100.0%,,,
Probe Attenuation,500,,,
Vertical Units,V,,,
Vertical Offset,0,,,
Vertical Scale,250,,,
Vertical Position,1.3,,,
,,,,
,,,,
,,,,
Label,,,,
TIME,CH1,CH2,CH3,CH4
-2.0000e-02,26.4062,-495.156,463.828,3.99063
-1.9996e-02,25,-494.141,464.375,4
-1.9992e-02,23.7891,-493.789,464.57,4.00781
-1.9988e-02,22.9688,-492.812,464.883,4.03281
-1.9984e-02,21.4062,-491.914,464.375,4.05938
-1.9980e-02,20.625,-491.094,464.648,4.0875
-1.9976e-02,19.7266,-489.727,464.57,4.0875
-1.9972e-02,19.4922,-491.094,464.375,4.12969
-1.9968e-02,18.2031,-489.727,465.508,4.1125
-1.9964e-02,17.0312,-488.75,466.016,4.16094
-1.9960e-02,15.7422,-487.695,466.016,4.18594
-1.9956e-02,14.6484,-486.68,466.875,4.18594
-1.9952e-02,13.3984,-486.406,467.539,4.19531
-1.9948e-02,12.1875,-485.781,467.695,4.20625
-1.9944e-02,11.25,-485.078,468.047,4.22188
-1.9940e-02,9.84375,-484.57,468.438,4.24688
-1.9936e-02,8.71094,-484.258,469.922,4.26406
-1.9932e-02,7.8125,-483.75,470.234,4.25938
-1.9928e-02,6.67969,-483.867,470.938,4.29219
-1.9924e-02,5.78125,-483.672,471.953,4.32344
-1.9920e-02,4.33594,-484.961,472.266,4.36094
-1.9916e-02,4.375,-485.703,473.984,4.36406
-1.9912e-02,4.33594,-485.898,475.742,4.37656
-1.9908e-02,3.75,-486.094,476.445,4.39375
-1.9904e-02,3.94531,-486.406,476.68,4.38906
-1.9900e-02,4.0625,-488.047,475.664,4.36406
-1.9896e-02,5.78125,-487.617,477.188,4.36563
-1.9892e-02,5.19531,-487.305,477.266,4.37656
-1.9888e-02,4.6875,-487.188,476.328,4.37656
-1.9884e-02,4.49219,-486.523,475.82,4.37344
-1.9880e-02,3.55469,-486.289,476.25,4.37813
-1.9876e-02,2.85156,-484.297,477.695,4.39219
-1.9872e-02,0.3125,-482.852,476.836,4.4125
-1.9868e-02,-0.117188,-482.461,476.328,4.41875
-1.9864e-02,-1.13281,-481.523,475.742,4.45781
-1.9860e-02,-2.14844,-481.211,476.641,4.45938
-1.9856e-02,-3.125,-480.898,477.148,4.48594
-1.9852e-02,-3.86719,-480.234,478.477,4.47969
-1.9848e-02,-4.88281,-479.727,479.375,4.51563
-1.9844e-02,-6.28906,-479.57,479.805,4.54063
-1.9840e-02,-7.22656,-481.094,480.391,4.52813
-1.9836e-02,-7.10938,-482.266,482.109,4.54688
-1.9832e-02,-7.5,-482.461,483.477,4.57969
-1.9828e-02,-7.8125,-482.617,484.57,4.5875
-1.9824e-02,-8.04688,-482.617,483.789,4.59688
-1.9820e-02,-6.99219,-484.57,483.672,4.575
-1.9816e-02,-5.27344,-484.062,484.961,4.56875
-1.9812e-02,-6.09375,-483.75,485,4.55625
-1.9808e-02,-6.32812,-483.789,484.258,4.55625
-1.9804e-02,-6.91406,-483.477,483.125,4.59531
-1.9800e-02,-7.30469,-482.93,483.438,4.5875
-1.9796e-02,-8.04688,-480.586,484.688,4.60938
-1.9792e-02,-9.88281,-479.492,483.789,4.625
-1.9788e-02,-10.5469,-478.984,482.969,4.63281
-1.9784e-02,-11.0938,-478.047,482.969,4.66094
-1.9780e-02,-12.3047,-477.539,482.93,4.67813
-1.9776e-02,-13.125,-477.578,484.062,4.68125
-1.9772e-02,-13.5938,-477.383,484.805,4.69063
-1.9768e-02,-14.5312,-477.539,485.391,4.70938
-1.9764e-02,-15.5469,-477.656,485.586,4.74375
-1.9760e-02,-16.5625,-475.742,487.031,4.75938
-1.9756e-02,-17.5781,-474.727,486.992,4.75938
-1.9752e-02,-17.9688,-474.297,486.719,4.7625
-1.9748e-02,-18.7109,-473.789,486.211,4.77188
-1.9744e-02,-19.6875,-473.281,485.664,4.80313
-1.9740e-02,-19.6875,-472.188,485.508,4.80313
-1.9736e-02,-20,-471.289,485.977,4.78281
-1.9732e-02,-20.7422,-472.266,485,4.79844
-1.9728e-02,-21.1328,-470.742,485.586,4.79219
-1.9724e-02,-21.7188,-469.961,485.898,4.7875
-1.9720e-02,-22.8516,-469.219,485.703,4.77813
-1.9716e-02,-23.3594,-468.516,486.016,4.76406
-1.9712e-02,-24.0625,-468.008,486.094,4.79219
-1.9708e-02,-24.2578,-467.305,485.703,4.81875
-1.9704e-02,-25,-466.719,485.781,4.84375
-1.9700e-02,-25.9766,-466.484,486.523,4.86406
-1.9696e-02,-26.2891,-466.094,487.344,4.85313
-1.9692e-02,-26.2891,-466.016,488.008,4.84063
-1.9688e-02,-27.3047,-465.977,488.242,4.83281
-1.9684e-02,-28.1641,-465.898,487.812,4.85938
-1.9680e-02,-28.75,-466.289,488.516,4.86875
-1.9676e-02,-28.75,-466.68,489.648,4.87188
-1.9672e-02,-28.9453,-466.875,490.273,4.89375
-1.9668e-02,-29.3359,-467.734,491.602,4.925
-1.9664e-02,-29.8828,-467.891,492.383,4.94219
-1.9660e-02,-30.1953,-467.109,494.336,4.96563
-1.9656e-02,-31.6016,-467.305,493.438,4.96094
-1.9652e-02,-31.9141,-467.227,493.594,4.97344
-1.9648e-02,-31.9141,-467.109,493.789,5.01406
-1.9644e-02,-31.9922,-466.719,493.125,5.03594
-1.9640e-02,-32.2266,-466.523,493.086,5.01563
-1.9636e-02,-32.7344,-465.703,492.305,4.99844
-1.9632e-02,-32.2266,-467.617,492.305,4.99531
-1.9628e-02,-32.1094,-466.875,493.281,4.99063
-1.9624e-02,-32.5781,-466.211,493.438,4.99063
-1.9620e-02,-33.3984,-467.031,493.203,4.99531
-1.9616e-02,-33.3984,-467.422,494.219,4.96719
-1.9612e-02,-34.0234,-466.367,495.352,5.00625
-1.9608e-02,-35.3516,-465.664,495.938,5.01094
-1.9604e-02,-37.1875,-464.648,496.133,5.02344
-1.9600e-02,-39.0234,-463.047,496.484,5.05156
-1.9596e-02,-40.625,-460.078,497.773,5.07969
-1.9592e-02,-43.3984,-458.398,497.695,5.10938
-1.9588e-02,-45.8203,-457.227,497.266,5.14844
-1.9584e-02,-47.3438,-456.055,497.188,5.18438
-1.9580e-02,-48.9453,-456.133,496.875,5.20625
-1.9576e-02,-49.7656,-455.508,499.102,5.24688
-1.9572e-02,-51.0938,-454.336,499.922,5.2625
-1.9568e-02,-51.7969,-453.398,499.609,5.2625
-1.9564e-02,-52.3828,-453.477,500.234,5.25938
-1.9560e-02,-52.8906,-452.656,499.609,5.275
-1.9556e-02,-52.2266,-450.859,499.883,5.27813
-1.9552e-02,-52.1875,-450.117,498.203,5.25469
-1.9548e-02,-51.7188,-450.039,496.25,5.25469
-1.9544e-02,-51.3672,-449.766,495.938,5.23125
-1.9540e-02,-51.2109,-451.133,494.453,5.21094
-1.9536e-02,-50.3906,-451.562,495.352,5.20156
-1.9532e-02,-50.3516,-451.172,496.328,5.18906
-1.9528e-02,-51.3672,-450.625,496.484,5.20625
-1.9524e-02,-52.1094,-450.039,496.25,5.23125
-1.9520e-02,-52.8125,-449.141,497.188,5.25781
-1.9516e-02,-54.4141,-446.719,498.203,5.29531
-1.9512e-02,-56.4453,-445.195,497.5,5.29531
-1.9508e-02,-57.9688,-444.531,496.758,5.31875
-1.9504e-02,-59.1016,-443.672,496.328,5.36094
-1.9500e-02,-60,-443.125,497.344,5.34063
-1.9496e-02,-61.0547,-442.656,497.773,5.36719
-1.9492e-02,-61.9531,-442.5,498.789,5.3875
-1.9488e-02,-63.2031,-441.719,498.906,5.42813
-1.9484e-02,-63.9844,-441.289,499.727,5.44844
-1.9480e-02,-65.2344,-441.406,501.641,5.44844
-1.9476e-02,-66.4453,-441.719,502.148,5.46094
-1.9472e-02,-67.1094,-441.836,503.75,5.475
-1.9468e-02,-68.1641,-442.109,503.984,5.50313
-1.9464e-02,-69.2969,-442.617,505,5.55
-1.9460e-02,-69.8047,-441.133,507.539,5.55625
-1.9456e-02,-71.0156,-440.977,507.539,5.56719
-1.9452e-02,-71.4844,-441.797,507.422,5.58281
-1.9448e-02,-72.2266,-441.211,507.422,5.59688
-1.9444e-02,-73.2031,-440.586,506.992,5.62344
-1.9440e-02,-73.0078,-440.195,507.5,5.60313
-1.9436e-02,-73.4375,-439.609,507.422,5.59219
-1.9432e-02,-74.375,-440.82,506.836,5.6125
-1.9428e-02,-74.5703,-440.273,508.047,5.61563
-1.9424e-02,-75.2734,-439.766,508.32,5.625
-1.9420e-02,-75.2734,-439.609,508.945,5.6375
-1.9416e-02,-76.3672,-439.297,509.531,5.63125
-1.9412e-02,-76.6016,-438.867,509.688,5.60469
-1.9408e-02,-76.875,-438.945,510.039,5.64375
-1.9404e-02,-77.3828,-439.062,510.156,5.65625
-1.9400e-02,-78.0078,-440.625,510.078,5.66094
-1.9396e-02,-77.7734,-440.977,511.68,5.66094
-1.9392e-02,-78.2812,-441.094,513.398,5.67813
-1.9388e-02,-79.3359,-440.703,514.219,5.72188
-1.9384e-02,-80.9375,-440,514.766,5.74688
-1.9380e-02,-82.7734,-440.117,514.922,5.76719
-1.9376e-02,-83.4766,-438.672,517.812,5.78594
-1.9372e-02,-85.2344,-437.539,517.969,5.80781
-1.9368e-02,-86.8359,-436.641,516.797,5.85156
-1.9364e-02,-87.1484,-436.25,517.305,5.83438
-1.9360e-02,-87.2656,-436.562,515.625,5.81406
-1.9356e-02,-86.7188,-435.234,516.641,5.82344
-1.9352e-02,-87.6562,-434.102,516.289,5.84375
-1.9348e-02,-88.1641,-433.164,514.922,5.82344
-1.9344e-02,-88.8672,-431.953,514.336,5.82031
-1.9340e-02,-89.8047,-430.312,514.414,5.81875
-1.9336e-02,-91.3281,-427.578,514.219,5.84688
-1.9332e-02,-92.9297,-425.078,513.633,5.85938
-1.9328e-02,-94.0625,-424.023,511.914,5.85469
-1.9324e-02,-95.0391,-422.695,511.211,5.88125
-1.9320e-02,-96.0938,-421.68,511.797,5.89219
-1.9316e-02,-96.9922,-420.586,512.109,5.89531
-1.9312e-02,-97.7344,-419.688,512.227,5.90938
-1.9308e-02,-99.1406,-419.375,512.07,5.94219
-1.9304e-02,-100.039,-418.477,512.227,5.94844
-1.9300e-02,-100.781,-417.969,513.516,5.95
-1.9296e-02,-101.367,-417.852,513.594,5.97031
-1.9292e-02,-102.148,-417.773,514.414,5.98906
-1.9288e-02,-103.203,-417.461,515.039,6.00625
-1.9284e-02,-103.906,-417.852,515.156,6.02656
-1.9280e-02,-103.984,-416.914,517.266,6.05
-1.9276e-02,-105,-416.211,516.875,6.06719
-1.9272e-02,-105.938,-416.133,516.055,6.04688
-1.9268e-02,-105.703,-415.82,515.625,6.05781
-1.9264e-02,-105.938,-415.117,514.961,6.07031
-1.9260e-02,-105.859,-414.57,515.117,6.075
-1.9256e-02,-106.445,-413.672,514.141,6.09844
-1.9252e-02,-106.328,-415.195,513.516,6.08281
-1.9248e-02,-106.055,-414.062,513.906,6.06719
-1.9244e-02,-107.07,-413.359,513.75,6.07188
-1.9240e-02,-107.227,-412.773,514.219,6.07031
-1.9236e-02,-106.719,-412.578,514.219,6.05781
-1.9232e-02,-107.031,-411.953,513.711,6.03906
-1.9228e-02,-107.578,-412.031,513.516,6.03906
-1.9224e-02,-107.852,-412.148,513.203,6.02656
-1.9220e-02,-107.148,-413.203,513.32,5.99688
-1.9216e-02,-106.875,-413.711,513.594,5.99844
-1.9212e-02,-107.344,-413.711,514.531,6.03906
-1.9208e-02,-108.477,-413.281,515.469,6.07031
-1.9204e-02,-109.414,-412.578,515.664,6.05469
-1.9200e-02,-110.586,-412.266,516.875,6.07969
-1.9196e-02,-111.836,-410.039,518.086,6.08438
-1.9192e-02,-114.141,-408.398,516.953,6.09531
-1.9188e-02,-115.508,-408.281,515.938,6.12344
-1.9184e-02,-116.172,-407.5,516.484,6.15938
-1.9180e-02,-117.305,-407.109,517.578,6.18125
-1.9176e-02,-118.32,-406.562,518.711,6.18906
-1.9172e-02,-119.258,-406.484,518.906,6.22969
-1.9168e-02,-120.156,-406.367,519.18,6.26719
-1.9164e-02,-120.742,-406.445,520.547,6.30156
-1.9160e-02,-121.875,-405.547,522.734,6.31406
-1.9156e-02,-122.5,-404.922,522.891,6.33438
-1.9152e-02,-122.969,-404.844,521.875,6.34375
-1.9148e-02,-123.906,-404.57,520.938,6.3625
-1.9144e-02,-124.297,-404.141,521.719,6.375
-1.9140e-02,-124.219,-403.555,521.211,6.38438
-1.9136e-02,-124.297,-402.695,521.367,6.4
-1.9132e-02,-124.805,-403.75,520.352,6.41719
-1.9128e-02,-125.156,-402.539,521.055,6.41563
-1.9124e-02,-125.156,-402.305,522.07,6.40781
-1.9120e-02,-125.625,-402.422,521.641,6.3875
-1.9116e-02,-126.25,-403.125,522.344,6.38281
-1.9112e-02,-127.031,-401.992,523.086,6.37656
-1.9108e-02,-128.359,-401.289,522.656,6.39688
-1.9104e-02,-129.609,-399.961,523.75,6.42813
-1.9100e-02,-131.25,-398.633,524.258,6.42813
-1.9096e-02,-133.125,-395.273,524.375,6.45313
-1.9092e-02,-134.648,-394.766,522.852,6.45625
-1.9088e-02,-135.703,-393.555,523.281,6.47813
-1.9084e-02,-137.031,-392.656,523.359,6.50156
-1.9080e-02,-138.125,-392.148,523.984,6.53438
-1.9076e-02,-138.945,-391.445,524.062,6.55156
-1.9072e-02,-139.883,-390.938,524.922,6.56719
-1.9068e-02,-140.781,-390.703,525.82,6.59219
-1.9064e-02,-141.758,-390.195,526.328,6.59844
-1.9060e-02,-142.109,-389.531,528.125,6.63281
-1.9056e-02,-143.281,-388.672,527.148,6.63125
-1.9052e-02,-143.945,-388.281,526.328,6.66094
-1.9048e-02,-144.297,-387.5,526.094,6.66875
-1.9044e-02,-144.219,-387.148,525.586,6.64375
-1.9040e-02,-144.531,-386.172,525.273,6.63125
-1.9036e-02,-145.117,-385.352,524.492,6.61875
-1.9032e-02,-145.547,-386.367,522.734,6.61094
-1.9028e-02,-145.156,-385.039,524.492,6.59531
-1.9024e-02,-145.742,-384.531,524.883,6.57813
-1.9020e-02,-146.367,-384.531,523.555,6.55938
-1.9016e-02,-146.328,-384.922,524.102,6.5625
-1.9012e-02,-146.445,-383.945,524.414,6.57969
-1.9008e-02,-147.969,-383.203,525.391,6.57188
-1.9004e-02,-149.102,-381.992,525.391,6.57813
-1.9000e-02,-150.703,-380.352,525.273,6.59844
-1.8996e-02,-152.422,-377.852,525.078,6.60625
-1.8992e-02,-153.594,-376.992,523.75,6.63594
-1.8988e-02,-155.078,-376.016,523.359,6.66094
-1.8984e-02,-155.703,-374.805,523.672,6.67969
-1.8980e-02,-156.133,-374.258,523.789,6.66719
-1.8976e-02,-156.719,-373.477,524.062,6.68125
-1.8972e-02,-157.734,-373.086,523.867,6.70781
-1.8968e-02,-158.32,-372.852,525.273,6.69688
-1.8964e-02,-158.672,-372.656,525.898,6.72969
-1.8960e-02,-159.258,-372.734,526.289,6.74531
-1.8956e-02,-160.352,-373.086,526.914,6.7625
-1.8952e-02,-160.859,-373.438,526.953,6.76094
-1.8948e-02,-160.859,-373.984,528.047,6.77031
-1.8944e-02,-161.055,-374.609,529.57,6.79063
-1.8940e-02,-161.602,-376.328,530.078,6.81563
-1.8936e-02,-161.914,-377.93,531.289,6.82969
-1.8932e-02,-162.305,-378.125,533.516,6.85469
-1.8928e-02,-163.438,-378.359,535.547,6.88281
-1.8924e-02,-164.844,-378.516,537.461,6.9
-1.8920e-02,-166.055,-377.344,539.219,6.93281
-1.8916e-02,-167.266,-375.312,539.648,6.96094
-1.8912e-02,-169.219,-374.102,538.32,6.98438
-1.8908e-02,-170.195,-373.555,537.07,6.98906
-1.8904e-02,-170.742,-372.148,537.109,7.00625
-1.8900e-02,-171.523,-371.016,536.953,7.02969
-1.8896e-02,-172.734,-369.414,535.547,7.04688
-1.8892e-02,-173.75,-369.922,535.078,7.05313
-1.8888e-02,-174.609,-368.086,536.68,7.05781
-1.8884e-02,-175,-367.07,537.109,7.07344
-1.8880e-02,-176.016,-366.367,537.891,7.0875
-1.8876e-02,-177.148,-365.625,537.266,7.09844
-1.8872e-02,-177.344,-365.117,537.305,7.09063
-1.8868e-02,-177.969,-364.961,537.305,7.08281
-1.8864e-02,-178.047,-364.453,537.578,7.07813
-1.8860e-02,-178.867,-364.727,537.812,7.08594
-1.8856e-02,-178.945,-364.609,537.773,7.10313
-1.8852e-02,-178.555,-364.453,538.125,7.10625
-1.8848e-02,-178.75,-365.117,538.984,7.11563
-1.8844e-02,-179.141,-365.742,539.336,7.09531
-1.8840e-02,-178.867,-366.953,539.336,7.09531
-1.8836e-02,-178.672,-368.281,540.156,7.09063
-1.8832e-02,-179.062,-368.359,542.031,7.11875
-1.8828e-02,-180.078,-368.711,543.594,7.14844
-1.8824e-02,-180.781,-368.594,544.414,7.14688
-1.8820e-02,-181.719,-367.695,546.211,7.18125
-1.8816e-02,-183.008,-364.961,546.016,7.20938
-1.8812e-02,-184.414,-363.828,543.555,7.21719
-1.8808e-02,-184.922,-362.891,542.891,7.2125
-1.8804e-02,-185.234,-361.992,541.953,7.20938
-1.8800e-02,-185.977,-360.742,541.055,7.22031
-1.8796e-02,-186.602,-359.141,540.547,7.225
-1.8792e-02,-187.109,-359.727,538.594,7.24219
-1.8788e-02,-187.617,-357.734,540.156,7.22188
-1.8784e-02,-188.203,-356.406,540.234,7.24531
-1.8780e-02,-189.297,-355.82,540.117,7.24063
-1.8776e-02,-189.414,-355,539.102,7.22969
-1.8772e-02,-189.609,-354.492,538.516,7.24063
-1.8768e-02,-190.156,-354.062,538.594,7.25313
-1.8764e-02,-190.234,-353.438,538.516,7.24063
-1.8760e-02,-190.156,-353.867,537.461,7.225
-1.8756e-02,-189.727,-355,537.812,7.24531
-1.8752e-02,-190.352,-354.258,538.984,7.23594
-1.8748e-02,-191.328,-353.75,539.844,7.2375
-1.8744e-02,-192.07,-353.242,540.156,7.22031
-1.8740e-02,-193.086,-352.109,540.625,7.23594
-1.8736e-02,-194.414,-350.43,540.234,7.25781
-1.8732e-02,-195.703,-349.922,539.141,7.26563
-1.8728e-02,-196.133,-349.727,539.023,7.28594
-1.8724e-02,-196.641,-348.984,539.336,7.30625
-1.8720e-02,-197.617,-348.984,540,7.31406
-1.8716e-02,-198.125,-349.688,539.414,7.32344
-1.8712e-02,-198.477,-348.906,541.562,7.34219
-1.8708e-02,-200.156,-348.867,543.086,7.36406
-1.8704e-02,-201.836,-348.203,544.375,7.38438
-1.8700e-02,-203.711,-347.969,545,7.40313
-1.8696e-02,-205.352,-346.875,545.43,7.44844
-1.8692e-02,-206.094,-346.25,546.094,7.46875
-1.8688e-02,-206.68,-345.742,546.094,7.50469
-1.8684e-02,-206.406,-345.547,545.898,7.47969
-1.8680e-02,-205.898,-346.328,544.922,7.47188
-1.8676e-02,-205.547,-346.055,544.414,7.46563
-1.8672e-02,-205.352,-345.039,544.492,7.44844
-1.8668e-02,-205.586,-344.727,543.594,7.44375
-1.8664e-02,-204.883,-344.297,543.203,7.42031
-1.8660e-02,-205.547,-343.789,542.461,7.40781
-1.8656e-02,-206.25,-341.797,541.758,7.41094
-1.8652e-02,-206.797,-340.938,540.352,7.40469
-1.8648e-02,-206.68,-340.547,539.297,7.41094
-1.8644e-02,-206.68,-340.156,538.906,7.41094
-1.8640e-02,-206.406,-340.273,538.594,7.4125
-1.8636e-02,-207.07,-340.859,537.969,7.41094
-1.8632e-02,-206.797,-340.078,539.297,7.41875
-1.8628e-02,-207.93,-339.531,540.312,7.42813
-1.8624e-02,-209.414,-338.828,540.43,7.425
-1.8620e-02,-210.234,-337.422,541.055,7.45938
-1.8616e-02,-211.172,-335.391,541.016,7.45938
-1.8612e-02,-212.5,-335.195,540.117,7.47188
-1.8608e-02,-213.359,-334.648,540.508,7.46563
-1.8604e-02,-213.711,-334.375,541.133,7.47969
-1.8600e-02,-214.297,-334.492,540.664,7.48125
-1.8596e-02,-215.234,-335.703,541.523,7.49688
-1.8592e-02,-216.328,-335.195,543.047,7.52031
-1.8588e-02,-217.93,-334.57,545.234,7.52656
-1.8584e-02,-219.297,-333.945,546.602,7.56563
-1.8580e-02,-221.016,-333.164,546.406,7.59531
-1.8576e-02,-222.539,-332.539,547.969,7.62656
-1.8572e-02,-223.867,-331.836,547.969,7.62344
-1.8568e-02,-224.141,-331.797,548.281,7.63594
-1.8564e-02,-223.945,-331.523,548.555,7.64688
-1.8560e-02,-223.867,-332.031,546.953,7.65938
-1.8556e-02,-223.164,-332.227,547.031,7.62188
-1.8552e-02,-222.031,-331.445,547.227,7.60156
-1.8548e-02,-222.227,-331.328,546.445,7.59531
-1.8544e-02,-222.422,-330.781,545.508,7.58594
-1.8540e-02,-222.539,-330.508,544.805,7.62188
-1.8536e-02,-222.93,-329.219,544.492,7.60313
-1.8532e-02,-223.242,-328.867,543.203,7.58594
-1.8528e-02,-223.633,-328.594,542.266,7.59063
-1.8524e-02,-223.125,-328.477,541.836,7.61094
-1.8520e-02,-222.93,-328.398,541.172,7.60781
-1.8516e-02,-223.047,-329.297,541.445,7.62188
-1.8512e-02,-223.516,-328.672,543.047,7.60625
-1.8508e-02,-224.062,-328.477,543.906,7.58281
-1.8504e-02,-224.883,-328.281,544.219,7.58125
-1.8500e-02,-226.172,-327.539,544.375,7.60625
-1.8496e-02,-227.5,-326.445,543.477,7.62813
-1.8492e-02,-228.086,-326.328,543.867,7.62813
-1.8488e-02,-228.125,-326.25,543.711,7.64688
-1.8484e-02,-228.945,-325.938,544.297,7.68281
-1.8480e-02,-229.258,-326.016,544.219,7.71563
-1.8476e-02,-229.648,-327.266,544.688,7.74844
-1.8472e-02,-230.117,-326.875,547.227,7.73281
-1.8468e-02,-231.641,-326.641,548.438,7.77031
-1.8464e-02,-233.281,-326.562,549.648,7.79063
-1.8460e-02,-234.336,-324.922,551.016,7.83125
-1.8456e-02,-235.547,-322.969,549.18,7.83438
-1.8452e-02,-237.266,-322.969,548.438,7.85938
-1.8448e-02,-237.734,-322.383,547.422,7.87188
-1.8444e-02,-238.086,-321.367,546.523,7.87188
-1.8440e-02,-238.164,-320.039,545.938,7.89063
-1.8436e-02,-239.102,-319.141,544.805,7.89219
-1.8432e-02,-240.273,-318.711,543.984,7.875
-1.8428e-02,-240.586,-317.891,545.312,7.89219
-1.8424e-02,-241.133,-316.797,545.43,7.89063
-1.8420e-02,-241.836,-316.016,544.883,7.88594
-1.8416e-02,-242.461,-315.586,544.609,7.85938
-1.8412e-02,-242.305,-315.898,544.102,7.85
-1.8408e-02,-242.812,-315.195,545.938,7.85469
-1.8404e-02,-243.828,-314.492,545.508,7.85781
-1.8400e-02,-244.766,-313.242,545.508,7.88281
-1.8396e-02,-245.508,-311.406,545.703,7.88594
-1.8392e-02,-246.406,-311.133,544.492,7.87969
-1.8388e-02,-246.719,-310.898,544.18,7.87813
-1.8384e-02,-247.109,-310.508,543.047,7.89219
-1.8380e-02,-246.992,-310.273,542.891,7.90781
-1.8376e-02,-247.617,-311.719,543.711,7.90625
-1.8372e-02,-247.695,-310.938,545.312,7.92344
-1.8368e-02,-248.711,-310.312,546.523,7.94375
-1.8364e-02,-249.57,-309.883,546.914,7.97188
-1.8360e-02,-251.094,-308.867,547.539,7.9875
-1.8356e-02,-251.953,-307.383,548.242,7.98125
-1.8352e-02,-253.125,-307.344,547.539,8
-1.8348e-02,-253.516,-307.266,547.422,8.00781
-1.8344e-02,-254.102,-307.344,548.047,8.02188
-1.8340e-02,-254.727,-307.539,547.773,8.06563
-1.8336e-02,-255.352,-308.672,549.18,8.05469
-1.8332e-02,-255.547,-308.281,551.523,8.08125
-1.8328e-02,-257.07,-308.75,552.812,8.07344
-1.8324e-02,-258.398,-308.359,554.062,8.08906
-1.8320e-02,-259.922,-306.953,555.078,8.12969
-1.8316e-02,-260.43,-305.039,554.336,8.15938
-1.8312e-02,-261.523,-305.234,553.203,8.18281
-1.8308e-02,-261.914,-304.531,552.188,8.20469
-1.8304e-02,-262.461,-303.086,551.797,8.23594
-1.8300e-02,-262.539,-302.148,551.211,8.24063
-1.8296e-02,-262.852,-300.977,550.82,8.24844
-1.8292e-02,-264.141,-301.641,550.273,8.24375
-1.8288e-02,-264.492,-300.43,550.898,8.24375
-1.8284e-02,-264.805,-299.609,551.016,8.24844
-1.8280e-02,-264.961,-299.102,551.016,8.25156
-1.8276e-02,-265.391,-298.75,550.781,8.22813
