Laboratory/tek0004.csv

Model,DPO3014
Firmware Version,2.40

Waveform Type,ANALOG,,,
Point Format,Y,,,
Horizontal Units,s,,,
Horizontal Scale,0.004,,,
Horizontal Delay,-0.0004,,,
Sample Interval,4e-06,,,
Record Length,10000,,,
Gating,0.0% to 100.0%,,,
Probe Attenuation,500,,,
Vertical Units,V,,,
Vertical Offset,0,,,
Vertical Scale,250,,,
Vertical Position,1.58,,,
,,,,
,,,,
,,,,
Label,,,,
TIME,CH1,CH2,CH3,CH4
-2.0400e-02,-108.281,-422.852,532.344,6.36562
-2.0396e-02,-109.023,-422.422,534.688,6.40156
-2.0392e-02,-109.844,-420.977,536.016,6.42969
-2.0388e-02,-111.211,-421.016,535.078,6.43594
-2.0384e-02,-110.859,-421.172,535.078,6.43437
-2.0380e-02,-110.195,-422.109,534.688,6.42656
-2.0376e-02,-109.492,-422.031,535.586,6.40625
-2.0372e-02,-109.609,-421.094,535.898,6.38125
-2.0368e-02,-110,-420.703,534.297,6.39531
-2.0364e-02,-110.234,-420.312,533.672,6.40625
-2.0360e-02,-110.703,-419.961,533.359,6.40312
-2.0356e-02,-111.523,-417.969,534.375,6.40312
-2.0352e-02,-112.578,-416.445,533.164,6.39844
-2.0348e-02,-112.891,-415.742,532.461,6.42969
-2.0344e-02,-113.984,-415.117,531.68,6.43906
-2.0340e-02,-114.375,-415.078,531.445,6.42344
-2.0336e-02,-114.883,-415.625,532.07,6.42188
-2.0332e-02,-115.703,-414.883,533.711,6.45625
-2.0328e-02,-117.539,-413.594,534.688,6.49062
-2.0324e-02,-119.453,-412.695,534.414,6.52344
-2.0320e-02,-120.859,-411.367,536.016,6.54375
-2.0316e-02,-123.32,-408.984,536.406,6.56094
-2.0312e-02,-125.352,-408.477,536.211,6.57812
-2.0308e-02,-127.109,-407.891,536.211,6.57812
-2.0304e-02,-128.398,-406.992,536.211,6.62187
-2.0300e-02,-130.352,-406.797,536.133,6.65
-2.0296e-02,-131.055,-407.266,538.281,6.67344
-2.0292e-02,-131.68,-406.562,539.492,6.67812
-2.0288e-02,-132.383,-406.25,540.195,6.675
-2.0284e-02,-132.656,-405.938,540.312,6.69062
-2.0280e-02,-132.773,-406.68,539.18,6.69844
-2.0276e-02,-131.172,-406.172,540.195,6.67031
-2.0272e-02,-131.445,-405.234,540.195,6.675
-2.0268e-02,-131.953,-405.469,538.789,6.67344
-2.0264e-02,-132.656,-404.727,538.164,6.67344
-2.0260e-02,-132.969,-404.023,537.148,6.67031
-2.0256e-02,-133.398,-402.227,537.852,6.6875
-2.0252e-02,-134.727,-400.078,537.109,6.70312
-2.0248e-02,-135.234,-399.18,535.43,6.70625
-2.0244e-02,-135.742,-398.477,534.883,6.71406
-2.0240e-02,-135.43,-398.477,534.609,6.73438
-2.0236e-02,-136.602,-399.336,535.586,6.73594
-2.0232e-02,-137.266,-397.969,536.602,6.72344
-2.0228e-02,-138.555,-397.305,537.266,6.73906
-2.0224e-02,-140.469,-396.328,537.734,6.75469
-2.0220e-02,-142.109,-394.883,538.164,6.79219
-2.0216e-02,-144.375,-392.891,538.477,6.79688
-2.0212e-02,-145.391,-392.461,538.242,6.80156
-2.0208e-02,-147.109,-391.836,537.734,6.83281
-2.0204e-02,-148.828,-391.25,537.539,6.87812
-2.0200e-02,-149.961,-390.859,538.672,6.88906
-2.0196e-02,-150.977,-390.352,538.867,6.91719
-2.0192e-02,-152.266,-390.039,540.156,6.95156
-2.0188e-02,-153.711,-389.805,541.016,6.9875
-2.0184e-02,-154.922,-389.805,541.172,6.99531
-2.0180e-02,-155.508,-388.711,542.344,7.04844
-2.0176e-02,-156.641,-388.008,542.695,7.08906
-2.0172e-02,-157.07,-388.086,542.344,7.10469
-2.0168e-02,-157.07,-387.773,542.539,7.08437
-2.0164e-02,-157.344,-386.992,541.211,7.09219
-2.0160e-02,-157.773,-386.25,541.328,7.09219
-2.0156e-02,-158.594,-386.758,540.586,7.08437
-2.0152e-02,-158.75,-386.367,541.992,7.06875
-2.0148e-02,-159.375,-385.859,542.422,7.07187
-2.0144e-02,-159.883,-385.547,542.344,7.07344
-2.0140e-02,-160.703,-385.234,541.328,7.06094
-2.0136e-02,-160.469,-385.234,541.523,7.05625
-2.0132e-02,-160.469,-385.156,542.227,7.025
-2.0128e-02,-160.273,-385.273,542.188,7.01875
-2.0124e-02,-160.469,-385.352,541.836,7.025
-2.0120e-02,-160.273,-386.289,541.211,7.04375
-2.0116e-02,-159.57,-387.617,542.539,7.03281
-2.0112e-02,-160.078,-387.109,543.75,7.03906
-2.0108e-02,-160.781,-387.07,545.039,7.05156
-2.0104e-02,-161.602,-387.07,545.352,7.07969
-2.0100e-02,-162.812,-386.797,545.273,7.10469
-2.0096e-02,-163.828,-385.352,546.875,7.12656
-2.0092e-02,-165.586,-384.141,547.422,7.12656
-2.0088e-02,-166.211,-384.062,546.562,7.1375
-2.0084e-02,-167.422,-383.945,546.758,7.15312
-2.0080e-02,-167.93,-382.617,547.266,7.19062
-2.0076e-02,-168.945,-381.289,546.914,7.17812
-2.0072e-02,-169.258,-381.172,546.367,7.17031
-2.0068e-02,-169.727,-380.391,545.742,7.19062
-2.0064e-02,-169.922,-379.844,545.273,7.22187
-2.0060e-02,-170.469,-379.258,544.258,7.21094
-2.0056e-02,-170.664,-380.977,542.695,7.22187
-2.0052e-02,-170.977,-379.648,546.055,7.22656
-2.0048e-02,-172.695,-377.93,546.602,7.23594
-2.0044e-02,-174.102,-376.602,546.758,7.22812
-2.0040e-02,-175.508,-374.18,546.992,7.24844
-2.0036e-02,-177.539,-371.641,546.055,7.23906
-2.0032e-02,-179.375,-370.43,544.766,7.2625
-2.0028e-02,-180.625,-369.219,544.453,7.2625
-2.0024e-02,-181.289,-367.812,543.359,7.30312
-2.0020e-02,-182.227,-366.953,543.203,7.31719
-2.0016e-02,-183.672,-365.938,542.852,7.32812
-2.0012e-02,-183.867,-364.766,543.203,7.31562
-2.0008e-02,-184.57,-364.414,543.75,7.30937
-2.0004e-02,-185.469,-363.828,543.633,7.33281
-2.0000e-02,-186.406,-363.32,543.633,7.35625
-1.9996e-02,-186.875,-363.594,543.711,7.36406
-1.9992e-02,-187.188,-363.438,544.648,7.36094
-1.9988e-02,-187.812,-363.398,545.273,7.36875
-1.9984e-02,-187.93,-363.828,545.391,7.39687
-1.9980e-02,-187.734,-364.648,545.273,7.39687
-1.9976e-02,-187.617,-366.484,547.188,7.38437
-1.9972e-02,-188.633,-366.445,548.438,7.39375
-1.9968e-02,-189.414,-366.484,549.805,7.425
-1.9964e-02,-190.352,-366.172,551.25,7.42656
-1.9960e-02,-191.758,-366.172,551.562,7.46562
-1.9956e-02,-193.594,-364.258,553.477,7.49062
-1.9952e-02,-194.844,-363.945,552.891,7.52656
-1.9948e-02,-195.664,-364.102,553.281,7.53594
-1.9944e-02,-196.562,-364.023,554.023,7.57344
-1.9940e-02,-197.383,-363.398,554.688,7.58906
-1.9936e-02,-198.203,-362.305,553.789,7.61406
-1.9932e-02,-198.359,-362.422,554.219,7.62812
-1.9928e-02,-199.18,-362.188,554.102,7.62812
-1.9924e-02,-199.219,-361.875,554.297,7.64219
-1.9920e-02,-199.375,-361.094,553.672,7.63437
-1.9916e-02,-199.883,-362.07,552.578,7.62812
-1.9912e-02,-200.43,-362.109,553.203,7.6
-1.9908e-02,-201.719,-360.664,555.312,7.64062
-1.9904e-02,-202.656,-359.062,556.211,7.60938
-1.9900e-02,-204.062,-356.992,556.445,7.64062
-1.9896e-02,-206.016,-354.453,555.234,7.67812
-1.9892e-02,-207.5,-353.438,554.727,7.65781
-1.9888e-02,-208.555,-352.227,553.672,7.67344
-1.9884e-02,-209.062,-350.938,553.516,7.67812
-1.9880e-02,-210.352,-350.195,553.398,7.68281
-1.9876e-02,-210.859,-349.531,553.203,7.69375
-1.9872e-02,-211.094,-348.984,553.164,7.72969
-1.9868e-02,-211.484,-348.477,554.18,7.72344
-1.9864e-02,-212.188,-348.086,553.516,7.74375
-1.9860e-02,-212.695,-348.008,553.984,7.76406
-1.9856e-02,-212.422,-348.477,553.711,7.72969
-1.9852e-02,-212.5,-348.477,554.375,7.73438
-1.9848e-02,-212.773,-349.219,555.391,7.73594
-1.9844e-02,-212.5,-349.531,555.508,7.75625
-1.9840e-02,-212.07,-350.391,555.898,7.75469
-1.9836e-02,-212.266,-350.82,556.133,7.76406
-1.9832e-02,-212.305,-350.82,555.508,7.76719
-1.9828e-02,-212.695,-350.039,555.898,7.77969
-1.9824e-02,-213.086,-349.219,555.898,7.79062
-1.9820e-02,-213.789,-347.07,555.508,7.79219
-1.9816e-02,-214.805,-344.102,553.867,7.82812
-1.9812e-02,-215.625,-344.219,551.055,7.82344
-1.9808e-02,-215.625,-342.383,551.641,7.81094
-1.9804e-02,-216.445,-340.898,551.367,7.79531
-1.9800e-02,-216.992,-339.453,550.742,7.83281
-1.9796e-02,-217.383,-338.32,549.922,7.83281
-1.9792e-02,-217.344,-337.305,549.336,7.80469
-1.9788e-02,-217.461,-336.602,548.32,7.8125
-1.9784e-02,-218.008,-336.094,548.203,7.8
-1.9780e-02,-217.383,-336.016,547.422,7.79062
-1.9776e-02,-217.383,-336.836,546.875,7.80469
-1.9772e-02,-217.656,-335.273,548.438,7.8
-1.9768e-02,-218.516,-334.688,548.398,7.79219
-1.9764e-02,-219.102,-333.867,548.828,7.78437
-1.9760e-02,-219.922,-332.93,549.023,7.77187
-1.9756e-02,-221.406,-330.938,547.773,7.78281
-1.9752e-02,-222.07,-330.43,547.383,7.79688
-1.9748e-02,-222.227,-329.609,546.758,7.825
-1.9744e-02,-222.539,-329.297,546.992,7.82344
-1.9740e-02,-223.242,-329.18,546.484,7.85781
-1.9736e-02,-223.75,-330.312,546.094,7.85156
-1.9732e-02,-223.789,-329.727,548.008,7.83281
-1.9728e-02,-224.961,-328.672,549.453,7.86094
-1.9724e-02,-226.406,-328.477,550.117,7.87812
-1.9720e-02,-228.008,-327.266,550.938,7.88594
-1.9716e-02,-229.18,-325.352,550.977,7.89844
-1.9712e-02,-230.859,-325.039,550.117,7.89219
-1.9708e-02,-231.484,-324.844,550.352,7.89844
-1.9704e-02,-232.383,-324.727,550.859,7.93437
-1.9700e-02,-233.086,-324.727,551.875,7.9625
-1.9696e-02,-234.023,-325.82,552.266,7.975
-1.9692e-02,-235.039,-325.859,552.969,8.00781
-1.9688e-02,-236.055,-325.156,555.391,8.01406
-1.9684e-02,-237.656,-325.156,556.523,8.04688
-1.9680e-02,-239.023,-325,557.656,8.10469
-1.9676e-02,-240.508,-324.336,558.789,8.12812
-1.9672e-02,-241.758,-324.219,558.75,8.13594
-1.9668e-02,-241.719,-323.984,559.18,8.14844
-1.9664e-02,-241.641,-324.102,559.766,8.16094
-1.9660e-02,-241.367,-324.609,558.984,8.14531
-1.9656e-02,-240.352,-325.508,558.789,8.15625
-1.9652e-02,-240.117,-324.297,558.594,8.16875
-1.9648e-02,-240.117,-324.648,557.539,8.15
-1.9644e-02,-239.844,-324.336,557.578,8.13594
-1.9640e-02,-239.727,-323.906,557.031,8.14531
-1.9636e-02,-239.688,-322.617,557.148,8.15625
-1.9632e-02,-240.195,-321.445,555.938,8.15312
-1.9628e-02,-240.234,-321.68,555.039,8.12812
-1.9624e-02,-239.414,-321.484,555.039,8.10938
-1.9620e-02,-239.336,-321.797,554.18,8.10781
-1.9616e-02,-239.336,-323.008,553.867,8.12187
-1.9612e-02,-239.531,-322.617,555.625,8.10938
-1.9608e-02,-239.727,-322.5,555.625,8.11719
-1.9604e-02,-240.703,-321.953,557.031,8.12031
-1.9600e-02,-241.875,-321.445,557.266,8.12812
-1.9596e-02,-242.891,-320.938,557.578,8.15
-1.9592e-02,-243.984,-320.352,558.086,8.15781
-1.9588e-02,-245.43,-319.648,558.164,8.17344
-1.9584e-02,-247.227,-318.555,558.672,8.20312
-1.9580e-02,-248.633,-316.875,560,8.19375
-1.9576e-02,-249.961,-314.688,560.078,8.24219
-1.9572e-02,-251.992,-314.492,558.945,8.2375
-1.9568e-02,-253.047,-313.555,559.258,8.26406
-1.9564e-02,-254.258,-312.93,559.805,8.29219
-1.9560e-02,-254.922,-311.602,561.406,8.3125
-1.9556e-02,-255.547,-310.43,560.82,8.325
-1.9552e-02,-256.484,-310,559.297,8.36562
-1.9548e-02,-256.68,-309.258,559.062,8.37344
-1.9544e-02,-256.992,-308.672,558.789,8.36875
-1.9540e-02,-257.266,-307.227,558.75,8.35312
-1.9536e-02,-258.398,-308.047,558.242,8.35156
-1.9532e-02,-259.023,-308.242,557.656,8.38437
-1.9528e-02,-259.531,-306.367,559.57,8.39219
-1.9524e-02,-260.859,-305.195,560.625,8.38906
-1.9520e-02,-262.266,-303.594,561.289,8.37969
-1.9516e-02,-262.969,-301.172,560.781,8.37969
-1.9512e-02,-263.789,-301.133,559.297,8.38594
-1.9508e-02,-264.688,-300.156,558.672,8.37656
-1.9504e-02,-265.117,-299.336,558.438,8.39219
-1.9500e-02,-265.312,-298.828,558.086,8.40625
-1.9496e-02,-265.312,-298.32,558.555,8.4
-1.9492e-02,-266.094,-300.117,557.734,8.42188
-1.9488e-02,-266.523,-299.453,559.18,8.40937
-1.9484e-02,-267.109,-298.711,560.273,8.42031
-1.9480e-02,-267.852,-297.734,560.898,8.43281
-1.9476e-02,-268.633,-296.289,561.211,8.45
-1.9472e-02,-269.648,-296.719,560.391,8.45469
-1.9468e-02,-269.961,-296.602,559.805,8.45781
-1.9464e-02,-270.078,-296.68,560.273,8.46094
-1.9460e-02,-270.391,-296.484,560.977,8.49375
-1.9456e-02,-270.469,-296.797,560.469,8.50312
-1.9452e-02,-270.312,-296.914,561.016,8.51562
-1.9448e-02,-271.016,-295.977,560.273,8.51875
-1.9444e-02,-271.836,-294.883,560.508,8.53125
-1.9440e-02,-272.539,-292.852,560.469,8.53906
-1.9436e-02,-273.125,-291.016,558.672,8.52812
-1.9432e-02,-273.945,-289.688,557.969,8.52812
-1.9428e-02,-274.766,-288.555,557.578,8.51875
-1.9424e-02,-275.234,-287.227,556.719,8.52187
-1.9420e-02,-275.352,-286.133,557.227,8.50781
-1.9416e-02,-275.781,-285.703,556.328,8.52344
-1.9412e-02,-276.484,-286.133,554.883,8.49531
-1.9408e-02,-276.602,-284.805,556.211,8.51562
-1.9404e-02,-277.422,-284.023,556.055,8.49531
-1.9400e-02,-278.203,-282.188,557.227,8.50781
-1.9396e-02,-279.141,-280.156,556.211,8.50781
-1.9392e-02,-279.922,-280.234,554.492,8.49375
-1.9388e-02,-280.039,-279.727,554.023,8.50781
-1.9384e-02,-280.43,-279.414,553.398,8.50312
-1.9380e-02,-280.352,-278.906,553.906,8.52344
-1.9376e-02,-279.805,-279.219,553.711,8.52656
-1.9372e-02,-279.844,-280.742,553.672,8.54375
-1.9368e-02,-280.312,-280.312,554.727,8.53125
-1.9364e-02,-280.938,-279.922,555.742,8.51562
-1.9360e-02,-281.367,-279.023,556.641,8.51406
-1.9356e-02,-282.07,-277.891,557.148,8.52344
-1.9352e-02,-282.969,-278.203,555.82,8.54375
-1.9348e-02,-283.164,-278.516,555.312,8.575
-1.9344e-02,-282.773,-278.828,556.25,8.57656
-1.9340e-02,-282.578,-278.711,556.055,8.59687
-1.9336e-02,-282.656,-279.414,556.328,8.60469
-1.9332e-02,-282.695,-279.297,556.523,8.60469
-1.9328e-02,-282.695,-278.633,556.133,8.6125
-1.9324e-02,-283.516,-277.891,556.25,8.6
-1.9320e-02,-284.531,-276.289,555.703,8.625
-1.9316e-02,-285.43,-274.648,555.117,8.58906
-1.9312e-02,-286.445,-274.023,553.398,8.59219
-1.9308e-02,-288.047,-270.977,553.203,8.60938
-1.9304e-02,-290,-268.477,553.672,8.61562
-1.9300e-02,-291.992,-265.586,553.672,8.625
-1.9296e-02,-293.359,-262.383,552.773,8.63281
-1.9292e-02,-294.648,-260.938,550.938,8.625
-1.9288e-02,-296.367,-258.984,549.141,8.625
-1.9284e-02,-297.07,-257.109,548.203,8.63281
-1.9280e-02,-297.5,-255.938,547.891,8.6125
-1.9276e-02,-298.594,-254.727,547.773,8.61562
-1.9272e-02,-299.141,-253.555,547.422,8.625
-1.9268e-02,-299.531,-252.93,547.109,8.64375
-1.9264e-02,-299.766,-252.227,546.094,8.64844
-1.9260e-02,-300.156,-251.797,546.797,8.64844
-1.9256e-02,-300.625,-251.367,546.484,8.66094
-1.9252e-02,-300.664,-252.93,545.664,8.63594
-1.9248e-02,-300.625,-252.539,547.266,8.65
-1.9244e-02,-301.367,-252.109,547.578,8.67344
-1.9240e-02,-302.07,-251.094,548.945,8.67812
-1.9236e-02,-302.578,-250,549.414,8.68437
-1.9232e-02,-303.086,-250.664,548.203,8.66094
-1.9228e-02,-303.516,-250.586,547.93,8.66875
-1.9224e-02,-303.477,-250.781,547.188,8.68906
-1.9220e-02,-302.695,-251.367,548.086,8.69062
-1.9216e-02,-302.773,-253.008,548.789,8.66406
-1.9212e-02,-302.891,-253.125,550.156,8.67656
-1.9208e-02,-303.789,-253.711,551.055,8.70625
-1.9204e-02,-303.906,-253.906,552.383,8.69844
-1.9200e-02,-305,-254.023,552.656,8.72187
-1.9196e-02,-306.055,-254.141,554.023,8.74219
-1.9192e-02,-306.719,-253.906,555.039,8.77187
-1.9188e-02,-307.539,-253.75,556.016,8.8
-1.9184e-02,-309.414,-253.242,556.641,8.83125
-1.9180e-02,-311.016,-252.383,557.93,8.85938
-1.9176e-02,-311.523,-249.766,557.734,8.88437
-1.9172e-02,-312.148,-249.961,556.133,8.90937
-1.9168e-02,-312.969,-249.375,555,8.92812
-1.9164e-02,-313.438,-248.672,554.609,8.92812
-1.9160e-02,-313.672,-247.031,554.375,8.94531
-1.9156e-02,-313.945,-245.898,553.984,8.92188
-1.9152e-02,-315.195,-247.617,552.266,8.91406
-1.9148e-02,-316.484,-245.625,554.414,8.95312
-1.9144e-02,-317.812,-243.789,555.625,8.92031
-1.9140e-02,-319.062,-242.07,556.211,8.94844
-1.9136e-02,-320.469,-239.844,555.508,8.96094
-1.9132e-02,-321.602,-239.492,554.609,8.96875
-1.9128e-02,-321.758,-238.789,553.984,8.96875
-1.9124e-02,-321.953,-237.891,552.656,8.98906
-1.9120e-02,-322.695,-237.5,553.203,8.99375
-1.9116e-02,-322.812,-236.797,552.656,9.00625
-1.9112e-02,-322.617,-238.203,552.461,9.00937
-1.9108e-02,-323.281,-237.07,554.102,9.03594
-1.9104e-02,-324.023,-236.797,554.531,9.02656
-1.9100e-02,-324.648,-235.781,555.742,9.01875
-1.9096e-02,-324.922,-234.531,555.039,9.02969
-1.9092e-02,-325.312,-235.117,554.727,9.03437
-1.9088e-02,-325.664,-235.664,554.805,9.02656
-1.9084e-02,-325.352,-235.664,554.18,9.06719
-1.9080e-02,-324.609,-235.625,554.531,9.06719
-1.9076e-02,-323.984,-234.766,554.102,9.07187
-1.9072e-02,-323.789,-237.266,552.969,9.06406
-1.9068e-02,-323.828,-236.68,554.18,9.06719
-1.9064e-02,-323.711,-236.25,553.867,9.075
-1.9060e-02,-324.141,-235.547,553.086,9.10469
-1.9056e-02,-324.922,-233.945,553.164,9.07969
-1.9052e-02,-325.82,-233.32,551.445,9.01562
-1.9048e-02,-326.523,-231.094,551.875,9.03125
-1.9044e-02,-327.891,-228.75,551.562,9.03906
-1.9040e-02,-329.18,-226.641,550.234,9.06406
-1.9036e-02,-330.078,-223.477,549.922,9.06406
-1.9032e-02,-330.391,-222.539,548.086,9.0625
-1.9028e-02,-330.82,-221.641,547.383,9.05937
-1.9024e-02,-331.328,-219.883,546.289,9.05156
-1.9020e-02,-331.328,-218.906,545.234,9.07031
-1.9016e-02,-331.445,-218.398,544.648,9.05156
-1.9012e-02,-332.109,-219.375,543.945,9.05
-1.9008e-02,-332.617,-218.164,544.766,9.03437
-1.9004e-02,-333.164,-217.461,544.961,9.03906
-1.9000e-02,-333.789,-216.562,545.273,9.03594
-1.8996e-02,-334.18,-214.648,545.273,9.05
-1.8992e-02,-334.453,-214.844,544.453,9.04375
-1.8988e-02,-334.375,-214.414,543.828,9.04688
-1.8984e-02,-334.375,-214.414,543.555,9.05625
-1.8980e-02,-334.141,-214.609,543.203,9.05156
-1.8976e-02,-333.633,-215.352,542.5,9.05
-1.8972e-02,-333.438,-216.836,543.359,9.01875
-1.8968e-02,-333.242,-216.992,545.273,9.04219
-1.8964e-02,-333.75,-217.266,546.25,9.04375
-1.8960e-02,-334.18,-217.461,546.914,9.03437
-1.8956e-02,-334.57,-217.891,546.914,9.04688
-1.8952e-02,-335.391,-217.891,547.617,9.05625
-1.8948e-02,-336.328,-217.773,548.398,9.09219
-1.8944e-02,-336.992,-217.773,548.906,9.11719
-1.8940e-02,-337.617,-217.148,549.609,9.13594
-1.8936e-02,-338.945,-216.875,550.742,9.16562
-1.8932e-02,-340.391,-216.641,551.133,9.20469
-1.8928e-02,-342.109,-215.977,552.852,9.20625
-1.8924e-02,-343.32,-215.547,553.789,9.24219
-1.8920e-02,-345.039,-214.297,554.492,9.27031
-1.8916e-02,-345.742,-211.172,554.102,9.30312
-1.8912e-02,-346.367,-211.758,552.578,9.34375
-1.8908e-02,-346.875,-210.664,551.641,9.32031
-1.8904e-02,-347.773,-209.57,551.367,9.35156
-1.8900e-02,-348.672,-208.359,550.039,9.37656
-1.8896e-02,-349.492,-208.242,549.648,9.36875
-1.8892e-02,-350.703,-208.008,550.547,9.375
-1.8888e-02,-352.148,-206.094,552.773,9.39687
-1.8884e-02,-353.672,-204.57,553.984,9.36094
-1.8880e-02,-354.883,-203.164,553.789,9.36719
-1.8876e-02,-355.781,-201.328,553.359,9.38437
-1.8872e-02,-356.836,-201.094,552.07,9.37969
-1.8868e-02,-356.992,-200.234,552.461,9.375
-1.8864e-02,-357.148,-199.922,552.578,9.38125
-1.8860e-02,-357.422,-199.688,551.836,9.4125
-1.8856e-02,-357.734,-199.883,551.484,9.4375
-1.8852e-02,-358.164,-201.328,551.875,9.44062
-1.8848e-02,-358.164,-200.898,554.023,9.44219
-1.8844e-02,-359.062,-200.742,554.688,9.43281
-1.8840e-02,-360.156,-200.938,555.547,9.45
-1.8836e-02,-360.859,-201.016,555,9.49062
-1.8832e-02,-361.211,-200.508,556.328,9.50312
-1.8828e-02,-362.695,-200.43,557.031,9.52969
-1.8824e-02,-363.945,-199.805,557.969,9.55781
-1.8820e-02,-364.844,-198.555,559.102,9.57031
-1.8816e-02,-364.727,-196.367,558.047,9.59844
-1.8812e-02,-365.234,-196.758,555.938,9.625
-1.8808e-02,-365.352,-195.82,555.703,9.60469
-1.8804e-02,-365.273,-195,554.805,9.6
-1.8800e-02,-365.273,-194.297,554.102,9.60313
-1.8796e-02,-365.859,-194.219,552.5,9.56406
-1.8792e-02,-367.383,-194.844,552.266,9.56406
-1.8788e-02,-367.695,-192.969,554.531,9.57969
-1.8784e-02,-368.906,-191.953,555.117,9.56406
-1.8780e-02,-370,-190.742,555.195,9.575
-1.8776e-02,-370.195,-188.945,554.883,9.57969
-1.8772e-02,-370.312,-188.75,552.969,9.61562
-1.8768e-02,-369.844,-188.203,553.164,9.60469
-1.8764e-02,-369.844,-187.812,552.695,9.59531
-1.8760e-02,-369.805,-187.305,552.148,9.59062
-1.8756e-02,-368.32,-186.68,551.445,9.55937
-1.8752e-02,-368.281,-188.438,548.125,9.55469
-1.8748e-02,-367.773,-187.734,549.023,9.5375
-1.8744e-02,-367.891,-186.602,549.023,9.51875
-1.8740e-02,-367.695,-185.156,547.93,9.51406
-1.8736e-02,-368.281,-184.141,545.977,9.50625
-1.8732e-02,-368.906,-182.617,545.547,9.49375
-1.8728e-02,-369.531,-180,545.586,9.48281
-1.8724e-02,-370.312,-178.164,544.844,9.45781
-1.8720e-02,-371.328,-175.625,543.438,9.46562
-1.8716e-02,-372.148,-173.086,541.914,9.46562
-1.8712e-02,-372.227,-171.797,539.883,9.47656
-1.8708e-02,-371.836,-170.352,538.555,9.45312
-1.8704e-02,-372.031,-168.945,537.93,9.44844
-1.8700e-02,-371.875,-168.086,536.758,9.42969
-1.8696e-02,-371.328,-167.812,535.312,9.4
-1.8692e-02,-371.367,-168.711,534.375,9.36406
-1.8688e-02,-371.328,-167.383,535.117,9.36719
-1.8684e-02,-371.836,-166.484,535.703,9.34844
-1.8680e-02,-372.344,-166.289,535.508,9.34375
-1.8676e-02,-372.148,-166.055,534.922,9.34844
