Laboratory/zfreq_steady60Hz_THD_tek0019.csv

Model,DPO3014
Firmware Version,2.40

Waveform Type,ANALOG,,,
Point Format,Y,,,
Horizontal Units,s,,,
Horizontal Scale,0.01,,,
Horizontal Delay,-0.0004,,,
Sample Interval,1e-05,,,
Record Length,10000,,,
Gating,0.0% to 100.0%,,,
Probe Attenuation,500,,,
Vertical Units,V,,,
Vertical Offset,0,,,
Vertical Scale,250,,,
Vertical Position,1.58,,,
,,,,
,,,,
,,,,
Label,,,,
TIME,CH1,CH2,CH3,CH4
-5.0400e-02,340.859,-553.984,209.258,-1.65625
-5.0390e-02,338.242,-553.477,211.68,-1.6625
-5.0380e-02,334.883,-552.695,213.672,-1.62969
-5.0370e-02,333.984,-555.859,215.586,-1.62813
-5.0360e-02,333.672,-557.5,219.961,-1.57031
-5.0350e-02,331.719,-558.359,223.242,-1.56406
-5.0340e-02,329.531,-559.492,225.43,-1.54063
-5.0330e-02,328.32,-561.25,228.398,-1.525
-5.0320e-02,327.695,-562.383,229.844,-1.51719
-5.0310e-02,327.266,-560.859,229.492,-1.5125
-5.0300e-02,327.852,-560.586,228.633,-1.49219
-5.0290e-02,326.016,-559.727,229.531,-1.48906
-5.0280e-02,323.516,-559.492,232.07,-1.46875
-5.0270e-02,321.719,-561.914,234.648,-1.45
-5.0260e-02,319.844,-563.086,238.242,-1.45
-5.0250e-02,317.773,-562.969,240.312,-1.41094
-5.0240e-02,314.688,-563.086,241.836,-1.3625
-5.0230e-02,313.281,-564.062,244.062,-1.31406
-5.0220e-02,312.266,-564.219,245.117,-1.28438
-5.0210e-02,311.133,-561.875,244.18,-1.29219
-5.0200e-02,311.406,-560.547,243.32,-1.30156
-5.0190e-02,309.297,-559.297,243.359,-1.28438
-5.0180e-02,306.367,-558.164,244.922,-1.27344
-5.0170e-02,304.805,-559.453,246.797,-1.24531
-5.0160e-02,302.617,-559.727,249.805,-1.23125
-5.0150e-02,300.469,-559.18,252.07,-1.23906
-5.0140e-02,297.852,-558.438,252.891,-1.21719
-5.0130e-02,297.695,-561.016,254.57,-1.19063
-5.0120e-02,297.344,-563.047,258.008,-1.16875
-5.0110e-02,296.602,-563.75,260.312,-1.15781
-5.0100e-02,294.609,-564.492,261.289,-1.17188
-5.0090e-02,292.5,-563.398,264.062,-1.11563
-5.0080e-02,290.312,-563.203,265.273,-1.07344
-5.0070e-02,288.359,-562.773,266.602,-1.05469
-5.0060e-02,286.992,-563.359,268.75,-1.04688
-5.0050e-02,284.141,-564.258,271.484,-0.9875
-5.0040e-02,281.602,-563.828,274.922,-0.942188
-5.0030e-02,278.906,-562.031,276.836,-0.9125
-5.0020e-02,275.625,-560.742,277.344,-0.904688
-5.0010e-02,275,-562.773,278.359,-0.889063
-5.0000e-02,274.141,-563.75,281.445,-0.851562
-4.9990e-02,273.086,-563.555,283.164,-0.8375
-4.9980e-02,271.992,-563.594,283.359,-0.823438
-4.9970e-02,269.961,-561.836,285.625,-0.817188
-4.9960e-02,267.656,-560.859,285.898,-0.8125
-4.9950e-02,265.703,-559.883,286.211,-0.820312
-4.9940e-02,264.336,-559.844,287.383,-0.789062
-4.9930e-02,261.68,-559.883,289.414,-0.746875
-4.9920e-02,259.18,-558.75,291.875,-0.714063
-4.9910e-02,256.914,-556.602,293.008,-0.69375
-4.9900e-02,254.492,-554.492,292.656,-0.690625
-4.9890e-02,252.812,-553.75,293.828,-0.678125
-4.9880e-02,250.156,-553.711,296.25,-0.659375
-4.9870e-02,248.32,-555.859,299.805,-0.642188
-4.9860e-02,246.328,-556.875,303.945,-0.596875
-4.9850e-02,244.766,-557.07,306.719,-0.595313
-4.9840e-02,243.047,-557.227,307.812,-0.5875
-4.9830e-02,240.625,-556.445,310.586,-0.564063
-4.9820e-02,238.477,-555.938,311.562,-0.540625
-4.9810e-02,236.523,-554.922,312.188,-0.503125
-4.9800e-02,235,-554.844,314.375,-0.446875
-4.9790e-02,232.617,-555.234,317.031,-0.404688
-4.9780e-02,230.078,-554.258,319.844,-0.373438
-4.9770e-02,228.008,-552.734,321.328,-0.348438
-4.9760e-02,225.586,-551.094,320.703,-0.364063
-4.9750e-02,223.711,-550.625,322.031,-0.359375
-4.9740e-02,221.406,-550.859,325.117,-0.33125
-4.9730e-02,219.961,-553.359,328.242,-0.325
-4.9720e-02,218.008,-554.922,332.5,-0.304688
-4.9710e-02,217.305,-555.391,335.508,-0.323438
-4.9700e-02,215.703,-556.289,336.484,-0.31875
-4.9690e-02,213.555,-555.352,338.984,-0.260938
-4.9680e-02,211.758,-555.117,339.414,-0.253125
-4.9670e-02,211.094,-555.547,339.844,-0.235938
-4.9660e-02,209.531,-555.977,342.656,-0.209375
-4.9650e-02,207.5,-557.148,344.453,-0.179688
-4.9640e-02,205.703,-557.227,347.5,-0.153125
-4.9630e-02,204.766,-556.211,348.633,-0.154688
-4.9620e-02,203.594,-555.195,348.086,-0.16875
-4.9610e-02,201.875,-553.516,348.672,-0.164062
-4.9600e-02,200.234,-551.68,347.656,-0.157813
-4.9590e-02,199.18,-550.586,346.328,-0.16875
-4.9580e-02,198.164,-549.648,347.422,-0.146875
-4.9570e-02,195.195,-547.891,348.789,-0.117188
-4.9560e-02,191.719,-546.367,350.938,-0.0890625
-4.9550e-02,188.945,-546.68,353.047,-0.05
-4.9540e-02,186.836,-546.68,356.133,-0.0625
-4.9530e-02,184.727,-545.508,356.836,-0.04375
-4.9520e-02,183.242,-544.297,356.641,-0.0046875
-4.9510e-02,182.305,-544.18,358.242,0.0203125
-4.9500e-02,180.586,-545.039,360.82,0.0359375
-4.9490e-02,177.383,-543.633,364.297,0.0609375
-4.9480e-02,174.258,-542.539,365.078,0.09375
-4.9470e-02,171.875,-542.148,365.898,0.128125
-4.9460e-02,169.492,-541.602,368.984,0.140625
-4.9450e-02,166.25,-542.148,371.328,0.18125
-4.9440e-02,163.828,-541.289,374.57,0.204687
-4.9430e-02,162.305,-540.234,375.586,0.24375
-4.9420e-02,160.469,-538.711,374.922,0.245313
-4.9410e-02,159.922,-538.906,375.43,0.25625
-4.9400e-02,158.516,-539.531,377.383,0.275
-4.9390e-02,155.156,-538.047,380.078,0.282812
-4.9380e-02,152.461,-536.68,380.43,0.315625
-4.9370e-02,150.156,-535.234,380.859,0.345312
-4.9360e-02,148.203,-535.039,382.461,0.375
-4.9350e-02,144.531,-533.008,384.375,0.38125
-4.9340e-02,140.156,-531.484,386.68,0.401563
-4.9330e-02,137.188,-531.836,388.945,0.442187
-4.9320e-02,134.727,-531.719,392.188,0.48125
-4.9310e-02,132.422,-530.664,393.75,0.503125
-4.9300e-02,131.406,-529.688,393.32,0.521875
-4.9290e-02,130.742,-530.156,394.102,0.545312
-4.9280e-02,129.688,-531.055,396.094,0.559375
-4.9270e-02,126.953,-529.922,398.867,0.585938
-4.9260e-02,124.727,-529.18,399.805,0.603125
-4.9250e-02,122.5,-528.398,399.805,0.623437
-4.9240e-02,121.328,-528.398,401.211,0.623437
-4.9230e-02,118.008,-526.562,403.086,0.63125
-4.9220e-02,114.492,-525.508,405.352,0.664062
-4.9210e-02,111.758,-526.602,407.383,0.7125
-4.9200e-02,110.078,-526.406,410.781,0.782812
-4.9190e-02,109.414,-525.703,411.914,0.767187
-4.9180e-02,108.711,-525.508,410.586,0.776563
-4.9170e-02,109.062,-526.211,411.328,0.775
-4.9160e-02,108.555,-527.891,413.164,0.796875
-4.9150e-02,108.75,-531.055,415.664,0.817187
-4.9140e-02,106.172,-532.227,420.664,0.839063
-4.9130e-02,101.445,-532.07,425.039,0.879687
-4.9120e-02,96.1328,-530.195,428.32,0.940625
-4.9110e-02,93.2422,-528.594,429.883,0.971875
-4.9100e-02,90.9375,-526.914,430.195,0.98125
-4.9090e-02,88.2031,-524.297,431.367,0.982812
-4.9080e-02,85.8203,-522.422,430.625,1
-4.9070e-02,84.1797,-521.055,430.039,1.02187
-4.9060e-02,82.4219,-519.375,431.602,1.02812
-4.9050e-02,79.4141,-517.344,432.617,1.00313
-4.9040e-02,75.9766,-516.016,434.141,1.05625
-4.9030e-02,73.125,-514.805,436.523,1.11094
-4.9020e-02,69.9609,-514.258,439.258,1.10781
-4.9010e-02,67.0312,-515.859,442.383,1.15781
-4.9000e-02,65.3906,-516.602,446.445,1.21094
-4.8990e-02,64.5312,-516.523,448.008,1.225
-4.8980e-02,64.375,-516.875,447.344,1.22344
-4.8970e-02,64.4922,-516.211,447.734,1.2375
-4.8960e-02,64.8438,-515.781,446.406,1.24844
-4.8950e-02,66.0156,-516.367,444.922,1.2375
-4.8940e-02,66.4453,-516.523,445.234,1.22656
-4.8930e-02,66.0547,-517.461,445.625,1.20312
-4.8920e-02,63.9062,-516.133,447.617,1.21406
-4.8910e-02,58.4375,-511.836,449.375,1.25156
-4.8900e-02,52.8906,-508.164,449.961,1.31719
-4.8890e-02,49.2969,-507.305,452.227,1.36875
-4.8880e-02,46.5625,-505.977,455.078,1.40312
-4.8870e-02,44.7266,-503.906,455.82,1.42969
-4.8860e-02,43.6719,-502.383,454.102,1.41719
-4.8850e-02,43.0859,-502.148,453.555,1.4125
-4.8840e-02,42.8906,-502.461,454.414,1.4125
-4.8830e-02,42.6953,-504.531,456.68,1.425
-4.8820e-02,40.0781,-504.727,460.469,1.42188
-4.8810e-02,35.3125,-503.242,463.555,1.45156
-4.8800e-02,31.2109,-501.523,465.43,1.49375
-4.8790e-02,29.6094,-499.609,466.211,1.53906
-4.8780e-02,28.5156,-497.852,464.883,1.54062
-4.8770e-02,28.4766,-499.102,464.57,1.55312
-4.8760e-02,26.3672,-498.242,467.461,1.59688
-4.8750e-02,21.8359,-495.82,469.805,1.64375
-4.8740e-02,18.125,-493.086,470.508,1.68281
-4.8730e-02,17.1484,-490.352,470.156,1.68594
-4.8720e-02,16.2891,-488.008,467.93,1.65469
-4.8710e-02,16.7578,-488.398,466.953,1.675
-4.8700e-02,15.0781,-486.953,468.906,1.69531
-4.8690e-02,10.2734,-482.656,470.039,1.72656
-4.8680e-02,5.3125,-479.688,470.195,1.77187
-4.8670e-02,1.25,-477.734,472.07,1.79844
-4.8660e-02,-3.04688,-476.367,474.648,1.81406
-4.8650e-02,-6.44531,-477.031,477.656,1.85625
-4.8640e-02,-8.51562,-477.031,481.406,1.89687
-4.8630e-02,-9.14062,-477.969,482.734,1.90156
-4.8620e-02,-10.2344,-476.953,483.438,1.88906
-4.8610e-02,-13.4375,-473.984,484.023,1.91562
-4.8600e-02,-17.3438,-471.641,483.867,1.94844
-4.8590e-02,-20.3906,-470.195,485.703,1.96562
-4.8580e-02,-23.6328,-469.062,488.398,1.98594
-4.8570e-02,-27.3828,-467.07,490.859,2.02031
-4.8560e-02,-30.1953,-465.43,491.172,2.05781
-4.8550e-02,-32.6172,-462.93,491.016,2.09375
-4.8540e-02,-34.6484,-461.68,492.148,2.1
-4.8530e-02,-37.8125,-459.531,493.125,2.09062
-4.8520e-02,-40.7031,-457.852,493.984,2.13281
-4.8510e-02,-42.9688,-456.602,495.234,2.16094
-4.8500e-02,-45.1953,-456.367,496.953,2.16875
-4.8490e-02,-47.7734,-454.844,499.141,2.20156
-4.8480e-02,-49.1406,-453.242,498.125,2.22812
-4.8470e-02,-50.8203,-451.328,497.07,2.24219
-4.8460e-02,-51.9531,-450.625,497.148,2.2375
-4.8450e-02,-53.5156,-448.789,497.5,2.20156
-4.8440e-02,-55.0391,-447.773,497.344,2.21719
-4.8430e-02,-55.9766,-447.031,497.578,2.22812
-4.8420e-02,-56.7969,-447.031,498.516,2.24219
-4.8410e-02,-57.5781,-448.75,500.312,2.25625
-4.8400e-02,-59.8438,-448.867,503.945,2.24062
-4.8390e-02,-63.9062,-447.852,506.719,2.27031
-4.8380e-02,-66.7188,-446.758,507.891,2.29688
-4.8370e-02,-66.8359,-445.547,507.734,2.30937
-4.8360e-02,-66.4844,-444.883,505.625,2.325
-4.8350e-02,-64.6875,-446.719,505,2.29844
-4.8340e-02,-64.8047,-446.992,506.68,2.29688
-4.8330e-02,-67.8516,-444.805,508.047,2.30469
-4.8320e-02,-70.8203,-442.461,507.578,2.33437
-4.8310e-02,-72.7734,-441.523,509.609,2.36406
-4.8300e-02,-75.0781,-441.719,511.641,2.38437
-4.8290e-02,-77.4219,-440.43,513.945,2.40156
-4.8280e-02,-79.2969,-439.844,513.633,2.41406
-4.8270e-02,-80.1562,-439.18,513.438,2.44063
-4.8260e-02,-81.2109,-438.633,514.727,2.45937
-4.8250e-02,-82.6953,-438.828,515.547,2.44844
-4.8240e-02,-85.1562,-437.344,518.047,2.44063
-4.8230e-02,-89.3359,-433.398,519.492,2.4625
-4.8220e-02,-93.6328,-430.43,519.453,2.4875
-4.8210e-02,-96.875,-428.594,520.977,2.52969
-4.8200e-02,-100.469,-427.812,523.711,2.58437
-4.8190e-02,-103.555,-426.016,526.25,2.6375
-4.8180e-02,-106.328,-424.57,525.625,2.66406
-4.8170e-02,-108.164,-422.422,525.391,2.6875
-4.8160e-02,-110.156,-421.133,526.016,2.6875
-4.8150e-02,-112.07,-419.18,526.523,2.67812
-4.8140e-02,-113.906,-418.047,526.836,2.66562
-4.8130e-02,-114.648,-418.555,527.109,2.7
-4.8120e-02,-116.992,-417.539,530.156,2.72812
-4.8110e-02,-121.602,-414.336,532.07,2.74687
-4.8100e-02,-125.352,-412.266,532.5,2.79844
-4.8090e-02,-128.672,-409.609,533.438,2.84531
-4.8080e-02,-131.484,-407.461,532.266,2.86875
-4.8070e-02,-133.867,-404.844,531.055,2.89062
-4.8060e-02,-135.977,-402.812,531.094,2.91406
-4.8050e-02,-138.047,-400.078,531.289,2.91094
-4.8040e-02,-139.414,-398.008,531.094,2.90938
-4.8030e-02,-140.703,-397.266,530.781,2.88906
-4.8020e-02,-141.133,-397.031,530.547,2.90312
-4.8010e-02,-141.406,-398.438,531.289,2.87969
-4.8000e-02,-142.773,-398.125,534.453,2.90469
-4.7990e-02,-146.328,-396.406,536.133,2.91875
-4.7980e-02,-149.297,-395.547,536.367,2.94531
-4.7970e-02,-151.367,-394.102,537.852,2.97344
-4.7960e-02,-152.812,-393.164,536.719,2.99375
-4.7950e-02,-154.062,-391.992,535.664,3.00781
-4.7940e-02,-154.609,-391.367,535.703,3.00312
-4.7930e-02,-155.625,-390.742,535.664,3.02656
-4.7920e-02,-157.578,-389.531,536.758,3.06406
-4.7910e-02,-160.742,-386.25,537.227,3.05469
-4.7900e-02,-163.906,-383.906,535.977,3.04844
-4.7890e-02,-165.859,-382.227,536.055,3.05
-4.7880e-02,-167.734,-381.367,536.992,3.06719
-4.7870e-02,-169.297,-382.578,538.398,3.10156
-4.7860e-02,-171.953,-382.266,542.305,3.12969
-4.7850e-02,-175.703,-381.211,544.492,3.13281
-4.7840e-02,-177.93,-380.352,545.391,3.15
-4.7830e-02,-177.422,-380.391,545.352,3.17656
-4.7820e-02,-177.07,-379.336,544.219,3.13594
-4.7810e-02,-178.164,-376.68,543.008,3.125
-4.7800e-02,-178.594,-375.312,541.25,3.14844
-4.7790e-02,-178.75,-375.508,540.82,3.15937
-4.7780e-02,-180.625,-374.648,542.812,3.1625
-4.7770e-02,-183.633,-371.953,543.906,3.17344
-4.7760e-02,-186.367,-370.234,543.398,3.2125
-4.7750e-02,-188.008,-370.078,544.414,3.24062
-4.7740e-02,-190.547,-370.547,547.852,3.27187
-4.7730e-02,-194.531,-369.414,550.703,3.29219
-4.7720e-02,-197.031,-368.594,551.562,3.3125
-4.7710e-02,-196.172,-368.945,551.367,3.32969
-4.7700e-02,-195.664,-368.203,550.742,3.33594
-4.7690e-02,-196.055,-366.562,549.805,3.33437
-4.7680e-02,-198.438,-364.062,549.18,3.30625
-4.7670e-02,-201.719,-359.727,549.023,3.32187
-4.7660e-02,-204.688,-356.797,548.125,3.32656
-4.7650e-02,-207.188,-355.234,548.164,3.34062
-4.7640e-02,-209.648,-354.844,550.391,3.36719
-4.7630e-02,-213.75,-351.719,552.617,3.39844
-4.7620e-02,-217.344,-350.156,552.773,3.44375
-4.7610e-02,-219.297,-347.852,553.984,3.48594
-4.7600e-02,-220.742,-346.406,553.359,3.5375
-4.7590e-02,-222.109,-344.961,552.188,3.50625
-4.7580e-02,-222.812,-343.789,552.734,3.50469
-4.7570e-02,-223.633,-343.945,552.852,3.50781
-4.7560e-02,-225.273,-342.891,554.297,3.5125
-4.7550e-02,-227.656,-339.727,554.57,3.51406
-4.7540e-02,-229.805,-338.164,553.203,3.51719
-4.7530e-02,-230.664,-338.125,553.438,3.53125
-4.7520e-02,-232.07,-338.242,555.859,3.56562
-4.7510e-02,-235,-334.531,557.539,3.58125
-4.7500e-02,-236.758,-332.148,553.945,3.5875
-4.7490e-02,-237.344,-329.141,551.719,3.61406
-4.7480e-02,-239.414,-327.461,551.953,3.61719
-4.7470e-02,-242.734,-321.68,552.227,3.62187
-4.7460e-02,-245.352,-317.891,549.023,3.63125
-4.7450e-02,-246.484,-315.43,547.422,3.64062
-4.7440e-02,-247.891,-313.906,547.773,3.62969
-4.7430e-02,-250.664,-309.453,548.477,3.62656
-4.7420e-02,-252.656,-307.344,546.641,3.64844
-4.7410e-02,-253.672,-305.977,546.562,3.66406
-4.7400e-02,-255.039,-306.25,548.281,3.68906
-4.7390e-02,-257.5,-303.828,550.547,3.70625
-4.7380e-02,-260,-303.516,550.352,3.725
-4.7370e-02,-261.055,-304.453,551.914,3.72969
-4.7360e-02,-263.047,-305.469,555,3.73906
-4.7350e-02,-265.82,-303.008,557.461,3.76406
-4.7340e-02,-267.227,-301.602,555.156,3.79219
-4.7330e-02,-267.93,-299.727,553.789,3.79219
-4.7320e-02,-270.273,-299.062,554.492,3.79688
-4.7310e-02,-273.398,-294.336,555.469,3.81719
-4.7300e-02,-275.391,-291.641,553.789,3.81094
-4.7290e-02,-276.523,-289.883,553.125,3.82187
-4.7280e-02,-277.617,-290.078,553.945,3.81094
-4.7270e-02,-279.961,-287.656,555.117,3.83594
-4.7260e-02,-281.211,-286.953,554.414,3.85625
-4.7250e-02,-281.328,-285.977,554.57,3.87344
-4.7240e-02,-281.875,-286.133,554.297,3.875
-4.7230e-02,-283.359,-281.758,553.203,3.8875
-4.7220e-02,-284.414,-279.023,550.039,3.87187
-4.7210e-02,-285.273,-276.055,548.594,3.84531
-4.7200e-02,-285.82,-274.805,547.734,3.81875
-4.7190e-02,-287.266,-270.898,547.422,3.83125
-4.7180e-02,-288.008,-269.297,544.688,3.83281
-4.7170e-02,-287.344,-268.945,543.867,3.81719
-4.7160e-02,-287.5,-269.531,544.766,3.81719
-4.7150e-02,-289.023,-268.32,546.211,3.83281
-4.7140e-02,-291.641,-266.641,546.797,3.82031
-4.7130e-02,-295.508,-264.57,547.344,3.85469
-4.7120e-02,-299.922,-261.602,548.438,3.8875
-4.7110e-02,-305.273,-256.836,550.469,3.90937
-4.7100e-02,-309.961,-254.258,550.586,3.95
-4.7090e-02,-313.281,-251.602,551.836,3.97812
-4.7080e-02,-315.273,-249.922,550.82,4.01562
-4.7070e-02,-317.148,-248.281,550,4.03906
-4.7060e-02,-319.609,-246.523,552.031,4.04062
-4.7050e-02,-323.047,-242.617,552.93,4.05781
-4.7040e-02,-324.727,-240.703,551.172,4.07344
-4.7030e-02,-325.391,-239.727,551.016,4.06719
-4.7020e-02,-326.602,-240.391,552.227,4.0875
-4.7010e-02,-327.734,-237.383,553.828,4.09375
-4.7000e-02,-327.617,-236.641,550.312,4.09219
-4.6990e-02,-327.422,-235.117,547.344,4.09375
-4.6980e-02,-327.969,-233.945,548.008,4.07656
-4.6970e-02,-330.039,-231.016,548.125,4.05312
-4.6960e-02,-332.344,-227.734,546.914,4.04062
-4.6950e-02,-334.609,-223.125,545.586,4.05
-4.6940e-02,-336.25,-220.547,543.516,4.03906
-4.6930e-02,-336.875,-219.18,542.617,4.02969
-4.6920e-02,-338.242,-219.57,543.516,4.04688
-4.6910e-02,-340.43,-218.242,544.766,4.07812
-4.6900e-02,-343.125,-216.328,546.367,4.10469
-4.6890e-02,-346.172,-212.266,546.641,4.14531
-4.6880e-02,-347.617,-209.688,543.242,4.15312
-4.6870e-02,-348.711,-206.719,540.742,4.14687
-4.6860e-02,-351.445,-204.102,541.68,4.16094
-4.6850e-02,-354.219,-199.141,541.992,4.16562
-4.6840e-02,-355.586,-196.758,539.609,4.17969
-4.6830e-02,-356.289,-195.664,538.398,4.19531
-4.6820e-02,-356.602,-195.977,538.984,4.20781
-4.6810e-02,-358.008,-195,540.625,4.19687
-4.6800e-02,-360.352,-193.828,541.094,4.18906
-4.6790e-02,-362.188,-190.234,541.875,4.20312
-4.6780e-02,-363.086,-188.164,537.5,4.20156
-4.6770e-02,-363.438,-185.312,534.805,4.21562
-4.6760e-02,-364.766,-183.281,534.531,4.22344
-4.6750e-02,-367.227,-178.008,534.648,4.21094
-4.6740e-02,-367.852,-175.273,531.406,4.18594
-4.6730e-02,-367.305,-174.219,529.141,4.16875
-4.6720e-02,-366.836,-174.727,529.531,4.19375
-4.6710e-02,-367.227,-173.867,530.195,4.18281
-4.6700e-02,-368.711,-172.969,530.273,4.1875
-4.6690e-02,-370.664,-171.445,531.016,4.20625
-4.6680e-02,-373.438,-169.102,531.875,4.23594
-4.6670e-02,-377.07,-166.016,533.164,4.21719
-4.6660e-02,-379.688,-165.273,533.125,4.225
-4.6650e-02,-380.391,-164.453,534.141,4.24531
-4.6640e-02,-381.641,-165,534.102,4.25781
-4.6630e-02,-382.93,-161.875,533.75,4.29062
-4.6620e-02,-384.297,-159.844,531.719,4.31719
-4.6610e-02,-384.922,-157.969,531.211,4.28281
-4.6600e-02,-385.117,-158.438,531.289,4.25625
-4.6590e-02,-386.172,-157.422,532.383,4.24844
-4.6580e-02,-387.773,-156.406,532.227,4.2375
-4.6570e-02,-389.531,-154.453,533.125,4.28437
-4.6560e-02,-391.875,-152.148,534.336,4.28594
-4.6550e-02,-393.984,-148.359,534.805,4.30469
-4.6540e-02,-394.648,-145.742,531.289,4.33281
-4.6530e-02,-395.234,-142.461,529.219,4.32031
-4.6520e-02,-397.188,-139.883,528.789,4.31719
-4.6510e-02,-399.766,-135,529.883,4.28906
-4.6500e-02,-400.625,-133.047,527.031,4.29219
-4.6490e-02,-400.078,-131.914,525.43,4.30625
-4.6480e-02,-400,-132.734,525.469,4.30469
-4.6470e-02,-400.625,-132.5,526.797,4.30937
-4.6460e-02,-401.484,-131.68,527.539,4.34375
-4.6450e-02,-403.32,-130.82,528.477,4.35938
-4.6440e-02,-404.883,-129.766,530.078,4.38437
-4.6430e-02,-406.211,-126.797,530.781,4.40937
-4.6420e-02,-406.797,-125.664,527.852,4.45937
-4.6410e-02,-407.266,-123.828,526.016,4.45937
-4.6400e-02,-408.672,-122.109,527.812,4.45312
-4.6390e-02,-410.586,-119.648,529.141,4.4625
-4.6380e-02,-412.539,-117.5,529.141,4.4625
-4.6370e-02,-414.258,-113.594,528.555,4.4625
-4.6360e-02,-414.414,-111.602,523.594,4.46562
-4.6350e-02,-414.336,-108.867,520.43,4.48438
-4.6340e-02,-416.172,-106.25,520.195,4.45625
-4.6330e-02,-417.93,-102.891,520.117,4.47031
-4.6320e-02,-419.766,-99.9219,518.32,4.44531
-4.6310e-02,-422.266,-96.4844,517.266,4.43437
-4.6300e-02,-425.352,-93.3203,516.367,4.43906
-4.6290e-02,-428.281,-89.3359,515.859,4.48438
-4.6280e-02,-430.156,-86.9922,514.297,4.5
-4.6270e-02,-431.289,-86.5234,514.297,4.49375
-4.6260e-02,-432.656,-87.1875,516.602,4.49375
-4.6250e-02,-433.359,-86.0156,518.906,4.51406
-4.6240e-02,-431.875,-86.9531,515.547,4.52344
-4.6230e-02,-430.312,-87.1875,513.789,4.53437
-4.6220e-02,-430.508,-87.3828,514.883,4.50312
-4.6210e-02,-430.547,-86.0938,515.586,4.50156
-4.6200e-02,-430.156,-85.1562,512.07,4.48281
-4.6190e-02,-430.43,-82.0312,508.438,4.46719
-4.6180e-02,-432.148,-76.875,506.836,4.45625
-4.6170e-02,-434.766,-72.3047,504.336,4.43437
-4.6160e-02,-437.773,-67.3828,502.109,4.42812
-4.6150e-02,-440.742,-62.3047,500.469,4.42969
-4.6140e-02,-441.953,-59.3359,497.461,4.47344
-4.6130e-02,-442.656,-57.4219,496.406,4.48438
-4.6120e-02,-443.984,-57.5,496.797,4.46719
-4.6110e-02,-445.195,-56.7969,499.102,4.475
-4.6100e-02,-447.383,-56.1719,500.156,4.47969
-4.6090e-02,-449.297,-55.0391,501.875,4.48281
