Laboratory/3rd_day/ANN_step1_200V_tek0021.csv

Model,DPO3014
Firmware Version,2.40

Waveform Type,ANALOG,,,
Point Format,Y,,,
Horizontal Units,s,,,
Horizontal Scale,0.01,,,
Horizontal Delay,0,,,
Sample Interval,1e-05,,,
Record Length,10000,,,
Gating,0.0% to 100.0%,,,
Probe Attenuation,500,,,
Vertical Units,V,,,
Vertical Offset,0,,,
Vertical Scale,250,,,
Vertical Position,1.38,,,
,,,,
,,,,
,,,,
Label,,,,
TIME,CH1,CH2,CH3,CH4
-5.0000e-02,-26.3672,-295,316.211,-2.60313
-4.9990e-02,-26.0156,-295.43,315.312,-2.59531
-4.9980e-02,-25.625,-295.742,315.977,-2.54375
-4.9970e-02,-26.0547,-295.234,318.125,-2.56406
-4.9960e-02,-26.6016,-295.664,317.383,-2.59375
-4.9950e-02,-26.0156,-296.328,315.977,-2.59531
-4.9940e-02,-26.0156,-295.664,316.68,-2.59688
-4.9930e-02,-29.4922,-292.578,317.93,-2.62344
-4.9920e-02,-31.8359,-290.391,318.359,-2.62813
-4.9910e-02,-31.5234,-289.414,316.875,-2.64219
-4.9900e-02,-32.0703,-287.734,315.977,-2.62969
-4.9890e-02,-33.75,-285.859,315.117,-2.62969
-4.9880e-02,-34.4922,-284.531,314.297,-2.60781
-4.9870e-02,-32.8906,-283.906,312.656,-2.59375
-4.9860e-02,-32.4219,-283.125,311.523,-2.58281
-4.9850e-02,-33.2422,-281.484,310.898,-2.55625
-4.9840e-02,-35,-280.078,310.156,-2.5625
-4.9830e-02,-36.4453,-278.867,311.367,-2.58906
-4.9820e-02,-37.5391,-278.398,310.43,-2.625
-4.9810e-02,-38.2422,-277.344,310.664,-2.6625
-4.9800e-02,-38.5547,-277.5,310.273,-2.67969
-4.9790e-02,-39.8438,-275.938,312.227,-2.69063
-4.9780e-02,-40.7422,-275.117,311.25,-2.71094
-4.9770e-02,-41.0547,-273.789,310.508,-2.69063
-4.9760e-02,-40.8984,-273.945,309.219,-2.69844
-4.9750e-02,-41.7969,-271.758,310.781,-2.69844
-4.9740e-02,-42.2266,-270.82,309.297,-2.69063
-4.9730e-02,-42.2266,-269.062,306.758,-2.66563
-4.9720e-02,-41.4062,-268.789,305.156,-2.6625
-4.9710e-02,-41.4453,-268.477,305.039,-2.64375
-4.9700e-02,-42.5,-267.344,306.484,-2.65313
-4.9690e-02,-45.3125,-266.133,308.164,-2.65938
-4.9680e-02,-47.4219,-265.039,309.18,-2.67031
-4.9670e-02,-47.0703,-265.547,309.219,-2.66563
-4.9660e-02,-47.2266,-265.352,309.57,-2.67031
-4.9650e-02,-48.9062,-264.023,310.547,-2.69063
-4.9640e-02,-51.5234,-263.555,311.289,-2.69688
-4.9630e-02,-53.3594,-263.164,314.258,-2.74219
-4.9620e-02,-55.3125,-263.672,315.195,-2.78281
-4.9610e-02,-56.4062,-263.75,316.211,-2.80781
-4.9600e-02,-57.6562,-262.578,316.875,-2.80156
-4.9590e-02,-58.6719,-261.602,316.055,-2.81719
-4.9580e-02,-59.3359,-260.664,317.148,-2.82969
-4.9570e-02,-60.5859,-259.57,318.633,-2.84063
-4.9560e-02,-61.6016,-259.141,317.656,-2.84844
-4.9550e-02,-61.5625,-258.711,316.367,-2.85625
-4.9540e-02,-61.2891,-258.477,316.836,-2.87656
-4.9530e-02,-62.0312,-259.609,317.344,-2.86094
-4.9520e-02,-63.3203,-260,320.469,-2.85625
-4.9510e-02,-66.4062,-259.922,323.672,-2.84375
-4.9500e-02,-68.75,-259.961,325.625,-2.87656
-4.9490e-02,-68.3594,-261.484,326.484,-2.8875
-4.9480e-02,-68.3594,-262.305,328.477,-2.89062
-4.9470e-02,-70.4688,-261.094,330.508,-2.92344
-4.9460e-02,-73.0469,-259.922,329.336,-2.925
-4.9450e-02,-73.9844,-258.867,328.125,-2.94375
-4.9440e-02,-75.0391,-258.203,329.609,-2.94688
-4.9430e-02,-77.0312,-256.992,332.188,-2.9625
-4.9420e-02,-78.5156,-256.875,331.836,-2.96406
-4.9410e-02,-78.9844,-256.562,331.484,-2.96406
-4.9400e-02,-78.9453,-256.211,332.422,-3.00469
-4.9390e-02,-80.3516,-255.664,334.102,-3.00156
-4.9380e-02,-80.7422,-256.016,333.359,-3.02031
-4.9370e-02,-80.3125,-256.992,331.562,-3.00469
-4.9360e-02,-80.625,-255.742,333.281,-3.01875
-4.9350e-02,-84.4141,-251.797,335.859,-3.02188
-4.9340e-02,-88.2422,-248.867,333.438,-3.03906
-4.9330e-02,-90.2734,-245.742,331.25,-3.03438
-4.9320e-02,-91.875,-242.852,331.484,-3.04219
-4.9310e-02,-94.7266,-239.805,332.344,-3.08125
-4.9300e-02,-97.0703,-237.578,330.469,-3.11406
-4.9290e-02,-97.7734,-235.195,328.594,-3.09688
-4.9280e-02,-98.2422,-233.555,326.797,-3.09219
-4.9270e-02,-99.7656,-230.586,327.461,-3.0875
-4.9260e-02,-100.195,-228.867,325.078,-3.10781
-4.9250e-02,-99.9609,-226.367,322.305,-3.09531
-4.9240e-02,-99.7656,-224.922,319.414,-3.09219
-4.9230e-02,-99.2578,-224.102,318.438,-3.06719
-4.9220e-02,-99.8047,-222.773,319.297,-3.06875
-4.9210e-02,-103.047,-220.703,320.781,-3.07656
-4.9200e-02,-105.742,-219.844,320.781,-3.08125
-4.9190e-02,-107.773,-218.711,323.242,-3.08125
-4.9180e-02,-109.336,-218.867,323.711,-3.11563
-4.9170e-02,-110.312,-218.516,324.414,-3.15
-4.9160e-02,-111.211,-219.062,324.727,-3.16094
-4.9150e-02,-112.109,-218.164,327.461,-3.15469
-4.9140e-02,-112.617,-218.867,327.422,-3.14062
-4.9130e-02,-112.461,-218.672,327.07,-3.15625
-4.9120e-02,-112.07,-219.727,326.367,-3.15625
-4.9110e-02,-111.875,-220.742,327.656,-3.18125
-4.9100e-02,-112.773,-221.562,330.664,-3.19219
-4.9090e-02,-115.547,-220.312,334.258,-3.20156
-4.9080e-02,-117.93,-220.039,333.555,-3.22969
-4.9070e-02,-119.414,-218.867,333.75,-3.25938
-4.9060e-02,-120.742,-218.867,333.984,-3.2875
-4.9050e-02,-122.617,-217.5,336.875,-3.29844
-4.9040e-02,-123.984,-217.422,336.484,-3.3
-4.9030e-02,-123.828,-216.602,336.289,-3.31406
-4.9020e-02,-123.906,-216.758,335.312,-3.31719
-4.9010e-02,-123.984,-216.445,336.641,-3.29844
-4.9000e-02,-124.57,-215.977,336.523,-3.28125
-4.8990e-02,-127.227,-211.992,335.43,-3.29844
-4.8980e-02,-130,-208.711,333.633,-3.3
-4.8970e-02,-131.914,-206.484,333.555,-3.31094
-4.8960e-02,-133.75,-205.664,334.062,-3.32656
-4.8950e-02,-135.078,-205,336.484,-3.34688
-4.8940e-02,-135.859,-205.82,336.016,-3.37656
-4.8930e-02,-136.172,-206.25,335.078,-3.37969
-4.8920e-02,-136.25,-206.523,336.875,-3.35625
-4.8910e-02,-139.023,-205.625,340.078,-3.40156
-4.8900e-02,-140.547,-205.508,340.742,-3.40313
-4.8890e-02,-138.906,-206.758,340.195,-3.3625
-4.8880e-02,-137.031,-207.578,340.586,-3.31875
-4.8870e-02,-137.031,-207.109,341.25,-3.3125
-4.8860e-02,-137.891,-206.328,338.477,-3.35938
-4.8850e-02,-137.148,-205.547,335.664,-3.32656
-4.8840e-02,-136.523,-205.039,335.508,-3.31719
-4.8830e-02,-138.867,-202.461,338.398,-3.32031
-4.8820e-02,-141.953,-202.148,338.203,-3.33594
-4.8810e-02,-143.008,-201.289,339.961,-3.34219
-4.8800e-02,-143.477,-201.641,340.195,-3.35625
-4.8790e-02,-143.828,-202.461,339.375,-3.39375
-4.8780e-02,-144.219,-202.93,340.781,-3.38594
-4.8770e-02,-146.914,-200.117,345.039,-3.39688
-4.8760e-02,-149.492,-199.219,343.203,-3.42656
-4.8750e-02,-150.703,-197.891,341.719,-3.46094
-4.8740e-02,-151.641,-196.484,342.617,-3.45469
-4.8730e-02,-152.852,-195.117,343.945,-3.45625
-4.8720e-02,-153.32,-194.961,343.32,-3.4625
-4.8710e-02,-152.812,-195.078,341.484,-3.45469
-4.8700e-02,-152.5,-195.273,341.719,-3.45
-4.8690e-02,-154.727,-192.344,344.531,-3.44844
-4.8680e-02,-156.914,-190.703,341.797,-3.47031
-4.8670e-02,-156.953,-188.125,339.57,-3.45156
-4.8660e-02,-157.07,-186.719,337.695,-3.43594
-4.8650e-02,-157.812,-185.508,337.891,-3.43125
-4.8640e-02,-158.164,-185.781,338.555,-3.46406
-4.8630e-02,-160.234,-183.477,341.445,-3.46875
-4.8620e-02,-162.383,-182.617,339.453,-3.48281
-4.8610e-02,-162.812,-180.742,338.164,-3.48594
-4.8600e-02,-163.281,-179.961,337.188,-3.47813
-4.8590e-02,-164.336,-178.242,338.477,-3.48906
-4.8580e-02,-164.258,-178.047,336.484,-3.47813
-4.8570e-02,-162.969,-177.07,334.922,-3.44688
-4.8560e-02,-162.031,-177.656,332.617,-3.43594
-4.8550e-02,-163.594,-174.609,334.961,-3.45156
-4.8540e-02,-165.195,-174.336,333.906,-3.46094
-4.8530e-02,-165.703,-174.961,333.75,-3.42344
-4.8520e-02,-166.523,-175.664,337.227,-3.42969
-4.8510e-02,-169.609,-174.414,341.719,-3.46406
-4.8500e-02,-172.656,-174.57,341.562,-3.5125
-4.8490e-02,-173.828,-173.75,341.992,-3.54063
-4.8480e-02,-175.195,-172.383,342.422,-3.60156
-4.8470e-02,-176.406,-170.938,341.406,-3.61406
-4.8460e-02,-176.641,-170.312,340.273,-3.60156
-4.8450e-02,-177.109,-168.789,341.562,-3.58438
-4.8440e-02,-177.422,-168.984,339.883,-3.57344
-4.8430e-02,-178.945,-165.43,339.102,-3.57344
-4.8420e-02,-180.625,-162.539,335.938,-3.55313
-4.8410e-02,-181.25,-159.961,335.586,-3.57344
-4.8400e-02,-182.07,-160,335.273,-3.59219
-4.8390e-02,-184.414,-158.203,337.461,-3.58438
-4.8380e-02,-185.508,-157.969,338.32,-3.56563
-4.8370e-02,-183.398,-159.57,337.5,-3.58594
-4.8360e-02,-181.914,-160.352,337.5,-3.59375
-4.8350e-02,-180.977,-160.625,337.812,-3.59375
-4.8340e-02,-180.547,-160.469,335.234,-3.6
-4.8330e-02,-179.18,-160.078,332.344,-3.58125
-4.8320e-02,-177.93,-160,331.875,-3.55938
-4.8310e-02,-179.609,-157.969,334.102,-3.55938
-4.8300e-02,-181.016,-158.242,333.711,-3.55313
-4.8290e-02,-181.25,-159.414,335.117,-3.57188
-4.8280e-02,-181.641,-160,336.328,-3.57656
-4.8270e-02,-184.102,-157.773,337.031,-3.59063
-4.8260e-02,-186.68,-155.898,336.602,-3.60625
-4.8250e-02,-188.555,-154.219,338.359,-3.63125
-4.8240e-02,-190,-154.141,337.734,-3.66094
-4.8230e-02,-192.578,-150.859,338.516,-3.65938
-4.8220e-02,-195.625,-147.812,338.086,-3.675
-4.8210e-02,-197.695,-144.922,339.336,-3.67656
-4.8200e-02,-198.984,-143.75,338.242,-3.68281
-4.8190e-02,-199.805,-142.266,336.523,-3.73594
-4.8180e-02,-200.312,-140.977,336.68,-3.72344
-4.8170e-02,-200.586,-140.391,337.578,-3.74375
-4.8160e-02,-200.781,-141.211,336.289,-3.72969
-4.8150e-02,-201.602,-138.008,336.328,-3.73125
-4.8140e-02,-203.008,-135.742,334.492,-3.73594
-4.8130e-02,-203.75,-134.531,334.336,-3.72969
-4.8120e-02,-204.102,-135.664,334.961,-3.74375
-4.8110e-02,-206.133,-133.867,338.867,-3.7625
-4.8100e-02,-207.656,-133.867,337.852,-3.77188
-4.8090e-02,-208.203,-133.477,336.68,-3.78906
-4.8080e-02,-209.141,-133.32,337.734,-3.79063
-4.8070e-02,-211.914,-130.43,341.758,-3.81563
-4.8060e-02,-214.141,-130.117,339.883,-3.84375
-4.8050e-02,-214.648,-128.281,338.555,-3.84688
-4.8040e-02,-215.781,-127.656,337.656,-3.83125
-4.8030e-02,-218.438,-124.648,340.352,-3.84375
-4.8020e-02,-220.078,-123.281,340.352,-3.81875
-4.8010e-02,-218.398,-124.102,338.906,-3.82031
-4.8000e-02,-216.289,-124.297,337.852,-3.82969
-4.7990e-02,-215.273,-123.828,337.188,-3.79063
-4.7980e-02,-213.906,-124.258,333.438,-3.75781
-4.7970e-02,-211.328,-123.242,330.547,-3.74844
-4.7960e-02,-209.688,-123.906,327.5,-3.72813
-4.7950e-02,-210.078,-121.758,328.672,-3.70625
-4.7940e-02,-211.602,-120.43,328.789,-3.70781
-4.7930e-02,-214.18,-117.461,330.352,-3.74844
-4.7920e-02,-216.328,-115.781,327.5,-3.7625
-4.7910e-02,-217.188,-113.008,325.859,-3.78438
-4.7900e-02,-218.086,-111.602,324.219,-3.775
-4.7890e-02,-221.328,-106.68,326.914,-3.775
-4.7880e-02,-224.688,-104.961,326.406,-3.76562
-4.7870e-02,-225.898,-104.18,328.086,-3.81563
-4.7860e-02,-226.875,-104.453,327.852,-3.85156
-4.7850e-02,-227.109,-104.219,327.617,-3.87344
-4.7840e-02,-227.109,-105,327.07,-3.86563
-4.7830e-02,-229.414,-102.305,330.742,-3.87188
-4.7820e-02,-230.82,-101.953,329.297,-3.88438
-4.7810e-02,-230.703,-100.781,327.305,-3.86094
-4.7800e-02,-231.055,-100.039,326.992,-3.85938
-4.7790e-02,-233.125,-96.7969,330.195,-3.86719
-4.7780e-02,-234.453,-96.3281,327.812,-3.87031
-4.7770e-02,-234.453,-94.4141,325.938,-3.85313
-4.7760e-02,-234.766,-93.3984,324.336,-3.84375
-4.7750e-02,-236.758,-90.1172,326.641,-3.87031
-4.7740e-02,-239.18,-89.4531,325.898,-3.85313
-4.7730e-02,-239.492,-89.1016,326.953,-3.87813
-4.7720e-02,-239.883,-90.8594,326.367,-3.90156
-4.7710e-02,-241.367,-88.9844,327.383,-3.90469
-4.7700e-02,-243.008,-87.5,327.148,-3.91563
-4.7690e-02,-243.867,-86.7969,328.477,-3.90938
-4.7680e-02,-244.453,-88.0859,328.125,-3.91563
-4.7670e-02,-245.859,-85.4297,328.633,-3.9125
-4.7660e-02,-247.109,-83.7109,327.93,-3.925
-4.7650e-02,-248.203,-82.4609,328.789,-3.925
-4.7640e-02,-248.125,-83.4766,327.656,-3.90781
-4.7630e-02,-249.766,-80.4688,328.125,-3.89844
-4.7620e-02,-250.977,-78.75,326.719,-3.91563
-4.7610e-02,-251.602,-77.0703,327.422,-3.93594
-4.7600e-02,-252.031,-77.8516,325.703,-3.95
-4.7590e-02,-253.164,-75,325.547,-3.94531
-4.7580e-02,-254.258,-72.7344,323.867,-3.92813
-4.7570e-02,-255.078,-71.7578,323.867,-3.93281
-4.7560e-02,-255.625,-73.1641,324.57,-3.94219
-4.7550e-02,-256.836,-72.3828,328.594,-3.93594
-4.7540e-02,-257.656,-73.6719,327.461,-3.93906
-4.7530e-02,-257.07,-73.7891,327.07,-3.95625
-4.7520e-02,-257.266,-74.4141,327.93,-3.98438
-4.7510e-02,-259.18,-73.4375,332.422,-3.99063
-4.7500e-02,-259.727,-74.5312,331.016,-4.00938
-4.7490e-02,-259.18,-74.9609,329.688,-4.03125
-4.7480e-02,-259.18,-75.1172,330.312,-4.00781
-4.7470e-02,-260.703,-73.5938,334.219,-4.05
-4.7460e-02,-261.328,-74.4922,332.578,-4.05
-4.7450e-02,-260.664,-74.3359,331.094,-4.03125
-4.7440e-02,-260.352,-74.4922,330.898,-4.02031
-4.7430e-02,-261.68,-72.7734,334.297,-4.025
-4.7420e-02,-262.188,-73.3984,332.344,-4.05625
-4.7410e-02,-261.172,-73.0469,330.508,-4.05938
-4.7400e-02,-260.859,-73.2422,328.477,-4.05625
-4.7390e-02,-261.875,-70.0781,331.406,-4.02813
-4.7380e-02,-262.188,-69.8438,328.516,-4.00781
-4.7370e-02,-260.82,-68.4375,326.016,-3.98438
-4.7360e-02,-260.469,-67.9688,323.32,-4.00156
-4.7350e-02,-261.445,-64.6875,325.195,-3.99375
-4.7340e-02,-262.07,-63.9453,321.289,-3.99375
-4.7330e-02,-260.469,-62.0703,318.203,-3.96875
-4.7320e-02,-259.57,-60.9375,315.625,-3.95312
-4.7310e-02,-260.508,-58.4766,316.016,-3.90625
-4.7300e-02,-262.461,-56.5234,316.211,-3.90625
-4.7290e-02,-265.078,-53.6719,317.773,-3.93281
-4.7280e-02,-267.227,-52.6172,315.391,-3.96719
-4.7270e-02,-267.891,-50.5469,313.828,-3.98125
-4.7260e-02,-269.18,-49.2578,311.758,-3.98281
-4.7250e-02,-271.953,-45.0781,315.117,-3.99531
-4.7240e-02,-273.828,-43.5547,312.812,-4.00313
-4.7230e-02,-274.492,-41.3672,310.195,-4
-4.7220e-02,-275.078,-39.375,308.516,-3.98281
-4.7210e-02,-277.734,-35.2734,311.25,-4.02344
-4.7200e-02,-279.531,-33.9062,308.281,-4.00313
-4.7190e-02,-279.414,-31.7578,305.742,-4.01719
-4.7180e-02,-279.766,-29.9609,303.906,-4
-4.7170e-02,-281.992,-26.7188,306.172,-3.99375
-4.7160e-02,-283.555,-26.6406,305.391,-4
-4.7150e-02,-283.281,-27.1875,306.445,-4.01406
-4.7140e-02,-282.93,-29.2578,306.484,-4.00469
-4.7130e-02,-283.438,-27.9297,308.164,-4.03906
-4.7120e-02,-284.375,-28.0078,306.484,-4.02031
-4.7110e-02,-284.219,-27.6953,308.047,-4.03438
-4.7100e-02,-283.516,-29.5312,307.266,-4.04375
-4.7090e-02,-283.789,-28.3984,307.969,-4.0375
-4.7080e-02,-284.531,-27.6953,306.914,-4.04531
-4.7070e-02,-284.062,-28.0078,308.008,-4.02344
-4.7060e-02,-282.891,-30.1562,306.914,-4
-4.7050e-02,-282.773,-29.1406,307.5,-4.01094
-4.7040e-02,-282.695,-28.7109,306.641,-3.99531
-4.7030e-02,-281.719,-29.5703,307.5,-4.00156
-4.7020e-02,-280.469,-31.0938,307.109,-3.98906
-4.7010e-02,-280.352,-30.5469,306.484,-4.01562
-4.7000e-02,-281.992,-28.5547,306.25,-4.02188
-4.6990e-02,-284.531,-25.7812,308.047,-4.02969
-4.6980e-02,-286.133,-24.5312,306.133,-4.03594
-4.6970e-02,-286.523,-22.8125,303.945,-4.05625
-4.6960e-02,-287.344,-21.2891,303.203,-4.02969
-4.6950e-02,-289.648,-18.3203,306.484,-4.0375
-4.6940e-02,-291.133,-18.125,304.258,-4.03438
-4.6930e-02,-291.016,-17.0703,302.422,-4.02969
-4.6920e-02,-291.484,-16.1328,301.836,-4.00781
-4.6910e-02,-293.359,-13.9062,304.609,-4.02344
-4.6900e-02,-293.867,-14.2578,302.695,-4.03594
-4.6890e-02,-293.125,-13.5547,300.43,-4.01406
-4.6880e-02,-293.008,-12.7344,299.766,-4.02344
-4.6870e-02,-294.141,-11.0938,302.734,-4.04531
-4.6860e-02,-294.375,-11.9922,300.703,-4.03594
-4.6850e-02,-293.008,-12.0312,298.555,-4.00156
-4.6840e-02,-292.305,-11.7969,297.93,-3.96563
-4.6830e-02,-292.891,-9.84375,301.133,-3.97344
-4.6820e-02,-292.578,-11.3672,299.18,-4
-4.6810e-02,-290.781,-11.9531,296.68,-3.9625
-4.6800e-02,-289.375,-12.2266,295.859,-3.975
-4.6790e-02,-289.727,-11.5625,298.789,-3.97344
-4.6780e-02,-290.508,-11.7969,298.203,-3.97031
-4.6770e-02,-291.953,-8.63281,297.266,-3.99531
-4.6760e-02,-292.734,-5.70312,294.453,-3.97656
-4.6750e-02,-292.969,-2.5,291.562,-3.98438
-4.6740e-02,-294.023,-0.078125,290.078,-3.9625
-4.6730e-02,-295.664,3.63281,291.289,-3.98438
-4.6720e-02,-296.367,4.02344,288.867,-3.98281
-4.6710e-02,-295.82,5.70312,286.289,-3.97344
-4.6700e-02,-295.508,7.42188,285,-3.94531
-4.6690e-02,-296.719,10.0391,286.836,-3.94219
-4.6680e-02,-296.875,9.6875,284.766,-3.94063
-4.6670e-02,-295.547,10.8984,282.93,-3.94063
-4.6660e-02,-294.688,11.0547,280.312,-3.92188
-4.6650e-02,-295.195,14.0625,282.617,-3.93438
-4.6640e-02,-294.727,13.6328,280.391,-3.92969
-4.6630e-02,-293.164,14.2188,277.5,-3.90156
-4.6620e-02,-291.641,14.375,274.609,-3.85
-4.6610e-02,-292.07,16.4844,275.977,-3.84531
-4.6600e-02,-293.477,17.1875,276.602,-3.84375
-4.6590e-02,-295.195,18.2031,278.516,-3.87344
-4.6580e-02,-295.859,17.4609,277.305,-3.88438
-4.6570e-02,-295.898,17.6953,276.484,-3.88438
-4.6560e-02,-295.742,17.8516,275.43,-3.89375
-4.6550e-02,-297.891,20.2734,279.609,-3.89062
-4.6540e-02,-298.438,19.2188,278.789,-3.90469
-4.6530e-02,-297.422,19.4141,277.656,-3.94688
-4.6520e-02,-297.227,18.9062,276.055,-3.95938
-4.6510e-02,-298.711,20.5469,279.219,-3.97969
-4.6500e-02,-300.312,20.8594,279.453,-3.97031
-4.6490e-02,-303.008,23.8281,278.672,-3.9625
-4.6480e-02,-305.391,26.5234,278.164,-3.96563
-4.6470e-02,-306.758,27.5781,279.453,-3.9875
-4.6460e-02,-307.578,26.875,279.102,-4.00156
-4.6450e-02,-309.102,29.2188,280.625,-4.00938
-4.6440e-02,-310.352,30.7031,279.141,-4.01406
-4.6430e-02,-310.859,32.5781,276.758,-4.01094
-4.6420e-02,-311.172,34.2188,275.898,-4.00781
-4.6410e-02,-312.93,36.6797,278.828,-4.00938
-4.6400e-02,-313.594,36.0547,277.148,-4.01406
-4.6390e-02,-312.227,36.4062,274.688,-3.98906
-4.6380e-02,-312.188,36.9922,273.906,-3.98438
-4.6370e-02,-313.125,38.0469,276.875,-4.01406
-4.6360e-02,-314.297,38.2812,276.406,-4.01562
-4.6350e-02,-316.055,41.1719,275.859,-4.01406
-4.6340e-02,-317.695,43.9453,273.398,-4.01406
-4.6330e-02,-318.203,46.9141,270.391,-4.025
-4.6320e-02,-319.531,49.9609,269.023,-3.98125
-4.6310e-02,-321.484,53.6328,271.523,-3.97969
-4.6300e-02,-322.148,53.3984,269.375,-3.975
-4.6290e-02,-321.602,54.375,266.875,-3.9875
-4.6280e-02,-321.758,55.7031,265.391,-4.00313
-4.6270e-02,-322.812,57.8125,268.867,-4.00469
-4.6260e-02,-322.93,56.0938,267.031,-4.00156
-4.6250e-02,-321.055,55.9375,265.195,-4.00313
-4.6240e-02,-319.883,56.0156,263.32,-3.97344
-4.6230e-02,-320.43,58.1641,262.109,-3.99531
-4.6220e-02,-321.562,61.0156,261.797,-4.01406
-4.6210e-02,-323.672,64.1016,262.656,-3.99531
-4.6200e-02,-324.414,64.2969,260.664,-3.99531
-4.6190e-02,-323.828,65.4688,258.32,-4.01094
-4.6180e-02,-324.062,66.8359,257.148,-3.97344
-4.6170e-02,-325.664,68.9844,260.547,-3.97656
-4.6160e-02,-325.586,67.3828,259.219,-3.98281
-4.6150e-02,-324.688,67.1484,257.656,-3.99375
-4.6140e-02,-323.516,67.1484,256.055,-3.96875
-4.6130e-02,-323.867,69.1016,255.273,-3.96094
-4.6120e-02,-325.664,72.2656,254.922,-3.96563
-4.6110e-02,-327.656,74.6094,256.172,-3.96563
-4.6100e-02,-328.789,74.8438,254.531,-3.95625
-4.6090e-02,-328.594,76.0547,252.5,-3.975
-4.6080e-02,-328.828,77.4219,251.055,-3.95625
-4.6070e-02,-330.195,79.9219,254.453,-3.95938
-4.6060e-02,-330.625,78.7891,253.438,-3.95938
-4.6050e-02,-329.258,78.9062,252.07,-3.96563
-4.6040e-02,-328.633,79.1406,250.195,-3.95469
-4.6030e-02,-328.75,82.1484,250.312,-3.94688
-4.6020e-02,-328.242,83.5156,246.914,-3.93906
-4.6010e-02,-326.719,84.8828,242.617,-3.9
-4.6000e-02,-325.508,86.6797,240.43,-3.86406
-4.5990e-02,-325.391,87.5781,240.469,-3.84531
-4.5980e-02,-326.25,87.6562,240.938,-3.83594
-4.5970e-02,-326.914,88.5156,242.93,-3.8375
-4.5960e-02,-326.797,86.3281,242.07,-3.84063
-4.5950e-02,-326.055,85.8984,241.562,-3.82344
-4.5940e-02,-325.195,85.2344,241.094,-3.84688
-4.5930e-02,-325.703,86.9922,241.719,-3.86719
-4.5920e-02,-325.781,87.6172,239.609,-3.88125
-4.5910e-02,-324.219,88.3594,236.445,-3.86094
-4.5900e-02,-323.203,89.375,234.961,-3.825
-4.5890e-02,-323.516,90.3125,236.719,-3.78281
-4.5880e-02,-323.633,89.8828,236.211,-3.775
-4.5870e-02,-324.57,92.2266,235.43,-3.78438
-4.5860e-02,-325.039,93.8281,232.617,-3.79531
-4.5850e-02,-324.805,96.0547,229.297,-3.78438
-4.5840e-02,-325.156,97.9297,227.656,-3.75625
-4.5830e-02,-325.938,100.273,230.234,-3.73438
-4.5820e-02,-325.508,99.0234,229.023,-3.7375
-4.5810e-02,-324.297,98.5938,226.914,-3.76875
-4.5800e-02,-322.93,98.7109,224.883,-3.74219
-4.5790e-02,-322.656,100.664,223.672,-3.72813
-4.5780e-02,-323.867,103.359,222.891,-3.71094
-4.5770e-02,-325.742,105.938,224.531,-3.725
-4.5760e-02,-326.523,105.508,223.125,-3.72969
-4.5750e-02,-325.898,105.898,221.094,-3.71719
