Laboratory/3rd_day/ANN_step1_Step_BigPic_tek0013.csv

Model,DPO3014
Firmware Version,2.40

Waveform Type,ANALOG,,,
Point Format,Y,,,
Horizontal Units,s,,,
Horizontal Scale,0.01,,,
Horizontal Delay,0.0035,,,
Sample Interval,1e-05,,,
Record Length,10000,,,
Gating,0.0% to 100.0%,,,
Probe Attenuation,500,,,
Vertical Units,V,,,
Vertical Offset,0,,,
Vertical Scale,250,,,
Vertical Position,1.42,,,
,,,,
,,,,
,,,,
Label,,,,
TIME,CH1,CH2,CH3,CH4
-4.6500e-02,-371.602,183.789,199.883,-3.84219
-4.6490e-02,-371.68,185.703,198.008,-3.82188
-4.6480e-02,-371.758,187.734,195.82,-3.8125
-4.6470e-02,-372.422,191.484,195.43,-3.81563
-4.6460e-02,-372.227,192.852,191.562,-3.81875
-4.6450e-02,-371.211,195.156,187.344,-3.77344
-4.6440e-02,-370.391,197.344,184.57,-3.77188
-4.6430e-02,-370.352,198.477,185.117,-3.77188
-4.6420e-02,-370.352,197.891,185.469,-3.77188
-4.6410e-02,-370.508,199.141,184.688,-3.75156
-4.6400e-02,-370.156,199.648,181.992,-3.75469
-4.6390e-02,-369.18,200.352,179.57,-3.74375
-4.6380e-02,-368.32,201.875,176.719,-3.7375
-4.6370e-02,-368.203,204.258,174.453,-3.72031
-4.6360e-02,-368.945,207.773,173.359,-3.70469
-4.6350e-02,-370.078,209.609,174.102,-3.71094
-4.6340e-02,-369.688,208.398,174.219,-3.69063
-4.6330e-02,-368.516,206.914,172.734,-3.68906
-4.6320e-02,-367.734,206.875,171.25,-3.68594
-4.6310e-02,-367.578,208.359,171.797,-3.67969
-4.6300e-02,-366.953,207.539,169.883,-3.70312
-4.6290e-02,-365.273,207.383,167.109,-3.67188
-4.6280e-02,-363.594,207.383,164.062,-3.61563
-4.6270e-02,-362.852,209.141,161.992,-3.58281
-4.6260e-02,-362.891,211.328,160.664,-3.57656
-4.6250e-02,-363.242,212.188,160.625,-3.55625
-4.6240e-02,-364.102,211.875,161.875,-3.56719
-4.6230e-02,-364.609,213.164,161.562,-3.5875
-4.6220e-02,-364.922,213.906,160.273,-3.58125
-4.6210e-02,-364.883,215.195,158.633,-3.5875
-4.6200e-02,-364.844,216.367,156.719,-3.57031
-4.6190e-02,-365.234,219.375,156.797,-3.56406
-4.6180e-02,-365.117,220.156,154.219,-3.56406
-4.6170e-02,-364.18,221.172,150.664,-3.55
-4.6160e-02,-363.477,222.266,148.516,-3.52969
-4.6150e-02,-363.242,222.734,150.586,-3.50938
-4.6140e-02,-362.969,220.898,150.781,-3.50938
-4.6130e-02,-363.32,221.25,150.273,-3.50625
-4.6120e-02,-364.414,223.828,149.883,-3.50313
-4.6110e-02,-365.977,227.227,149.414,-3.51406
-4.6100e-02,-367.148,229.258,147.227,-3.52031
-4.6090e-02,-367.5,231.797,144.336,-3.54219
-4.6080e-02,-368.438,235,143.164,-3.52969
-4.6070e-02,-369.727,236.25,144.844,-3.54063
-4.6060e-02,-370.742,236.914,146.562,-3.56094
-4.6050e-02,-370.312,237.422,143.945,-3.53906
-4.6040e-02,-369.531,239.805,142.07,-3.50938
-4.6030e-02,-369.102,240.156,140.352,-3.48594
-4.6020e-02,-369.219,240.781,140.742,-3.48438
-4.6010e-02,-369.961,241.68,140,-3.50313
-4.6000e-02,-370.039,242.383,138.164,-3.54063
-4.5990e-02,-369.648,243.789,136.328,-3.52188
-4.5980e-02,-369.609,245.078,133.867,-3.5
-4.5970e-02,-369.648,247.969,133.711,-3.49531
-4.5960e-02,-369.219,248.203,130.938,-3.46563
-4.5950e-02,-367.812,249.062,127.227,-3.43281
-4.5940e-02,-366.953,250.586,125.234,-3.40469
-4.5930e-02,-366.719,250.273,127.031,-3.36406
-4.5920e-02,-366.289,248.164,127.539,-3.37969
-4.5910e-02,-366.406,248.008,127.188,-3.40313
-4.5900e-02,-367.148,249.492,126.914,-3.39844
-4.5890e-02,-368.359,252.266,127.07,-3.41094
-4.5880e-02,-369.336,253.594,125.156,-3.39844
-4.5870e-02,-369.531,255.273,122.969,-3.38906
-4.5860e-02,-370.039,257.695,122.109,-3.35938
-4.5850e-02,-371.055,258.242,124.492,-3.37969
-4.5840e-02,-372.031,257.695,125.664,-3.39375
-4.5830e-02,-371.211,258.203,123.711,-3.37656
-4.5820e-02,-370.039,259.766,122.578,-3.34844
-4.5810e-02,-369.609,259.648,120.547,-3.31875
-4.5800e-02,-369.023,260.156,120.898,-3.30313
-4.5790e-02,-367.617,260.469,117.227,-3.27031
-4.5780e-02,-366.133,261.797,114.414,-3.26094
-4.5770e-02,-365.43,262.031,112.5,-3.25313
-4.5760e-02,-364.961,261.836,112.891,-3.26406
-4.5750e-02,-364.922,262.305,111.836,-3.28906
-4.5740e-02,-364.609,262.188,110.195,-3.27344
-4.5730e-02,-363.711,263.203,108.633,-3.25938
-4.5720e-02,-362.812,263.711,106.055,-3.25313
-4.5710e-02,-362.539,265.43,105.703,-3.24844
-4.5700e-02,-361.641,265.117,103.359,-3.20938
-4.5690e-02,-359.219,265.742,100.625,-3.16719
-4.5680e-02,-357.07,265.977,96.9922,-3.15313
-4.5670e-02,-356.133,267.461,94.6875,-3.1
-4.5660e-02,-355.742,269.609,93.3203,-3.09688
-4.5650e-02,-356.367,269.727,93.6328,-3.12031
-4.5640e-02,-356.992,269.297,95.625,-3.15
-4.5630e-02,-357.5,269.375,96.3672,-3.175
-4.5620e-02,-358.203,268.867,95.8984,-3.18125
-4.5610e-02,-358.008,269.102,95.4688,-3.15938
-4.5600e-02,-357.93,269.141,94.5312,-3.17344
-4.5590e-02,-358.711,270.469,95.7812,-3.15156
-4.5580e-02,-358.438,270.117,95.4297,-3.12969
-4.5570e-02,-357.227,269.844,93.8281,-3.13281
-4.5560e-02,-356.25,269.727,92.1094,-3.13906
-4.5550e-02,-355.859,271.367,91.7969,-3.12344
-4.5540e-02,-356.055,272.344,90.3125,-3.11406
-4.5530e-02,-356.68,274.648,89.0625,-3.125
-4.5520e-02,-356.875,275.469,86.4844,-3.11094
-4.5510e-02,-356.133,276.992,83.5156,-3.1
-4.5500e-02,-355.469,278.594,80.1562,-3.09063
-4.5490e-02,-355.312,281.484,79.1016,-3.04531
-4.5480e-02,-354.648,282.148,76.4453,-3.05781
-4.5470e-02,-353.477,283.008,72.2266,-2.99531
-4.5460e-02,-352.07,284.297,69.1797,-2.97656
-4.5450e-02,-351.562,284.141,70.2344,-2.96719
-4.5440e-02,-351.211,281.836,72.2266,-2.93438
-4.5430e-02,-350.938,281.211,72.6562,-2.92031
-4.5420e-02,-351.797,281.836,72.7344,-2.93594
-4.5410e-02,-353.32,283.516,73.9844,-2.97031
-4.5400e-02,-354.18,283.789,73.3594,-2.97656
-4.5390e-02,-354.531,284.883,72.7734,-2.97031
-4.5380e-02,-354.844,285.703,71.4844,-2.96719
-4.5370e-02,-355.469,288.125,72.5,-2.9625
-4.5360e-02,-355.859,287.695,71.4844,-2.97031
-4.5350e-02,-355.195,288.281,69.8828,-2.975
-4.5340e-02,-354.492,288.672,67.7344,-2.96875
-4.5330e-02,-354.375,290.547,68.0469,-2.95312
-4.5320e-02,-353.594,289.57,66.5234,-2.94688
-4.5310e-02,-351.992,289.297,64.1016,-2.93906
-4.5300e-02,-350.391,289.18,61.1719,-2.90469
-4.5290e-02,-349.258,290.273,60.5469,-2.89062
-4.5280e-02,-348.984,291.68,58.4375,-2.87188
-4.5270e-02,-349.219,293.711,56.7188,-2.86563
-4.5260e-02,-348.672,294.57,53.6719,-2.825
-4.5250e-02,-347.383,296.055,50.3125,-2.81875
-4.5240e-02,-345.938,297.031,46.3281,-2.79219
-4.5230e-02,-345.664,299.805,44.0234,-2.78281
-4.5220e-02,-346.641,302.93,42.6562,-2.75
-4.5210e-02,-347.891,304.102,42.7344,-2.76406
-4.5200e-02,-349.023,304.883,44.6484,-2.78594
-4.5190e-02,-348.984,305.508,42.0703,-2.76406
-4.5180e-02,-347.812,307.656,41.4062,-2.74063
-4.5170e-02,-348.164,307.227,39.5312,-2.71719
-4.5160e-02,-348.281,308.125,40.7812,-2.74219
-4.5150e-02,-347.305,308.242,37.9297,-2.72344
-4.5140e-02,-346.094,310.273,36.6406,-2.73125
-4.5130e-02,-345.508,309.375,34.2188,-2.72188
-4.5120e-02,-344.727,310.156,35.2734,-2.74219
-4.5110e-02,-343.398,309.57,32.6953,-2.71094
-4.5100e-02,-341.719,310.781,30.625,-2.68125
-4.5090e-02,-341.016,310.078,28.9453,-2.68125
-4.5080e-02,-340.156,310.391,30,-2.68906
-4.5070e-02,-338.633,309.883,27.4609,-2.6625
-4.5060e-02,-336.367,310.312,25.5078,-2.65156
-4.5050e-02,-335.664,309.258,24.3359,-2.66094
-4.5040e-02,-334.727,309.219,25.8984,-2.65156
-4.5030e-02,-332.852,308.555,23.7891,-2.62188
-4.5020e-02,-330.938,308.594,21.9922,-2.59219
-4.5010e-02,-330.234,307.539,20.8594,-2.57812
-4.5000e-02,-329.219,306.914,22.3047,-2.55313
-4.4990e-02,-327.5,306.055,20.9766,-2.5375
-4.4980e-02,-325,305.547,18.7109,-2.525
-4.4970e-02,-323.906,307.031,14.7656,-2.5125
-4.4960e-02,-324.141,309.922,11.8359,-2.50625
-4.4950e-02,-325.117,313.984,10,-2.475
-4.4940e-02,-325.859,315.898,6.79688,-2.46875
-4.4930e-02,-325.82,318.75,3.32031,-2.45781
-4.4920e-02,-325.859,321.992,0.46875,-2.45469
-4.4910e-02,-327.07,322.773,1.17188,-2.45625
-4.4900e-02,-327.891,323.242,4.0625,-2.44219
-4.4890e-02,-327.188,322.344,1.95312,-2.44688
-4.4880e-02,-326.211,323.633,1.52344,-2.42031
-4.4870e-02,-325.664,322.5,0.78125,-2.39375
-4.4860e-02,-325.469,322.188,2.65625,-2.40313
-4.4850e-02,-324.258,321.055,1.28906,-2.35625
-4.4840e-02,-322.07,321.406,0.117188,-2.34219
-4.4830e-02,-321.211,322.891,-2.65625,-2.35938
-4.4820e-02,-320.195,322.891,-5.50781,-2.36563
-4.4810e-02,-318.281,323.75,-8.28125,-2.35625
-4.4800e-02,-316.133,324.609,-11.8359,-2.325
-4.4790e-02,-315.625,326.992,-13.9062,-2.30781
-4.4780e-02,-315.938,329.375,-14.9609,-2.29844
-4.4770e-02,-317.5,329.414,-14.0234,-2.30156
-4.4760e-02,-318.984,329.727,-11.3672,-2.33594
-4.4750e-02,-318.828,329.453,-12.1875,-2.35469
-4.4740e-02,-318.125,329.844,-12.6953,-2.34219
-4.4730e-02,-318.008,331.445,-14.7656,-2.33281
-4.4720e-02,-317.344,332.227,-17.1094,-2.32188
-4.4710e-02,-316.133,333.477,-19.5312,-2.29063
-4.4700e-02,-315.352,334.57,-22.6172,-2.23594
-4.4690e-02,-314.922,337.266,-22.8906,-2.23594
-4.4680e-02,-314.688,336.719,-24.2969,-2.22344
-4.4670e-02,-313.047,336.367,-26.4062,-2.23125
-4.4660e-02,-310.938,336.719,-29.0234,-2.19531
-4.4650e-02,-310,338.242,-28.6719,-2.16406
-4.4640e-02,-308.75,336.602,-29.375,-2.15156
-4.4630e-02,-306.25,335.547,-31.1719,-2.16094
-4.4620e-02,-303.867,334.336,-33.6328,-2.15
-4.4610e-02,-302.461,334.961,-33.7891,-2.13281
-4.4600e-02,-302.109,335.039,-34.2188,-2.12656
-4.4590e-02,-302.422,336.445,-34.2188,-2.15
-4.4580e-02,-302.5,335.703,-34.7266,-2.15156
-4.4570e-02,-301.602,335.547,-35.625,-2.14219
-4.4560e-02,-300.859,335.703,-37.3047,-2.14844
-4.4550e-02,-300.625,337.188,-36.1328,-2.14219
-4.4540e-02,-300.117,335.234,-36.0938,-2.12969
-4.4530e-02,-299.062,334.492,-36.6016,-2.12656
-4.4520e-02,-297.383,333.516,-37.9688,-2.14062
-4.4510e-02,-297.109,333.516,-37.6562,-2.12656
-4.4500e-02,-297.109,334.961,-38.2812,-2.12344
-4.4490e-02,-296.172,336.25,-39.4922,-2.09531
-4.4480e-02,-294.531,336.758,-42.5781,-2.06563
-4.4470e-02,-294.102,339.18,-47.0312,-2.05313
-4.4460e-02,-294.609,343.594,-48.9844,-2.0375
-4.4450e-02,-297.148,345.977,-49.1016,-2.04063
-4.4440e-02,-299.531,348.047,-47.1094,-2.05313
-4.4430e-02,-300.898,349.531,-47.8125,-2.06719
-4.4420e-02,-299.766,349.219,-48.5156,-2.04688
-4.4410e-02,-297.031,348.867,-52.2266,-2.05938
-4.4400e-02,-294.766,349.844,-55.7422,-2.03906
-4.4390e-02,-294.102,351.719,-56.4844,-2.01406
-4.4380e-02,-292.852,350.664,-57.7344,-1.99063
-4.4370e-02,-290.781,350.391,-59.6094,-1.96719
-4.4360e-02,-288.281,349.844,-62.3438,-1.93594
-4.4350e-02,-286.914,350.703,-63.0078,-1.91719
-4.4340e-02,-286.68,351.406,-63.9062,-1.90781
-4.4330e-02,-287.539,352.812,-63.5547,-1.90156
-4.4320e-02,-288.32,352.617,-64.0625,-1.91094
-4.4310e-02,-287.617,352.969,-64.9609,-1.89688
-4.4300e-02,-287.227,352.969,-66.6406,-1.88125
-4.4290e-02,-287.539,354.766,-65.2734,-1.87344
-4.4280e-02,-287.812,352.773,-64.6875,-1.87344
-4.4270e-02,-286.719,351.523,-64.9609,-1.88125
-4.4260e-02,-285.703,350.781,-65.5469,-1.85313
-4.4250e-02,-286.055,351.055,-64.8828,-1.86719
-4.4240e-02,-286.289,352.422,-64.8828,-1.88906
-4.4230e-02,-285.938,353.672,-65.625,-1.87344
-4.4220e-02,-285.391,353.984,-67.8516,-1.86406
-4.4210e-02,-285.039,356.758,-70.1953,-1.86094
-4.4200e-02,-284.844,357.852,-72.4609,-1.85781
-4.4190e-02,-283.984,359.414,-75,-1.84844
-4.4180e-02,-283.008,360.938,-78.3594,-1.84375
-4.4170e-02,-283.047,363.906,-78.5156,-1.82969
-4.4160e-02,-282.93,363.203,-78.9453,-1.84063
-4.4150e-02,-281.484,362.656,-80.8203,-1.83281
-4.4140e-02,-280.391,362.773,-83.0078,-1.81563
-4.4130e-02,-280.078,364.062,-82.2656,-1.81406
-4.4120e-02,-279.609,362.461,-81.9141,-1.80156
-4.4110e-02,-277.812,360.82,-82.3438,-1.78594
-4.4100e-02,-276.133,359.57,-83.6328,-1.78125
-4.4090e-02,-275.781,359.219,-83.2031,-1.78125
-4.4080e-02,-275.508,360.234,-83.5156,-1.78125
-4.4070e-02,-274.57,361.445,-84.1797,-1.75781
-4.4060e-02,-273.438,361.289,-86.6016,-1.7375
-4.4050e-02,-272.695,363.555,-88.4375,-1.71719
-4.4040e-02,-272.188,364.062,-90.4688,-1.69375
-4.4030e-02,-270.703,365.391,-93.0859,-1.70312
-4.4020e-02,-269.57,366.367,-96.2891,-1.69844
-4.4010e-02,-269.531,368.828,-96.3672,-1.67813
-4.4000e-02,-269.453,367.617,-96.6797,-1.66563
-4.3990e-02,-268.164,367.07,-98.0469,-1.64375
-4.3980e-02,-266.602,366.758,-100.078,-1.64219
-4.3970e-02,-266.406,367.617,-100.078,-1.6375
-4.3960e-02,-266.25,369.727,-101.289,-1.625
-4.3950e-02,-265.742,371.133,-103.008,-1.60156
-4.3940e-02,-265.117,372.5,-105.391,-1.59375
-4.3930e-02,-265.352,372.266,-106.172,-1.61719
-4.3920e-02,-265.938,372.695,-104.023,-1.61563
-4.3910e-02,-265.586,372.5,-102.969,-1.61563
-4.3900e-02,-264.102,368.867,-103.32,-1.60469
-4.3890e-02,-261.211,367.227,-105.898,-1.59688
-4.3880e-02,-258.477,365.938,-108.086,-1.575
-4.3870e-02,-257.07,366.562,-108.633,-1.56094
-4.3860e-02,-256.25,368.086,-109.844,-1.53906
-4.3850e-02,-255,369.375,-110.781,-1.53906
-4.3840e-02,-253.789,369.258,-113.242,-1.49531
-4.3830e-02,-252.812,371.758,-116.094,-1.47969
-4.3820e-02,-252.93,371.875,-118.281,-1.46563
-4.3810e-02,-251.289,373.125,-120.82,-1.46094
-4.3800e-02,-250.195,374.414,-123.945,-1.44375
-4.3790e-02,-250.273,376.68,-124.062,-1.44375
-4.3780e-02,-250.43,375.273,-124.336,-1.42656
-4.3770e-02,-249.023,375.156,-125.117,-1.41719
-4.3760e-02,-247.617,374.805,-126.797,-1.41875
-4.3750e-02,-247.461,375.859,-126.562,-1.43125
-4.3740e-02,-248.008,377.383,-127.227,-1.47969
-4.3730e-02,-247.773,378.867,-127.344,-1.44375
-4.3720e-02,-245.898,376.367,-128.711,-1.39062
-4.3710e-02,-243.125,375.977,-132.109,-1.37656
-4.3700e-02,-240.195,375.82,-135.898,-1.36406
-4.3690e-02,-238.906,377.344,-135.898,-1.35625
-4.3680e-02,-237.617,375.273,-135.742,-1.34219
-4.3670e-02,-235.547,373.359,-136.914,-1.33438
-4.3660e-02,-233.281,371.68,-138.672,-1.31406
-4.3650e-02,-231.953,371.367,-138.438,-1.2625
-4.3640e-02,-231.055,371.992,-139.531,-1.25938
-4.3630e-02,-230.078,372.969,-139.688,-1.26719
-4.3620e-02,-229.102,372.109,-141.406,-1.22969
-4.3610e-02,-228.711,373.711,-143.359,-1.21406
-4.3600e-02,-229.062,373.633,-144.219,-1.21875
-4.3590e-02,-228.32,374.258,-146.016,-1.22656
-4.3580e-02,-227.188,374.805,-148.047,-1.21563
-4.3570e-02,-227.539,377.109,-147.734,-1.21406
-4.3560e-02,-227.812,376.992,-148.672,-1.22031
-4.3550e-02,-224.805,376.836,-149.844,-1.19219
-4.3540e-02,-220.586,373.398,-153.359,-1.15469
-4.3530e-02,-216.797,373.594,-155.977,-1.12344
-4.3520e-02,-215.352,373.477,-157.578,-1.12344
-4.3510e-02,-214.883,374.375,-158.242,-1.10313
-4.3500e-02,-214.883,373.242,-158.203,-1.1125
-4.3490e-02,-213.516,372.5,-158.945,-1.09219
-4.3480e-02,-212.148,371.914,-160.43,-1.09531
-4.3470e-02,-212.109,372.695,-160.156,-1.06406
-4.3460e-02,-212.852,374.102,-160.273,-1.0625
-4.3450e-02,-213.203,375.781,-159.648,-1.05
-4.3440e-02,-212.461,373.477,-159.844,-1.02969
-4.3430e-02,-210,372.734,-162.5,-1.025
-4.3420e-02,-208.047,372.578,-165.273,-1.0375
-4.3410e-02,-207.266,373.711,-165.82,-1.01406
-4.3400e-02,-207.344,375.43,-167.422,-1.01719
-4.3390e-02,-207.383,377.188,-168.789,-1.00313
-4.3380e-02,-207.188,378.906,-170.391,-0.996875
-4.3370e-02,-208.203,378.711,-170.43,-1.00469
-4.3360e-02,-209.805,379.258,-167.188,-1.02188
-4.3350e-02,-210.664,378.828,-166.055,-1.04375
-4.3340e-02,-210.586,375.977,-164.414,-1.04219
-4.3330e-02,-208.555,374.258,-165.742,-1.03594
-4.3320e-02,-206.836,373.281,-168.867,-1.00781
-4.3310e-02,-204.648,375.625,-168.477,-1.00313
-4.3300e-02,-203.594,373.594,-168.711,-0.979688
-4.3290e-02,-203.125,373.789,-170.898,-0.965625
-4.3280e-02,-203.672,375.977,-173.555,-0.995313
-4.3270e-02,-203.672,379.531,-173.75,-0.960938
-4.3260e-02,-203.32,378.242,-174.844,-0.925
-4.3250e-02,-201.406,379.023,-178.672,-0.90625
-4.3240e-02,-199.531,379.727,-182.305,-0.890625
-4.3230e-02,-198.906,382.461,-182.539,-0.829688
-4.3220e-02,-199.18,381.133,-182.266,-0.832813
-4.3210e-02,-198.008,380.352,-183.125,-0.820312
-4.3200e-02,-196.68,379.961,-186.055,-0.790625
-4.3190e-02,-195.391,382.5,-185.742,-0.782813
-4.3180e-02,-194.492,381.211,-185.547,-0.779688
-4.3170e-02,-194.648,381.289,-187.656,-0.7625
-4.3160e-02,-194.961,384.844,-190,-0.775
-4.3150e-02,-195.43,388.477,-190.312,-0.778125
-4.3140e-02,-195.781,387.266,-191.484,-0.771875
-4.3130e-02,-193.867,388.047,-194.805,-0.725
-4.3120e-02,-192.148,389.688,-198.242,-0.7
-4.3110e-02,-192.07,392.07,-198.516,-0.675
-4.3100e-02,-192.266,391.484,-199.492,-0.648438
-4.3090e-02,-190.352,392.734,-200.508,-0.632812
-4.3080e-02,-186.797,390.156,-203.359,-0.6125
-4.3070e-02,-183.984,390.625,-204.727,-0.628125
-4.3060e-02,-182.617,387.617,-204.648,-0.595313
-4.3050e-02,-179.883,385.195,-205.508,-0.610938
-4.3040e-02,-176.914,383.125,-206.875,-0.595313
-4.3030e-02,-175.312,383.086,-206.016,-0.579688
-4.3020e-02,-175.195,382.617,-206.406,-0.590625
-4.3010e-02,-174.492,383.008,-205.156,-0.607813
-4.3000e-02,-173.594,378.516,-204.297,-0.58125
-4.2990e-02,-170.664,376.992,-205.742,-0.540625
-4.2980e-02,-167.578,375.352,-209.141,-0.515625
-4.2970e-02,-164.844,377.031,-209.141,-0.498438
-4.2960e-02,-163.477,374.258,-209.297,-0.509375
-4.2950e-02,-162.305,373.398,-210.586,-0.446875
-4.2940e-02,-161.797,375.469,-213.203,-0.428125
-4.2930e-02,-161.875,378.477,-212.734,-0.442188
-4.2920e-02,-161.992,376.836,-212.852,-0.415625
-4.2910e-02,-160.156,376.484,-215.781,-0.421875
-4.2900e-02,-158.359,376.68,-218.672,-0.403125
-4.2890e-02,-158.203,378.984,-218.203,-0.409375
-4.2880e-02,-158.789,377.695,-218.594,-0.401563
-4.2870e-02,-156.602,378.203,-218.789,-0.36875
-4.2860e-02,-153.672,375.078,-220.43,-0.353125
-4.2850e-02,-151.211,374.961,-221.758,-0.334375
-4.2840e-02,-150.391,374.961,-223.438,-0.332813
-4.2830e-02,-150.508,376.875,-223.633,-0.403125
-4.2820e-02,-150.859,376.367,-223.828,-0.38125
-4.2810e-02,-151.758,378.359,-224.766,-0.371875
-4.2800e-02,-153.242,379.961,-226.445,-0.371875
-4.2790e-02,-151.992,382.109,-227.422,-0.321875
-4.2780e-02,-149.727,380.703,-230.391,-0.298438
-4.2770e-02,-148.047,382.344,-231.758,-0.265625
-4.2760e-02,-147.734,381.328,-231.602,-0.2375
-4.2750e-02,-146.68,380.391,-232.422,-0.232813
-4.2740e-02,-144.648,380.078,-235.586,-0.235938
-4.2730e-02,-143.125,382.5,-234.805,-0.225
-4.2720e-02,-142.734,377.656,-233.281,-0.203125
-4.2710e-02,-139.492,374.805,-235,-0.217188
-4.2700e-02,-136.094,372.93,-236.367,-0.196875
-4.2690e-02,-134.492,372.5,-235.508,-0.182813
-4.2680e-02,-134.531,371.484,-236.055,-0.175
-4.2670e-02,-134.492,372.188,-235.391,-0.175
-4.2660e-02,-134.297,372.617,-236.25,-0.175
-4.2650e-02,-132.891,373.984,-237.266,-0.154688
-4.2640e-02,-131.797,371.836,-238.242,-0.114063
-4.2630e-02,-128.789,371.758,-241.523,-0.10625
-4.2620e-02,-126.055,371.602,-244.766,-0.115625
-4.2610e-02,-124.844,373.594,-244.766,-0.117188
-4.2600e-02,-125.195,371.758,-245.156,-0.1375
-4.2590e-02,-122.578,372.266,-246.094,-0.167188
-4.2580e-02,-119.57,368.594,-247.539,-0.107813
-4.2570e-02,-116.836,367.969,-248.711,-0.075
-4.2560e-02,-116.133,367.617,-250.43,-0.0609375
-4.2550e-02,-115.898,369.844,-250.508,-0.0125
-4.2540e-02,-116.484,370.039,-250.391,0.003125
-4.2530e-02,-117.773,371.914,-251.016,0
-4.2520e-02,-119.492,373.438,-252.109,-0.025
-4.2510e-02,-118.945,374.922,-253.086,-0.0125
-4.2500e-02,-117.07,373.711,-255.195,0.0078125
-4.2490e-02,-116.25,375.664,-256.523,0.015625
-4.2480e-02,-116.406,374.648,-257.383,0.0203125
-4.2470e-02,-114.375,376.094,-258.281,0.0375
-4.2460e-02,-111.328,373.359,-260.078,0.071875
-4.2450e-02,-108.945,373.633,-261.641,0.110937
-4.2440e-02,-108.477,374.375,-264.023,0.110937
-4.2430e-02,-108.242,376.719,-263.516,0.115625
-4.2420e-02,-108.438,374.102,-262.734,0.139062
-4.2410e-02,-106.406,373.203,-265.195,0.176562
-4.2400e-02,-103.945,372.891,-268.984,0.196875
-4.2390e-02,-102.266,375.586,-268.945,0.2125
-4.2380e-02,-101.562,371.68,-267.5,0.246875
-4.2370e-02,-98.3984,369.258,-269.375,0.28125
-4.2360e-02,-95.2344,367.5,-271.406,0.275
-4.2350e-02,-93.9844,367.109,-270.82,0.267187
-4.2340e-02,-94.4531,366.406,-271.055,0.239062
-4.2330e-02,-94.8047,368.281,-268.867,0.246875
-4.2320e-02,-96.4844,364.688,-265.977,0.254687
-4.2310e-02,-95.3125,362.812,-266.406,0.221875
-4.2300e-02,-94.0625,361.953,-268.477,0.221875
-4.2290e-02,-93.2422,363.906,-267.695,0.239062
-4.2280e-02,-92.6172,363.516,-268.086,0.2375
-4.2270e-02,-91.5234,363.828,-268.594,0.259375
-4.2260e-02,-90.8594,360.898,-268.086,0.271875
