Laboratory/3rd_day/MPC_step2_Step_BigPic_tek0009.csv

Model,DPO3014
Firmware Version,2.40

Waveform Type,ANALOG,,,
Point Format,Y,,,
Horizontal Units,s,,,
Horizontal Scale,0.01,,,
Horizontal Delay,0,,,
Sample Interval,1e-05,,,
Record Length,10000,,,
Gating,0.0% to 100.0%,,,
Probe Attenuation,500,,,
Vertical Units,V,,,
Vertical Offset,0,,,
Vertical Scale,250,,,
Vertical Position,1.42,,,
,,,,
,,,,
,,,,
Label,,,,
TIME,CH1,CH2,CH3,CH4
-5.0000e-02,-165.547,-220.781,383.164,-3.63594
-4.9990e-02,-166.562,-218.477,381.836,-3.64688
-4.9980e-02,-167.461,-216.68,380.625,-3.64219
-4.9970e-02,-168.945,-214.805,381.172,-3.6375
-4.9960e-02,-169.141,-214.766,381.289,-3.62187
-4.9950e-02,-168.789,-215.117,382.656,-3.64375
-4.9940e-02,-167.969,-216.094,381.289,-3.65781
-4.9930e-02,-166.328,-217.227,379.648,-3.63281
-4.9920e-02,-165.312,-217.383,379.805,-3.60781
-4.9910e-02,-167.305,-215,381.68,-3.63594
-4.9900e-02,-169.375,-214.062,380.742,-3.61094
-4.9890e-02,-169.727,-214.766,381.289,-3.60781
-4.9880e-02,-170.703,-215.352,384.258,-3.64531
-4.9870e-02,-173.555,-215.82,387.812,-3.69219
-4.9860e-02,-175.977,-216.289,390.195,-3.74219
-4.9850e-02,-175.43,-218.203,391.055,-3.74844
-4.9840e-02,-173.789,-218.164,390.352,-3.71094
-4.9830e-02,-172.93,-216.836,387.344,-3.69219
-4.9820e-02,-174.062,-213.945,384.766,-3.68125
-4.9810e-02,-177.344,-208.359,384.531,-3.70156
-4.9800e-02,-180.938,-204.609,382.148,-3.725
-4.9790e-02,-183.008,-201.758,381.523,-3.725
-4.9780e-02,-185.156,-201.016,382.227,-3.7375
-4.9770e-02,-188.633,-199.219,385.195,-3.78594
-4.9760e-02,-191.523,-198.125,386.797,-3.8
-4.9750e-02,-191.25,-199.023,386.719,-3.81406
-4.9740e-02,-190.195,-198.789,387.422,-3.80313
-4.9730e-02,-190.352,-197.891,387.5,-3.80781
-4.9720e-02,-190.547,-196.836,384.336,-3.77188
-4.9710e-02,-189.414,-195.898,381.602,-3.74219
-4.9700e-02,-188.828,-195.898,381.133,-3.74687
-4.9690e-02,-190.781,-193.438,383.359,-3.7375
-4.9680e-02,-192.656,-192.891,382.656,-3.76562
-4.9670e-02,-193.086,-193.008,383.594,-3.775
-4.9660e-02,-193.516,-193.438,383.867,-3.78281
-4.9650e-02,-195.312,-190.938,384.18,-3.77969
-4.9640e-02,-197.695,-188.516,383.047,-3.81406
-4.9630e-02,-199.336,-186.992,383.672,-3.82969
-4.9620e-02,-200.781,-187.461,384.453,-3.81563
-4.9610e-02,-203.438,-186.523,388.164,-3.85156
-4.9600e-02,-205.195,-186.758,389.961,-3.88906
-4.9590e-02,-204.375,-188.203,390.469,-3.90156
-4.9580e-02,-201.992,-188.32,388.672,-3.88594
-4.9570e-02,-200.938,-186.641,384.727,-3.87031
-4.9560e-02,-200,-184.57,381.016,-3.83594
-4.9550e-02,-199.336,-183.516,378.711,-3.79375
-4.9540e-02,-198.516,-183.281,378.711,-3.80625
-4.9530e-02,-200,-182.188,379.102,-3.81719
-4.9520e-02,-202.266,-180.82,380.078,-3.82656
-4.9510e-02,-205.547,-177.773,382.383,-3.86406
-4.9500e-02,-208.555,-175.312,380.82,-3.86719
-4.9490e-02,-210.625,-172.773,379.297,-3.89531
-4.9480e-02,-213.047,-170.625,380.234,-3.92188
-4.9470e-02,-217.578,-167.305,383.242,-3.93281
-4.9460e-02,-220.938,-164.922,384.023,-3.97969
-4.9450e-02,-220.859,-164.648,382.852,-3.94687
-4.9440e-02,-219.57,-163.438,383.203,-3.9375
-4.9430e-02,-220.156,-162.773,382.109,-3.96719
-4.9420e-02,-220.391,-163.125,381.133,-3.9375
-4.9410e-02,-219.336,-164.219,381.719,-3.91875
-4.9400e-02,-219.141,-165,382.305,-3.88906
-4.9390e-02,-220.82,-163.359,382.5,-3.87656
-4.9380e-02,-223.906,-160.352,381.211,-3.88281
-4.9370e-02,-228.047,-155.703,381.992,-3.91875
-4.9360e-02,-231.641,-151.992,381.875,-3.94375
-4.9350e-02,-231.992,-149.648,380.352,-3.9375
-4.9340e-02,-230.312,-148.75,377.852,-3.91562
-4.9330e-02,-229.609,-146.758,376.562,-3.91875
-4.9320e-02,-229.414,-146.68,374.531,-3.90938
-4.9310e-02,-228.242,-148.516,373.594,-3.90938
-4.9300e-02,-227.539,-150,376.25,-3.89219
-4.9290e-02,-229.062,-150.156,379.727,-3.89688
-4.9280e-02,-229.766,-150.938,378.633,-3.91719
-4.9270e-02,-229.297,-151.133,378.125,-3.95
-4.9260e-02,-229.297,-152.148,377.5,-3.95312
-4.9250e-02,-230.898,-149.883,381.719,-3.97031
-4.9240e-02,-232.148,-149.023,379.375,-3.95938
-4.9230e-02,-232.148,-147.422,377.383,-3.97812
-4.9220e-02,-232.109,-147.07,375.312,-3.97031
-4.9210e-02,-233.984,-143.281,377.617,-3.96406
-4.9200e-02,-236.211,-142.07,376.562,-3.96719
-4.9190e-02,-236.406,-141.719,376.992,-3.94687
-4.9180e-02,-236.055,-142.891,375.625,-3.95
-4.9170e-02,-236.758,-139.688,376.719,-3.97969
-4.9160e-02,-238.32,-137.852,373.945,-3.95625
-4.9150e-02,-239.297,-135.898,373.945,-3.97188
-4.9140e-02,-239.844,-136.523,374.453,-3.98594
-4.9130e-02,-241.016,-134.805,377.422,-4.02656
-4.9120e-02,-242.383,-134.453,375.312,-4.02812
-4.9110e-02,-241.914,-133.516,373.75,-4.00625
-4.9100e-02,-242.031,-133.711,372.227,-3.97969
-4.9090e-02,-244.258,-130.938,374.844,-4.01875
-4.9080e-02,-247.461,-129.102,376.016,-4.02031
-4.9070e-02,-251.25,-125.859,378.281,-4.04844
-4.9060e-02,-254.336,-123.359,376.133,-4.05313
-4.9050e-02,-256.328,-120.586,374.453,-4.06094
-4.9040e-02,-258.867,-118.359,374.492,-4.08594
-4.9030e-02,-263.164,-114.492,377.617,-4.11719
-4.9020e-02,-266.133,-112.734,377.969,-4.11406
-4.9010e-02,-265.625,-112.852,376.719,-4.12656
-4.9000e-02,-263.906,-112.344,375.898,-4.08594
-4.8990e-02,-262.969,-111.875,374.883,-4.08594
-4.8980e-02,-261.797,-112.734,373.672,-4.075
-4.8970e-02,-260.312,-115,373.945,-4.08906
-4.8960e-02,-258.789,-116.797,374.297,-4.07344
-4.8950e-02,-259.414,-116.523,373.945,-4.03438
-4.8940e-02,-260.938,-114.258,373.75,-4.04062
-4.8930e-02,-264.219,-109.727,375.469,-4.06563
-4.8920e-02,-266.562,-107.148,372.422,-4.08125
-4.8910e-02,-267.5,-104.18,370.039,-4.09062
-4.8900e-02,-269.023,-101.953,368.516,-4.09062
-4.8890e-02,-272.383,-98.2031,370.117,-4.09688
-4.8880e-02,-274.258,-96.25,369.688,-4.06563
-4.8870e-02,-272.93,-96.4062,367.305,-4.0625
-4.8860e-02,-270.195,-95.8594,365.156,-4.06094
-4.8850e-02,-268.32,-96.3672,362.656,-4.04531
-4.8840e-02,-267.656,-95.9766,361.992,-4.05156
-4.8830e-02,-268.672,-95.1562,362.5,-4.05156
-4.8820e-02,-270.742,-94.1016,363.281,-4.07656
-4.8810e-02,-273.633,-91.6406,366.445,-4.09062
-4.8800e-02,-276.133,-91.0156,365.117,-4.13125
-4.8790e-02,-277.539,-89.7266,364.297,-4.14219
-4.8780e-02,-279.57,-89.0625,364.961,-4.15625
-4.8770e-02,-282.969,-86.6797,369.258,-4.16562
-4.8760e-02,-285.078,-86.1328,370.586,-4.19531
-4.8750e-02,-283.906,-87.8516,369.844,-4.20625
-4.8740e-02,-281.445,-88.7109,370.195,-4.20312
-4.8730e-02,-279.922,-90.1953,369.727,-4.175
-4.8720e-02,-279.102,-90.7422,368.047,-4.175
-4.8710e-02,-279.258,-88.5156,366.172,-4.18437
-4.8700e-02,-281.328,-85.2344,364.297,-4.18437
-4.8690e-02,-285.273,-80.1953,364.922,-4.20625
-4.8680e-02,-288.398,-76.9531,364.219,-4.24531
-4.8670e-02,-290,-75.1953,364.922,-4.25937
-4.8660e-02,-291.172,-74.8828,364.023,-4.3
-4.8650e-02,-293.711,-71.9141,364.805,-4.33281
-4.8640e-02,-295.82,-69.375,362.266,-4.31094
-4.8630e-02,-297.188,-66.2109,362.93,-4.28125
-4.8620e-02,-298.32,-65.4688,361.328,-4.24687
-4.8610e-02,-299.844,-61.875,360.82,-4.25156
-4.8600e-02,-301.953,-58.8672,358.945,-4.26406
-4.8590e-02,-303.008,-57.2656,358.672,-4.29844
-4.8580e-02,-303.477,-57.7344,358.32,-4.28438
-4.8570e-02,-305,-57.7344,360.703,-4.29219
-4.8560e-02,-305.508,-58.6328,361.992,-4.27812
-4.8550e-02,-302.891,-61.0547,361.914,-4.25781
-4.8540e-02,-298.125,-62.9688,360.312,-4.19687
-4.8530e-02,-294.023,-63.4766,355.898,-4.17188
-4.8520e-02,-292.148,-62.4219,352.266,-4.12187
-4.8510e-02,-291.992,-60.1562,350.781,-4.13594
-4.8500e-02,-292.539,-58.4766,349.766,-4.14531
-4.8490e-02,-294.531,-56.5625,349.062,-4.11719
-4.8480e-02,-296.953,-54.3359,349.453,-4.11719
-4.8470e-02,-300.508,-51.6406,351.25,-4.18437
-4.8460e-02,-303.945,-50.625,352.109,-4.22031
-4.8450e-02,-306.172,-50.4297,354.727,-4.24531
-4.8440e-02,-307.422,-51.9922,356.211,-4.25313
-4.8430e-02,-310.156,-50.5078,359.414,-4.30781
-4.8420e-02,-312.461,-49.1406,358.672,-4.32187
-4.8410e-02,-313.867,-47.4219,357.969,-4.34531
-4.8400e-02,-315.977,-46.1719,357.891,-4.325
-4.8390e-02,-318.594,-43.9453,360.781,-4.37031
-4.8380e-02,-320.039,-43.5938,360.898,-4.37969
-4.8370e-02,-317.93,-44.4922,360.195,-4.34531
-4.8360e-02,-313.867,-44.8828,357.734,-4.31875
-4.8350e-02,-310.742,-45.0391,351.992,-4.29062
-4.8340e-02,-309.414,-42.0703,349.414,-4.26406
-4.8330e-02,-309.57,-39.8438,347.344,-4.23594
-4.8320e-02,-310.43,-37.4609,345.664,-4.27031
-4.8310e-02,-312.656,-34.7656,345.43,-4.275
-4.8300e-02,-313.867,-33.7891,344.609,-4.27188
-4.8290e-02,-313.867,-33.5547,345.859,-4.26719
-4.8280e-02,-313.867,-35.3125,345.273,-4.29531
-4.8270e-02,-314.766,-34.4531,346.172,-4.31406
-4.8260e-02,-317.422,-32.3047,346.562,-4.32187
-4.8250e-02,-320.664,-28.6328,349.18,-4.32656
-4.8240e-02,-322.969,-27.2656,347.148,-4.36875
-4.8230e-02,-324.102,-25.3516,345.273,-4.36094
-4.8220e-02,-325.977,-23.7109,344.805,-4.32812
-4.8210e-02,-328.594,-20.8984,347.539,-4.34062
-4.8200e-02,-330.273,-20.1172,347.812,-4.325
-4.8190e-02,-328.32,-21.1719,346.836,-4.35312
-4.8180e-02,-324.336,-22.1875,344.102,-4.34062
-4.8170e-02,-321.445,-22.1094,338.633,-4.3
-4.8160e-02,-320.078,-19.375,335.898,-4.25781
-4.8150e-02,-319.883,-17.1875,333.867,-4.23125
-4.8140e-02,-321.094,-15.1953,332.383,-4.22656
-4.8130e-02,-322.773,-12.8906,332.109,-4.20469
-4.8120e-02,-325.312,-10.5469,332.656,-4.2375
-4.8110e-02,-328.828,-8.20312,334.453,-4.24063
-4.8100e-02,-331.445,-6.99219,335.938,-4.3
-4.8090e-02,-331.133,-7.73438,336.25,-4.3125
-4.8080e-02,-328.555,-8.67188,334.961,-4.29844
-4.8070e-02,-326.367,-8.86719,331.289,-4.24063
-4.8060e-02,-326.445,-6.28906,329.492,-4.24375
-4.8050e-02,-327.695,-4.25781,329.102,-4.22969
-4.8040e-02,-329.727,-2.30469,329.219,-4.23281
-4.8030e-02,-332.344,0.703125,331.016,-4.25625
-4.8020e-02,-333.789,1.40625,328.945,-4.26094
-4.8010e-02,-334.219,3.28125,327.344,-4.275
-4.8000e-02,-335.43,4.45312,325.898,-4.25313
-4.7990e-02,-338.047,8.125,329.727,-4.25313
-4.7980e-02,-338.828,8.28125,327.422,-4.26406
-4.7970e-02,-338.555,10.2734,325.312,-4.27344
-4.7960e-02,-338.789,11.0938,322.852,-4.25937
-4.7950e-02,-340.273,14.6094,325.391,-4.2875
-4.7940e-02,-340.352,14.7266,322.578,-4.31094
-4.7930e-02,-338.398,15.9375,319.609,-4.30625
-4.7920e-02,-337.422,16.2891,316.328,-4.275
-4.7910e-02,-337.891,18.8281,317.5,-4.24531
-4.7900e-02,-339.023,19.5703,317.656,-4.22031
-4.7890e-02,-340.547,21.3672,318.984,-4.25625
-4.7880e-02,-340.82,20.8984,316.875,-4.27344
-4.7870e-02,-339.922,21.6016,315.312,-4.25156
-4.7860e-02,-339.805,21.875,313.633,-4.26406
-4.7850e-02,-340.859,24.6094,316.875,-4.27969
-4.7840e-02,-340.664,23.7109,315.117,-4.29062
-4.7830e-02,-339.023,23.7891,312.188,-4.28125
-4.7820e-02,-337.734,23.75,309.766,-4.21875
-4.7810e-02,-338.086,25.5859,311.562,-4.21719
-4.7800e-02,-339.18,25.5078,311.992,-4.22031
-4.7790e-02,-340.273,25.8594,313.516,-4.19844
-4.7780e-02,-341.992,26.4844,313.75,-4.22344
-4.7770e-02,-344.453,29.2969,313.516,-4.25
-4.7760e-02,-347.148,31.9531,313.086,-4.26406
-4.7750e-02,-348.906,33.3203,314.453,-4.27812
-4.7740e-02,-349.531,32.6562,314.219,-4.29375
-4.7730e-02,-350.742,35.0781,315.508,-4.3125
-4.7720e-02,-352.07,35.8594,314.648,-4.32812
-4.7710e-02,-352.578,36.7578,316.094,-4.32969
-4.7700e-02,-352.383,34.6875,315.469,-4.33594
-4.7690e-02,-352.461,36.1719,316.641,-4.33281
-4.7680e-02,-352.266,36.9531,314.922,-4.34531
-4.7670e-02,-351.406,37.9297,311.758,-4.33594
-4.7660e-02,-350.938,38.4766,310.156,-4.27969
-4.7650e-02,-351.133,40.625,311.719,-4.26406
-4.7640e-02,-351.289,40.8203,310.352,-4.25937
-4.7630e-02,-351.953,43.3984,307.539,-4.2875
-4.7620e-02,-353.672,47.9688,306.758,-4.2875
-4.7610e-02,-356.133,52.2656,306.719,-4.28438
-4.7600e-02,-357.734,54.6094,306.289,-4.31094
-4.7590e-02,-356.758,54.8438,304.727,-4.28594
-4.7580e-02,-354.141,53.3984,303.32,-4.27969
-4.7570e-02,-352.305,51.875,302.539,-4.26406
-4.7560e-02,-350.781,50.1953,300.664,-4.225
-4.7550e-02,-349.844,50.5078,298.047,-4.18281
-4.7540e-02,-350.273,53.3984,297.031,-4.16875
-4.7530e-02,-351.719,56.1328,297.93,-4.16406
-4.7520e-02,-353.086,58.125,297.305,-4.19531
-4.7510e-02,-354.961,61.9922,295.625,-4.225
-4.7500e-02,-357.266,65.9375,294.492,-4.23906
-4.7490e-02,-358.75,68.5156,294.805,-4.25
-4.7480e-02,-359.414,68.3594,293.906,-4.275
-4.7470e-02,-360.664,71.25,294.258,-4.27188
-4.7460e-02,-362.305,73.2031,293.633,-4.28438
-4.7450e-02,-362.5,73.7109,294.297,-4.3
-4.7440e-02,-362.031,71.6797,293.555,-4.33281
-4.7430e-02,-362.344,72.5781,294.336,-4.34062
-4.7420e-02,-362.305,72.7734,292.617,-4.29375
-4.7410e-02,-361.25,73.3984,293.906,-4.27188
-4.7400e-02,-359.727,70.1953,292.539,-4.26719
-4.7390e-02,-359.102,70.5859,292.773,-4.23906
-4.7380e-02,-359.219,71.2109,291.367,-4.225
-4.7370e-02,-360.43,73.125,291.914,-4.225
-4.7360e-02,-361.445,75.1562,291.211,-4.25781
-4.7350e-02,-361.328,78.2031,287.07,-4.20469
-4.7340e-02,-360.078,83.3594,283.594,-4.17656
-4.7330e-02,-359.883,87.0703,280.156,-4.16094
-4.7320e-02,-358.945,89.1016,276.758,-4.16094
-4.7310e-02,-357.422,89.6094,274.648,-4.13594
-4.7300e-02,-355.742,87.7734,273.242,-4.10938
-4.7290e-02,-354.805,87.0703,275.703,-4.11094
-4.7280e-02,-354.375,84.4141,275.898,-4.07969
-4.7270e-02,-354.375,84.5703,275.195,-4.07031
-4.7260e-02,-355.547,86.1719,274.492,-4.10625
-4.7250e-02,-357.695,89.1016,276.602,-4.12656
-4.7240e-02,-360.078,90.5469,277.188,-4.15156
-4.7230e-02,-362.969,94.1406,276.328,-4.16875
-4.7220e-02,-365.742,97.8516,276.406,-4.19687
-4.7210e-02,-367.461,100.195,277.461,-4.19219
-4.7200e-02,-368.477,99.4141,277.461,-4.20625
-4.7190e-02,-370.469,101.562,278.789,-4.21875
-4.7180e-02,-371.836,103.438,278.75,-4.24687
-4.7170e-02,-370.898,103.789,278.867,-4.23125
-4.7160e-02,-367.734,101.797,276.367,-4.21094
-4.7150e-02,-365.234,100.898,272.109,-4.17188
-4.7140e-02,-363.906,102.969,269.492,-4.1375
-4.7130e-02,-363.164,104.102,268.008,-4.12187
-4.7120e-02,-362.656,104.688,266.68,-4.10312
-4.7110e-02,-362.852,106.484,263.555,-4.10156
-4.7100e-02,-364.023,110.664,262.07,-4.08594
-4.7090e-02,-365.977,114.102,262.695,-4.09531
-4.7080e-02,-366.641,115,262.031,-4.09531
-4.7070e-02,-366.562,115.547,259.805,-4.11094
-4.7060e-02,-367.227,116.602,258.438,-4.10625
-4.7050e-02,-368.438,118.516,262.539,-4.09688
-4.7040e-02,-368.32,116.406,262.227,-4.10625
-4.7030e-02,-367.266,115.742,260.977,-4.12656
-4.7020e-02,-366.797,114.922,259.961,-4.12344
-4.7010e-02,-366.758,115.781,259.492,-4.12344
-4.7000e-02,-367.305,117.578,259.102,-4.12813
-4.6990e-02,-368.633,119.023,259.844,-4.12969
-4.6980e-02,-369.492,120.352,259.883,-4.13125
-4.6970e-02,-369.727,123.047,256.211,-4.12187
-4.6960e-02,-369.023,127.383,252.93,-4.1
-4.6950e-02,-368.516,129.922,249.023,-4.07031
-4.6940e-02,-369.141,132.812,246.836,-4.075
-4.6930e-02,-370.352,135.508,246.445,-4.05625
-4.6920e-02,-370.703,136.172,246.055,-4.04062
-4.6910e-02,-370,136.211,243.828,-4.025
-4.6900e-02,-369.844,136.562,242.539,-3.99687
-4.6890e-02,-370.586,138.164,246.445,-4.01406
-4.6880e-02,-370.234,135.352,245.82,-4.01094
-4.6870e-02,-368.477,133.359,244.648,-3.99687
-4.6860e-02,-367.422,131.992,243.789,-3.98438
-4.6850e-02,-366.953,132.266,243.555,-3.99063
-4.6840e-02,-367.07,133.438,243.047,-3.96719
-4.6830e-02,-367.969,134.375,244.805,-3.98594
-4.6820e-02,-368.672,134.141,244.844,-3.98594
-4.6810e-02,-369.688,136.562,244.492,-4.00156
-4.6800e-02,-370.586,138.32,242.578,-4.02031
-4.6790e-02,-371.055,140.469,240.352,-4.00156
-4.6780e-02,-371.914,142.93,239.297,-4.00781
-4.6770e-02,-373.398,144.375,241.172,-4
-4.6760e-02,-374.336,144.961,241.172,-4.00781
-4.6750e-02,-373.945,146.797,238.203,-3.99375
-4.6740e-02,-372.773,150.938,235.039,-3.98594
-4.6730e-02,-372.109,153.086,231.836,-3.95
-4.6720e-02,-370.391,153.594,228.984,-3.94375
-4.6710e-02,-368.164,153.125,224.18,-3.91562
-4.6700e-02,-366.602,153.984,221.914,-3.875
-4.6690e-02,-365.898,153.945,222.93,-3.86406
-4.6680e-02,-365.195,152.383,222.148,-3.85781
-4.6670e-02,-364.922,152.656,220.234,-3.87187
-4.6660e-02,-365.43,155.352,220.039,-3.84219
-4.6650e-02,-366.953,156.992,221.484,-3.82812
-4.6640e-02,-368.359,157.539,222.266,-3.86094
-4.6630e-02,-370.469,160.625,222.656,-3.88281
-4.6620e-02,-372.734,163.164,221.406,-3.91094
-4.6610e-02,-373.906,165.781,219.609,-3.9125
-4.6600e-02,-375.625,168.594,218.984,-3.93594
-4.6590e-02,-378.438,170.82,222.07,-3.96719
-4.6580e-02,-379.102,169.883,222.344,-3.94375
-4.6570e-02,-376.445,169.453,219.18,-3.92656
-4.6560e-02,-372.188,168.008,215.391,-3.87656
-4.6550e-02,-368.945,166.875,214.961,-3.83594
-4.6540e-02,-366.758,163.906,213.438,-3.81094
-4.6530e-02,-364.961,163.242,210.82,-3.76094
-4.6520e-02,-363.867,164.492,208.477,-3.75469
-4.6510e-02,-363.75,167.07,204.922,-3.74219
-4.6500e-02,-364.766,171.68,202.773,-3.75469
-4.6490e-02,-366.211,175.078,202.344,-3.73906
-4.6480e-02,-367.812,177.852,203.203,-3.77188
-4.6470e-02,-369.844,180.625,201.836,-3.79531
-4.6460e-02,-372.383,184.453,201.445,-3.81719
-4.6450e-02,-374.062,185.703,202.852,-3.84375
-4.6440e-02,-374.688,183.945,203.477,-3.83438
-4.6430e-02,-375.938,185.43,205.703,-3.8375
-4.6420e-02,-377.344,185,205.586,-3.85781
-4.6410e-02,-376.992,185.195,204.883,-3.86094
-4.6400e-02,-376.953,185.43,203.828,-3.87031
-4.6390e-02,-377.188,187.969,204.297,-3.86875
-4.6380e-02,-376.484,188.32,201.758,-3.875
-4.6370e-02,-374.805,188.789,198.789,-3.84219
-4.6360e-02,-373.047,189.805,195.469,-3.80625
-4.6350e-02,-372.227,192.07,192.969,-3.77188
-4.6340e-02,-372.422,195.273,190.938,-3.78594
-4.6330e-02,-373.203,196.758,190.195,-3.77188
-4.6320e-02,-373.945,198.164,190.195,-3.75625
-4.6310e-02,-375.195,199.883,188.711,-3.75937
-4.6300e-02,-376.562,202.109,187.852,-3.75937
-4.6290e-02,-377.305,202.031,188.984,-3.72656
-4.6280e-02,-376.641,199.375,189.805,-3.72656
-4.6270e-02,-376.797,199.062,191.25,-3.75937
-4.6260e-02,-377.852,200.273,191.094,-3.78281
-4.6250e-02,-377.656,202.109,188.633,-3.77344
-4.6240e-02,-376.094,205.312,185.469,-3.72656
-4.6230e-02,-374.844,206.719,182.031,-3.67031
-4.6220e-02,-374.453,208.359,180.859,-3.65156
-4.6210e-02,-374.453,210.391,177.695,-3.6375
-4.6200e-02,-374.844,212.891,175.508,-3.64688
-4.6190e-02,-374.219,213.008,175.82,-3.6375
-4.6180e-02,-373.047,210.234,174.961,-3.65
-4.6170e-02,-372.188,209.922,175.508,-3.65
-4.6160e-02,-372.266,210.078,175.234,-3.6625
-4.6150e-02,-372.852,212.109,174.844,-3.6625
-4.6140e-02,-373.047,213.477,172.93,-3.65938
-4.6130e-02,-372.031,215.273,170,-3.63594
-4.6120e-02,-371.328,216.484,166.875,-3.6375
-4.6110e-02,-371.25,219.219,164.414,-3.61875
-4.6100e-02,-372.422,222.93,162.578,-3.61563
-4.6090e-02,-373.984,225.078,163.008,-3.60781
-4.6080e-02,-374.258,224.219,163.633,-3.58125
-4.6070e-02,-372.773,223.047,161.875,-3.60469
-4.6060e-02,-371.953,222.695,160.742,-3.59688
-4.6050e-02,-371.875,223.906,161.133,-3.57812
-4.6040e-02,-370.82,223.438,159.688,-3.55
-4.6030e-02,-369.297,223.203,157.07,-3.52344
-4.6020e-02,-367.578,222.852,154.258,-3.50313
-4.6010e-02,-366.719,224.609,152.5,-3.50156
-4.6000e-02,-366.484,226.602,150.82,-3.4875
-4.5990e-02,-366.992,227.227,151.094,-3.47188
-4.5980e-02,-367.422,226.875,152.5,-3.5125
-4.5970e-02,-368.125,227.539,151.641,-3.48125
-4.5960e-02,-369.727,230.195,151.836,-3.47188
-4.5950e-02,-372.266,234.453,151.758,-3.48906
-4.5940e-02,-374.688,236.758,150.117,-3.50625
-4.5930e-02,-376.367,239.57,147.852,-3.5125
-4.5920e-02,-378.32,243.047,146.367,-3.51719
-4.5910e-02,-380.625,245.586,149.102,-3.50937
-4.5900e-02,-381.641,244.727,150.742,-3.55156
-4.5890e-02,-378.594,243.242,148.906,-3.52969
-4.5880e-02,-373.594,240.859,144.766,-3.51406
-4.5870e-02,-370.078,241.016,140.859,-3.45938
-4.5860e-02,-368.359,241.992,138.281,-3.425
-4.5850e-02,-367.422,241.367,137.5,-3.40781
-4.5840e-02,-366.602,240,138.32,-3.37187
-4.5830e-02,-365.977,239.102,136.68,-3.37031
-4.5820e-02,-366.289,240.625,135.898,-3.36719
-4.5810e-02,-367.266,243.438,135.43,-3.37187
-4.5800e-02,-367.656,244.883,133.672,-3.37969
-4.5790e-02,-367.5,246.328,130.625,-3.39219
-4.5780e-02,-367.773,248.555,128.633,-3.38437
-4.5770e-02,-368.672,249.492,130.156,-3.37187
-4.5760e-02,-369.18,249.688,131.953,-3.36719
-4.5750e-02,-368.633,249.062,129.414,-3.35938
-4.5740e-02,-367.266,251.172,127.695,-3.34844
-4.5730e-02,-366.562,250.664,125.742,-3.33281
