Laboratory/3rd_day/tek0011.csv

Model,DPO3014
Firmware Version,2.40

Waveform Type,ANALOG,,,
Point Format,Y,,,
Horizontal Units,s,,,
Horizontal Scale,0.01,,,
Horizontal Delay,-0.00012,,,
Sample Interval,1e-05,,,
Record Length,10000,,,
Gating,0.0% to 100.0%,,,
Probe Attenuation,500,,,
Vertical Units,V,,,
Vertical Offset,0,,,
Vertical Scale,250,,,
Vertical Position,1.42,,,
,,,,
,,,,
,,,,
Label,,,,
TIME,CH1,CH2,CH3,CH4
-5.0120e-02,-285.859,-73.6719,358.828,-4.15
-5.0110e-02,-289.922,-69.5703,359.648,-4.17031
-5.0100e-02,-293.359,-67.3438,360.117,-4.21719
-5.0090e-02,-295.977,-66.2109,361.719,-4.26562
-5.0080e-02,-297.969,-66.7969,362.188,-4.27031
-5.0070e-02,-301.25,-64.0625,364.062,-4.27031
-5.0060e-02,-303.75,-61.8359,363.203,-4.29219
-5.0050e-02,-303.164,-59.8828,361.836,-4.25781
-5.0040e-02,-300.742,-59.8047,359.414,-4.225
-5.0030e-02,-298.906,-59.6875,357.422,-4.19844
-5.0020e-02,-298.125,-59.3359,356.445,-4.18125
-5.0010e-02,-298.711,-58.9844,356.172,-4.15156
-5.0000e-02,-300.43,-58.5938,357.148,-4.175
-4.9990e-02,-302.773,-56.7578,359.648,-4.19687
-4.9980e-02,-304.297,-56.6016,358.828,-4.23594
-4.9970e-02,-304.883,-55.625,357.812,-4.24687
-4.9960e-02,-306.328,-55.2734,358.477,-4.27812
-4.9950e-02,-308.945,-53.6719,362.5,-4.29219
-4.9940e-02,-309.648,-53.4766,361.211,-4.29844
-4.9930e-02,-306.914,-52.4609,357.227,-4.24531
-4.9920e-02,-303.477,-52.2266,352.812,-4.18594
-4.9910e-02,-301.25,-51.3281,350.82,-4.18594
-4.9900e-02,-300.078,-50.3516,348.906,-4.16406
-4.9890e-02,-299.922,-49.2969,347.5,-4.17031
-4.9880e-02,-300.742,-48.2422,347.07,-4.15
-4.9870e-02,-302.812,-46.7578,347.891,-4.15625
-4.9860e-02,-306.016,-45.4688,349.18,-4.18437
-4.9850e-02,-309.805,-43.1641,352.461,-4.25625
-4.9840e-02,-312.812,-42.2266,352.109,-4.26719
-4.9830e-02,-314.531,-40.5078,352.109,-4.31094
-4.9820e-02,-317.305,-39.7656,353.164,-4.375
-4.9810e-02,-321.523,-37.5391,357.422,-4.37969
-4.9800e-02,-323.438,-36.7969,357.305,-4.40312
-4.9790e-02,-321.367,-35.5859,353.867,-4.37969
-4.9780e-02,-318.32,-34.6484,350.312,-4.33281
-4.9770e-02,-316.25,-34.0625,348.008,-4.31094
-4.9760e-02,-314.961,-33.1641,346.133,-4.25781
-4.9750e-02,-314.609,-32.0703,345.195,-4.24063
-4.9740e-02,-315.43,-31.2109,345.078,-4.25156
-4.9730e-02,-316.992,-29.6094,346.562,-4.27188
-4.9720e-02,-317.656,-29.5312,344.453,-4.25781
-4.9710e-02,-317.5,-28.9453,342.539,-4.24531
-4.9700e-02,-318.164,-27.9297,342.969,-4.24063
-4.9690e-02,-319.648,-26.2109,346.367,-4.25625
-4.9680e-02,-319.727,-26.7969,344.297,-4.26719
-4.9670e-02,-318.789,-26.6016,342.07,-4.28125
-4.9660e-02,-318.516,-26.5234,341.094,-4.26562
-4.9650e-02,-319.492,-25.3516,343.789,-4.28125
-4.9640e-02,-320.547,-24.6875,342.93,-4.27031
-4.9630e-02,-322.266,-21.6016,341.328,-4.27969
-4.9620e-02,-324.102,-18.2422,339.961,-4.27031
-4.9610e-02,-325.195,-16.6406,340.234,-4.30156
-4.9600e-02,-325.273,-16.6797,338.359,-4.275
-4.9590e-02,-326.289,-13.8281,338.164,-4.27812
-4.9580e-02,-327.656,-11.6016,336.406,-4.28125
-4.9570e-02,-327.227,-10.7031,336.289,-4.275
-4.9560e-02,-326.445,-11.7578,334.336,-4.26562
-4.9550e-02,-326.484,-9.49219,333.984,-4.25781
-4.9540e-02,-326.484,-8.125,331.172,-4.22344
-4.9530e-02,-325.312,-7.22656,330.859,-4.20938
-4.9520e-02,-323.828,-8.94531,328.359,-4.24531
-4.9510e-02,-323.086,-7.73438,326.68,-4.22969
-4.9500e-02,-323.945,-4.96094,326.211,-4.20625
-4.9490e-02,-325.977,-2.65625,325.977,-4.20938
-4.9480e-02,-328.438,-0.429688,326.172,-4.19219
-4.9470e-02,-331.406,2.73438,328.242,-4.20312
-4.9460e-02,-333.477,3.75,326.68,-4.21562
-4.9450e-02,-334.648,5.54688,325.625,-4.24531
-4.9440e-02,-336.719,6.75781,324.297,-4.23594
-4.9430e-02,-339.336,11.25,328.633,-4.26719
-4.9420e-02,-340.625,11.4844,326.758,-4.28125
-4.9410e-02,-340.898,13.0469,324.492,-4.26719
-4.9400e-02,-341.484,14.4141,322.812,-4.26719
-4.9390e-02,-343.086,18.3594,325.195,-4.24687
-4.9380e-02,-343.555,18.4375,322.812,-4.25
-4.9370e-02,-342.344,19.5312,320,-4.23125
-4.9360e-02,-341.719,20.3516,317.461,-4.19531
-4.9350e-02,-342.578,23.2422,319.141,-4.16562
-4.9340e-02,-341.289,23.2812,316.133,-4.13125
-4.9330e-02,-339.258,23.75,312.422,-4.15156
-4.9320e-02,-337.93,24.1406,310.469,-4.12969
-4.9310e-02,-337.578,25.4297,311.523,-4.10625
-4.9300e-02,-337.656,25.2734,311.367,-4.10156
-4.9290e-02,-338.555,24.9609,312.227,-4.11563
-4.9280e-02,-340.391,25.1953,314.062,-4.14531
-4.9270e-02,-343.242,25.0781,316.797,-4.17813
-4.9260e-02,-345.781,25.9766,318.828,-4.20312
-4.9250e-02,-346.875,28.4375,317.656,-4.2
-4.9240e-02,-346.836,31.25,315.078,-4.21719
-4.9230e-02,-344.883,31.3281,312.227,-4.21719
-4.9220e-02,-342.227,30.0781,308.75,-4.19531
-4.9210e-02,-340.703,31.2891,307.148,-4.15
-4.9200e-02,-341.289,33.9453,306.055,-4.12656
-4.9190e-02,-342.5,35.7422,305.547,-4.14844
-4.9180e-02,-344.57,37.7344,305.703,-4.18594
-4.9170e-02,-346.953,40.3125,307.578,-4.17656
-4.9160e-02,-348.125,40.5078,306.211,-4.2
-4.9150e-02,-348.633,41.4844,304.805,-4.21562
-4.9140e-02,-349.648,42.7344,304.531,-4.20469
-4.9130e-02,-351.133,45.0391,308.633,-4.21562
-4.9120e-02,-351.602,43.9453,307.773,-4.22031
-4.9110e-02,-350.781,44.0234,306.562,-4.25
-4.9100e-02,-350.742,44.2969,304.922,-4.24375
-4.9090e-02,-351.094,46.9531,305,-4.2125
-4.9080e-02,-351.211,49.0234,303.789,-4.23125
-4.9070e-02,-350.703,48.9062,303.281,-4.21094
-4.9060e-02,-348.672,46.3281,301.289,-4.175
-4.9050e-02,-347.852,47.0312,300.547,-4.14219
-4.9040e-02,-348.477,48.9062,299.805,-4.12969
-4.9030e-02,-349.648,50.8594,300.781,-4.12813
-4.9020e-02,-350.898,52.3828,299.609,-4.1375
-4.9010e-02,-352.227,56.25,297.891,-4.16094
-4.9000e-02,-354.102,60.1562,296.797,-4.15781
-4.8990e-02,-354.961,61.6797,297.188,-4.1625
-4.8980e-02,-355.508,61.3281,295.859,-4.15781
-4.8970e-02,-356.406,64.0234,296.445,-4.14219
-4.8960e-02,-357.539,65.3516,295.508,-4.15156
-4.8950e-02,-357.383,65.4297,296.289,-4.18125
-4.8940e-02,-356.68,63.3594,295.508,-4.18594
-4.8930e-02,-356.523,64.1016,295.977,-4.15156
-4.8920e-02,-357.891,65.625,295.117,-4.17813
-4.8910e-02,-359.961,68.3203,296.562,-4.18594
-4.8900e-02,-361.875,70.8984,295.977,-4.17656
-4.8890e-02,-362.461,75,292.695,-4.19687
-4.8880e-02,-360.938,78.9062,288.164,-4.15625
-4.8870e-02,-358.438,80.2734,283.477,-4.14062
-4.8860e-02,-355.977,79.5312,280.82,-4.11406
-4.8850e-02,-354.375,79.1797,280.781,-4.08906
-4.8840e-02,-353.828,78.0859,280.82,-4.04531
-4.8830e-02,-353.359,77.0312,282.109,-4.025
-4.8820e-02,-353.516,75.6641,282.227,-4.05156
-4.8810e-02,-354.453,76.6406,282.031,-4.07031
-4.8800e-02,-356.25,79.375,281.602,-4.06563
-4.8790e-02,-359.258,82.9297,284.18,-4.07656
-4.8780e-02,-360.977,83.1641,283.75,-4.10312
-4.8770e-02,-361.797,84.9219,283.008,-4.12344
-4.8760e-02,-362.969,86.5234,282.344,-4.12969
-4.8750e-02,-364.727,89.8047,282.539,-4.12031
-4.8740e-02,-366.094,92.5781,281.992,-4.14531
-4.8730e-02,-366.367,93.3594,282.227,-4.1625
-4.8720e-02,-366.211,91.5625,280.977,-4.18906
-4.8710e-02,-366.211,93.2031,281.445,-4.18125
-4.8700e-02,-365.703,94.2188,279.648,-4.18906
-4.8690e-02,-364.844,95.0391,277.109,-4.17813
-4.8680e-02,-363.984,95.7812,275.625,-4.15
-4.8670e-02,-363.906,96.9141,277.07,-4.10781
-4.8660e-02,-363.75,96.1719,276.172,-4.12031
-4.8650e-02,-364.023,97.3438,273.984,-4.12344
-4.8640e-02,-365.625,101.211,273.516,-4.11563
-4.8630e-02,-367.5,104.531,275.039,-4.10156
-4.8620e-02,-368.086,104.688,273.672,-4.10938
-4.8610e-02,-368.164,106.016,271.914,-4.09531
-4.8600e-02,-368.516,107.617,270.273,-4.08594
-4.8590e-02,-369.219,111.172,269.844,-4.05469
-4.8580e-02,-370.156,113.477,268.203,-4.05625
-4.8570e-02,-369.727,113.867,268.32,-4.08281
-4.8560e-02,-368.516,111.992,266.523,-4.0875
-4.8550e-02,-368.164,112.734,266.016,-4.09062
-4.8540e-02,-368.984,114.336,265.625,-4.10781
-4.8530e-02,-370.352,115.43,266.797,-4.10938
-4.8520e-02,-371.094,116.797,266.641,-4.0875
-4.8510e-02,-371.211,119.336,263.398,-4.06719
-4.8500e-02,-369.219,122.188,259.297,-4.00469
-4.8490e-02,-366.445,121.836,254.648,-3.9875
-4.8480e-02,-363.242,120,250.664,-3.93906
-4.8470e-02,-360.82,120.234,247.812,-3.89688
-4.8460e-02,-359.609,121.719,245.664,-3.87656
-4.8450e-02,-359.141,122.539,244.492,-3.86719
-4.8440e-02,-359.141,122.539,244.336,-3.86875
-4.8430e-02,-359.141,122.539,245.977,-3.89062
-4.8420e-02,-360.352,122.031,246.133,-3.90938
-4.8410e-02,-362.305,123.281,245.469,-3.91562
-4.8400e-02,-365.039,127.031,246.836,-3.96562
-4.8390e-02,-368.477,129.727,249.219,-3.97969
-4.8380e-02,-371.719,132.188,250.898,-4.0125
-4.8370e-02,-374.102,136.367,249.062,-4.02656
-4.8360e-02,-374.336,140.469,246.914,-4.01875
-4.8350e-02,-373.633,141.328,244.453,-4.01406
-4.8340e-02,-372.266,140.43,242.031,-3.98438
-4.8330e-02,-371.758,142.188,240.859,-3.97812
-4.8320e-02,-371.25,142.852,239.297,-3.96094
-4.8310e-02,-369.648,141.562,239.453,-3.94063
-4.8300e-02,-367.461,137.891,238.516,-3.89844
-4.8290e-02,-366.25,137.266,238.633,-3.90469
-4.8280e-02,-365.742,137.383,237.422,-3.92188
-4.8270e-02,-366.133,138.047,238.945,-3.91094
-4.8260e-02,-366.797,137.461,239.023,-3.91719
-4.8250e-02,-367.656,138.906,237.93,-3.95
-4.8240e-02,-369.805,142.734,238.711,-3.97344
-4.8230e-02,-373.32,144.961,240.156,-3.97344
-4.8220e-02,-376.68,147.969,241.445,-3.98438
-4.8210e-02,-378.828,151.875,239.648,-4.00156
-4.8200e-02,-378.516,155.391,237.07,-4.01094
-4.8190e-02,-377.031,155.742,233.945,-4.00781
-4.8180e-02,-374.414,154.609,231.523,-3.97812
-4.8170e-02,-373.438,155.547,229.844,-3.92969
-4.8160e-02,-373.75,157.734,229.258,-3.90938
-4.8150e-02,-374.922,158.438,229.258,-3.92188
-4.8140e-02,-375.625,159.727,229.453,-3.88906
-4.8130e-02,-375,161.25,225.977,-3.87031
-4.8120e-02,-373.789,165.195,223.086,-3.85469
-4.8110e-02,-372.891,167.148,219.609,-3.83594
-4.8100e-02,-371.055,167.266,216.758,-3.81719
-4.8090e-02,-368.828,166.875,211.914,-3.78594
-4.8080e-02,-367.07,167.5,209.453,-3.76094
-4.8070e-02,-366.445,167.617,211.25,-3.76719
-4.8060e-02,-365.703,165.469,210.82,-3.76094
-4.8050e-02,-365.234,165.703,208.906,-3.77188
-4.8040e-02,-365.977,167.617,208.906,-3.775
-4.8030e-02,-367.461,169.18,210.859,-3.76875
-4.8020e-02,-368.672,169.219,211.992,-3.78594
-4.8010e-02,-370.898,171.836,212.422,-3.7875
-4.8000e-02,-372.852,173.984,211.758,-3.79219
-4.7990e-02,-374.297,176.172,210.117,-3.82031
-4.7980e-02,-376.133,178.945,209.961,-3.8
-4.7970e-02,-378.711,180.547,212.891,-3.82187
-4.7960e-02,-380.742,181.25,214.258,-3.85156
-4.7950e-02,-381.289,182.93,212.266,-3.86094
-4.7940e-02,-379.375,184.492,209.531,-3.87813
-4.7930e-02,-375.703,183.125,206.641,-3.83125
-4.7920e-02,-371.914,179.961,203.828,-3.775
-4.7910e-02,-369.492,179.531,201.914,-3.77188
-4.7900e-02,-368.477,179.883,200.977,-3.77188
-4.7890e-02,-368.008,179.57,201.953,-3.74844
-4.7880e-02,-367.812,178.086,201.797,-3.72031
-4.7870e-02,-367.93,179.062,201.055,-3.73906
-4.7860e-02,-368.945,181.602,200.156,-3.71719
-4.7850e-02,-370.703,185.586,199.414,-3.72188
-4.7840e-02,-371.836,188.75,197.031,-3.71719
-4.7830e-02,-372.734,191.797,193.398,-3.70156
-4.7820e-02,-373.75,195.234,191.367,-3.6875
-4.7810e-02,-375.273,197.891,193.242,-3.68125
-4.7800e-02,-375.508,196.484,193.477,-3.69219
-4.7790e-02,-373.75,195.234,191.914,-3.70781
-4.7780e-02,-372.852,194.453,190.742,-3.7125
-4.7770e-02,-372.617,195.898,190.664,-3.73438
-4.7760e-02,-373.125,197.305,189.062,-3.69687
-4.7750e-02,-374.062,200.43,186.68,-3.6625
-4.7740e-02,-376.445,205.156,185.43,-3.65938
-4.7730e-02,-379.414,208.203,185.82,-3.69687
-4.7720e-02,-380.938,209.922,186.289,-3.71719
-4.7710e-02,-378.516,209.805,182.656,-3.6875
-4.7700e-02,-375,209.609,178.75,-3.63594
-4.7690e-02,-372.422,209.258,177.93,-3.63281
-4.7680e-02,-370.508,207.031,177.344,-3.63125
-4.7670e-02,-369.141,206.055,174.219,-3.59531
-4.7660e-02,-369.18,208.047,173.789,-3.5875
-4.7650e-02,-370.039,208.75,175.156,-3.5875
-4.7640e-02,-371.055,207.852,176.328,-3.57031
-4.7630e-02,-372.031,209.648,177.07,-3.58906
-4.7620e-02,-373.125,210.273,176.094,-3.61875
-4.7610e-02,-373.633,211.68,174.961,-3.61719
-4.7600e-02,-373.828,212.969,173.438,-3.61094
-4.7590e-02,-374.961,216.445,173.984,-3.58438
-4.7580e-02,-374.961,217.422,171.758,-3.58906
-4.7570e-02,-373.828,218.516,168.711,-3.57812
-4.7560e-02,-372.773,219.844,164.57,-3.55781
-4.7550e-02,-372.578,222.578,162.344,-3.50625
-4.7540e-02,-373.242,226.094,160.391,-3.47969
-4.7530e-02,-374.414,228.32,160.508,-3.46562
-4.7520e-02,-374.219,227.383,160.742,-3.47812
-4.7510e-02,-372.578,226.016,158.75,-3.4875
-4.7500e-02,-371.406,225.664,157.07,-3.51406
-4.7490e-02,-371.016,227.227,157.5,-3.50781
-4.7480e-02,-369.805,226.797,155.664,-3.48906
-4.7470e-02,-368.086,226.719,153.32,-3.47344
-4.7460e-02,-366.289,226.523,149.961,-3.47969
-4.7450e-02,-365.195,227.539,147.656,-3.43906
-4.7440e-02,-364.961,229.609,146.016,-3.38281
-4.7430e-02,-365.117,230.43,146.133,-3.37187
-4.7420e-02,-365.547,229.961,147.383,-3.38594
-4.7410e-02,-366.289,230.312,146.875,-3.39375
-4.7400e-02,-367.734,232.773,146.406,-3.4
-4.7390e-02,-369.727,236.445,146.328,-3.39375
-4.7380e-02,-371.719,239.102,144.844,-3.40469
-4.7370e-02,-372.891,241.992,142.227,-3.4125
-4.7360e-02,-374.648,245.156,141.055,-3.37656
-4.7350e-02,-377.07,247.109,143.75,-3.39062
-4.7340e-02,-377.539,245.938,145,-3.44219
-4.7330e-02,-374.414,244.453,142.891,-3.42813
-4.7320e-02,-369.961,242.07,138.789,-3.35781
-4.7310e-02,-366.836,241.875,135.078,-3.3375
-4.7300e-02,-364.961,242.852,132.344,-3.32344
-4.7290e-02,-364.062,242.227,131.68,-3.30156
-4.7280e-02,-363.125,240.859,132.812,-3.29062
-4.7270e-02,-362.617,240.156,131.562,-3.29531
-4.7260e-02,-362.734,241.484,130.781,-3.2875
-4.7250e-02,-363.906,243.867,129.414,-3.28906
-4.7240e-02,-365.703,247.695,128.242,-3.30313
-4.7230e-02,-367.969,252.383,126.836,-3.30469
-4.7220e-02,-370.195,256.68,125.547,-3.33125
-4.7210e-02,-372.109,258.242,126.367,-3.33125
-4.7200e-02,-373.047,257.148,127.188,-3.31719
-4.7190e-02,-374.062,258.359,128.633,-3.33125
-4.7180e-02,-374.922,258.945,128.438,-3.37656
-4.7170e-02,-372.734,259.141,126.758,-3.3625
-4.7160e-02,-368.672,257.344,121.367,-3.32812
-4.7150e-02,-365.938,258.633,117.305,-3.25781
-4.7140e-02,-364.258,260.469,114.062,-3.20156
-4.7130e-02,-363.516,260.391,112.734,-3.18281
-4.7120e-02,-362.656,259.766,113.242,-3.14531
-4.7110e-02,-361.953,259.102,110.898,-3.175
-4.7100e-02,-363.008,261.445,110.82,-3.17969
-4.7090e-02,-364.844,262.031,112.539,-3.18125
-4.7080e-02,-366.055,262.5,114.883,-3.20625
-4.7070e-02,-366.602,263.359,114.141,-3.19531
-4.7060e-02,-366.289,265.547,112.383,-3.17188
-4.7050e-02,-365.781,268.32,108.828,-3.15469
-4.7040e-02,-365.586,270.547,104.766,-3.1625
-4.7030e-02,-364.766,272.734,99.9219,-3.15469
-4.7020e-02,-364.336,275.82,96.1328,-3.12656
-4.7010e-02,-364.258,277.344,97.0703,-3.125
-4.7000e-02,-363.398,274.922,98.2031,-3.10781
-4.6990e-02,-361.133,271.992,96.6797,-3.07812
-4.6980e-02,-358.633,270.195,95.4297,-3.05313
-4.6970e-02,-357.344,269.844,95.7812,-3.06875
-4.6960e-02,-356.719,269.609,95.0391,-3.0625
-4.6950e-02,-356.641,270.195,94.1797,-3.0375
-4.6940e-02,-357.07,272.188,92.7734,-3.03594
-4.6930e-02,-358.555,274.961,92.1094,-3.05625
-4.6920e-02,-359.297,276.367,89.8438,-3.0625
-4.6910e-02,-359.492,278.164,86.7969,-3.05781
-4.6900e-02,-359.727,280.586,84.6875,-3.05
-4.6890e-02,-360.781,281.406,86.1719,-3.03594
-4.6880e-02,-361.602,281.406,88.3594,-3.05
-4.6870e-02,-360.938,280.742,86.2891,-3.05937
-4.6860e-02,-359.609,281.953,85.3125,-3.03906
-4.6850e-02,-359.062,281.055,83.6719,-3.025
-4.6840e-02,-358.398,281.328,84.2188,-2.99375
-4.6830e-02,-356.836,280.82,81.7188,-2.9875
-4.6820e-02,-355.117,281.719,79.3359,-2.97344
-4.6810e-02,-353.984,281.445,77.7344,-2.94844
-4.6800e-02,-353.672,280.43,78.9844,-2.96406
-4.6790e-02,-353.75,279.727,78.2031,-2.94844
-4.6780e-02,-354.648,281.211,78.2031,-2.96719
-4.6770e-02,-356.328,283.672,78.7109,-2.96406
-4.6760e-02,-357.891,285.078,78.125,-2.9875
-4.6750e-02,-358.789,286.523,76.5625,-2.98438
-4.6740e-02,-359.141,288.281,75.0391,-2.95938
-4.6730e-02,-360.43,291.797,75.5469,-2.96406
-4.6720e-02,-361.016,292.188,74.4922,-2.97031
-4.6710e-02,-360.508,293.086,72.5,-2.93906
-4.6700e-02,-359.922,294.102,69.9609,-2.92031
-4.6690e-02,-359.961,297.031,69.6094,-2.90781
-4.6680e-02,-359.492,296.797,67.7344,-2.93437
-4.6670e-02,-357.93,296.953,65.1562,-2.92813
-4.6660e-02,-356.25,297.656,61.6406,-2.87813
-4.6650e-02,-355.469,299.57,60.4688,-2.84688
-4.6640e-02,-353.867,298.906,58.125,-2.83438
-4.6630e-02,-351.758,298.398,54.4141,-2.81875
-4.6620e-02,-348.75,298.281,50.5859,-2.75625
-4.6610e-02,-347.148,299.141,47.8516,-2.72188
-4.6600e-02,-346.172,300.664,45.7812,-2.68281
-4.6590e-02,-345.625,300.898,46.4062,-2.65469
-4.6580e-02,-345.898,299.062,48.7891,-2.66719
-4.6570e-02,-346.445,298.008,49.5312,-2.6875
-4.6560e-02,-348.203,299.141,50.6641,-2.73125
-4.6550e-02,-350.703,301.016,51.9922,-2.77969
-4.6540e-02,-352.422,303.086,51.7969,-2.79844
-4.6530e-02,-351.797,304.258,49.375,-2.77031
-4.6520e-02,-349.648,304.492,45.7031,-2.7375
-4.6510e-02,-347.812,304.18,44.6094,-2.73906
-4.6500e-02,-346.484,302.539,45.5078,-2.72812
-4.6490e-02,-343.398,300.859,44.1406,-2.67969
-4.6480e-02,-339.492,299.648,40.8984,-2.62813
-4.6470e-02,-336.875,300.664,36.9531,-2.61406
-4.6460e-02,-335.391,302.422,33.2422,-2.59531
-4.6450e-02,-335,305.547,29.6094,-2.56094
-4.6440e-02,-336.602,310.391,26.7578,-2.54531
-4.6430e-02,-339.453,312.852,25.9766,-2.5375
-4.6420e-02,-341.523,315.742,27.2656,-2.575
-4.6410e-02,-342.852,317.305,24.4922,-2.57344
-4.6400e-02,-342.891,321.523,22.9688,-2.58125
-4.6390e-02,-343.789,322.578,21.5625,-2.56563
-4.6380e-02,-344.102,322.969,22.4219,-2.55
-4.6370e-02,-340.625,320.977,19.2188,-2.51406
-4.6360e-02,-335.781,319.141,15.3125,-2.48594
-4.6350e-02,-332.109,317.578,16.1328,-2.4375
-4.6340e-02,-329.258,312.461,17.6172,-2.41562
-4.6330e-02,-327.07,309.57,17.5391,-2.42813
-4.6320e-02,-326.172,308.203,18.2422,-2.44375
-4.6310e-02,-326.445,307.773,18.8281,-2.44375
-4.6300e-02,-328.008,308.516,19.4922,-2.44063
-4.6290e-02,-330.234,310.469,19.4922,-2.43594
-4.6280e-02,-333.047,314.609,18.9062,-2.4625
-4.6270e-02,-335.156,318.828,17.6562,-2.47656
-4.6260e-02,-334.688,320.703,14.8047,-2.47656
-4.6250e-02,-332.305,322.188,7.96875,-2.45938
-4.6240e-02,-330.547,325.977,2.89062,-2.43594
-4.6230e-02,-329.922,327.5,2.26562,-2.39688
-4.6220e-02,-329.258,327.305,2.85156,-2.3875
-4.6210e-02,-328.008,326.797,0.585938,-2.37344
-4.6200e-02,-325.508,327.227,-1.83594,-2.31406
-4.6190e-02,-324.414,327.031,-2.8125,-2.31406
-4.6180e-02,-324.297,325.43,-0.742188,-2.33281
-4.6170e-02,-324.805,324.102,-0.273438,-2.33906
-4.6160e-02,-326.328,325.078,0.742188,-2.37344
-4.6150e-02,-329.414,326.836,1.32812,-2.38906
-4.6140e-02,-332.93,331.211,1.60156,-2.40156
-4.6130e-02,-335.859,335.469,0.898438,-2.41562
-4.6120e-02,-336.289,338.711,-1.95312,-2.40781
-4.6110e-02,-334.062,338.828,-4.49219,-2.36875
-4.6100e-02,-328.945,335,-5.82031,-2.33438
-4.6090e-02,-324.688,332.812,-8.55469,-2.31875
-4.6080e-02,-321.602,331.758,-10.7031,-2.28125
-4.6070e-02,-319.648,332.07,-12.3438,-2.26094
-4.6060e-02,-319.141,332.93,-14.1797,-2.26719
-4.6050e-02,-319.492,335.508,-15.3906,-2.24063
-4.6040e-02,-319.453,335.938,-16.6797,-2.22344
-4.6030e-02,-318.828,336.836,-18.8281,-2.225
-4.6020e-02,-317.812,337.773,-21.5625,-2.21562
-4.6010e-02,-317.617,340.43,-21.7578,-2.20312
-4.6000e-02,-317.656,339.688,-22.3828,-2.15781
-4.5990e-02,-315.742,339.141,-24.4141,-2.14844
-4.5980e-02,-314.18,339.102,-26.5625,-2.125
-4.5970e-02,-313.086,340.82,-26.9922,-2.14219
-4.5960e-02,-313.711,341.445,-27.7344,-2.12813
-4.5950e-02,-314.57,343.32,-27.8516,-2.12344
-4.5940e-02,-315.234,343.359,-28.5938,-2.14531
-4.5930e-02,-315.039,344.062,-29.8047,-2.12344
-4.5920e-02,-314.57,344.805,-31.4062,-2.1
-4.5910e-02,-314.883,346.797,-31.0938,-2.10156
-4.5900e-02,-315.547,345.664,-31.0156,-2.10312
-4.5890e-02,-313.906,345.039,-31.6797,-2.07969
-4.5880e-02,-312.656,344.727,-33.125,-2.10312
-4.5870e-02,-312.383,345.391,-33.3594,-2.09531
-4.5860e-02,-312.5,347.266,-34.375,-2.07344
-4.5850e-02,-311.836,348.711,-36.0938,-2.06563
-4.5840e-02,-310.586,350.352,-38.5938,-2.05313
-4.5830e-02,-310.352,350.742,-40.3125,-2.04062
