Laboratory/3rd_day/tek0008.csv

Model,DPO3014
Firmware Version,2.40

Waveform Type,ANALOG,,,
Point Format,Y,,,
Horizontal Units,s,,,
Horizontal Scale,0.004,,,
Horizontal Delay,0,,,
Sample Interval,4e-06,,,
Record Length,10000,,,
Gating,0.0% to 100.0%,,,
Probe Attenuation,500,,,
Vertical Units,V,,,
Vertical Offset,0,,,
Vertical Scale,250,,,
Vertical Position,1.42,,,
,,,,
,,,,
,,,,
Label,,,,
TIME,CH1,CH2,CH3,CH4
-2.0000e-02,17.8125,477.266,-478.281,2.05
-1.9996e-02,18.5156,477.266,-480.43,2.06875
-1.9992e-02,19.7656,478.281,-481.016,2.06875
-1.9988e-02,20.0391,476.875,-477.383,2.09062
-1.9984e-02,20.3516,474.258,-479.844,2.09062
-1.9980e-02,21.875,473.594,-481.25,2.11094
-1.9976e-02,23.3203,473.438,-482.578,2.10938
-1.9972e-02,24.4531,472.812,-483.789,2.15781
-1.9968e-02,25.5469,472.734,-484.375,2.17188
-1.9964e-02,27.2656,472.891,-487.617,2.19063
-1.9960e-02,28.9062,474.766,-488.242,2.16406
-1.9956e-02,29.3359,475.156,-487.93,2.22031
-1.9952e-02,28.6719,474.453,-486.797,2.21875
-1.9948e-02,27.8125,473.203,-483.242,2.21562
-1.9944e-02,27.7734,471.367,-485.508,2.20781
-1.9940e-02,29.0234,472.578,-485.703,2.19531
-1.9936e-02,29.2188,471.992,-485.078,2.18281
-1.9932e-02,29.7266,470.156,-483.984,2.19063
-1.9928e-02,30.3516,467.93,-482.773,2.18437
-1.9924e-02,31.0547,466.406,-483.281,2.16406
-1.9920e-02,31.8359,466.094,-482.539,2.17969
-1.9916e-02,31.7188,465.625,-481.133,2.1875
-1.9912e-02,31.1328,464.375,-479.492,2.20781
-1.9908e-02,30.1172,462.852,-478.711,2.19531
-1.9904e-02,29.8047,463.242,-479.219,2.16406
-1.9900e-02,29.2969,463.945,-477.773,2.1625
-1.9896e-02,28.0859,463.984,-475.859,2.14688
-1.9892e-02,27.1875,463.945,-473.516,2.11094
-1.9888e-02,24.8438,461.562,-469.57,2.13125
-1.9884e-02,24.8438,459.531,-469.062,2.10938
-1.9880e-02,24.8438,458.477,-468.438,2.10625
-1.9876e-02,25.3516,457.695,-467.422,2.10312
-1.9872e-02,26.1328,456.172,-467.227,2.08125
-1.9868e-02,27.3047,454.453,-469.18,2.07812
-1.9864e-02,28.7891,455.117,-468.633,2.08594
-1.9860e-02,29.2188,454.609,-467.812,2.06875
-1.9856e-02,29.9219,453.516,-467.617,2.08281
-1.9852e-02,30.3125,452.383,-467.109,2.10156
-1.9848e-02,31.0547,451.68,-466.406,2.10312
-1.9844e-02,31.25,450.352,-466.289,2.13125
-1.9840e-02,32.2656,450.273,-466.328,2.09688
-1.9836e-02,32.9688,449.648,-466.719,2.09062
-1.9832e-02,33.3984,449.336,-466.992,2.09844
-1.9828e-02,33.8672,448.711,-467.031,2.09844
-1.9824e-02,34.2578,448.32,-467.422,2.12187
-1.9820e-02,35.3125,448.203,-467.93,2.11875
-1.9816e-02,35.7812,448.555,-468.516,2.11875
-1.9812e-02,36.4062,449.219,-469.141,2.12344
-1.9808e-02,36.9141,449.375,-469.961,2.11406
-1.9804e-02,37.6562,449.453,-470.703,2.13125
-1.9800e-02,37.8125,449.336,-471.68,2.13906
-1.9796e-02,38.5547,450.391,-472.695,2.13906
-1.9792e-02,38.8672,451.094,-473.516,2.14375
-1.9788e-02,38.9453,450.664,-472.109,2.18437
-1.9784e-02,39.4531,449.57,-473.75,2.19531
-1.9780e-02,40.9766,449.219,-475.234,2.26094
-1.9776e-02,42.8906,450.039,-476.953,2.25313
-1.9772e-02,45.0391,449.844,-478.984,2.24531
-1.9768e-02,47.3828,450.039,-483.086,2.26406
-1.9764e-02,50,451.289,-484.805,2.30156
-1.9760e-02,51.875,451.484,-486.602,2.32656
-1.9756e-02,53.4766,451.25,-487.812,2.34531
-1.9752e-02,55.7031,451.992,-489.961,2.375
-1.9748e-02,57.3438,452.266,-492.109,2.38281
-1.9744e-02,59.375,452.305,-493.75,2.40625
-1.9740e-02,61.0938,452.812,-496.172,2.44219
-1.9736e-02,62.1094,453.125,-498.828,2.4875
-1.9732e-02,64.2578,454.023,-500.938,2.50469
-1.9728e-02,66.0938,454.648,-503.047,2.51719
-1.9724e-02,67.2656,454.922,-504.727,2.53281
-1.9720e-02,67.6172,455.312,-505.508,2.54531
-1.9716e-02,68.2812,455.156,-505.703,2.53281
-1.9712e-02,68.2031,454.727,-505.508,2.52812
-1.9708e-02,67.8906,455.312,-504.297,2.50937
-1.9704e-02,66.7969,453.32,-503.086,2.50781
-1.9700e-02,66.1719,452.93,-502.695,2.525
-1.9696e-02,65.9766,453.789,-502.031,2.48906
-1.9692e-02,64.7656,453.008,-500.117,2.50781
-1.9688e-02,63.5156,452.578,-496.953,2.47969
-1.9684e-02,63.125,450.664,-496.68,2.48438
-1.9680e-02,62.9297,449.727,-496.289,2.49219
-1.9676e-02,63.2031,449.062,-496.094,2.44687
-1.9672e-02,64.0625,448.203,-495.781,2.44844
-1.9668e-02,65.8984,447.227,-498.086,2.44375
-1.9664e-02,67.1875,448.32,-498.594,2.42813
-1.9660e-02,67.8906,447.539,-497.695,2.42813
-1.9656e-02,68.3984,446.211,-497.617,2.45156
-1.9652e-02,69.3359,445.703,-497.461,2.4625
-1.9648e-02,69.0234,444.961,-494.844,2.46875
-1.9644e-02,69.6484,442.852,-495.078,2.50313
-1.9640e-02,71.4453,440.938,-495.859,2.51719
-1.9636e-02,73.1641,439.492,-495.859,2.54062
-1.9632e-02,75.4297,438.281,-497.305,2.51719
-1.9628e-02,78.1641,437.656,-500.938,2.51719
-1.9624e-02,80.625,437.852,-501.172,2.52812
-1.9620e-02,83.0078,436.641,-501.562,2.54531
-1.9616e-02,84.6484,435.625,-502.031,2.55781
-1.9612e-02,85.7812,433.906,-502.695,2.625
-1.9608e-02,87.9297,433.594,-503.906,2.63125
-1.9604e-02,89.8438,433.086,-504.297,2.63906
-1.9600e-02,91.2891,432.461,-505.625,2.6625
-1.9596e-02,93.1641,432.07,-506.953,2.6875
-1.9592e-02,94.5312,431.289,-507.773,2.7125
-1.9588e-02,95.1953,430.586,-506.094,2.72656
-1.9584e-02,95.5469,428.945,-507.422,2.75625
-1.9580e-02,97.1484,429.023,-508.242,2.76875
-1.9576e-02,97.5781,428.945,-508.867,2.72344
-1.9572e-02,97.2266,428.75,-508.75,2.72812
-1.9568e-02,95.5078,427.5,-505.625,2.74063
-1.9564e-02,95.8203,426.797,-508.164,2.73594
-1.9560e-02,96.875,428.32,-509.141,2.73281
-1.9556e-02,97.2656,428.75,-509.062,2.74063
-1.9552e-02,97.5391,428.438,-508.047,2.74844
-1.9548e-02,97.1484,426.016,-504.688,2.79375
-1.9544e-02,98.1641,424.453,-507.422,2.78906
-1.9540e-02,99.1797,425.352,-507.734,2.77656
-1.9536e-02,99.1797,425.664,-506.641,2.7875
-1.9532e-02,98.9844,425.352,-505.391,2.75625
-1.9528e-02,96.6406,422.852,-500.664,2.7875
-1.9524e-02,95.7031,420.391,-501.758,2.76406
-1.9520e-02,96.0547,421.719,-501.875,2.73594
-1.9516e-02,96.2109,421.289,-500.039,2.70312
-1.9512e-02,96.0547,420.078,-499.102,2.69219
-1.9508e-02,97.0312,418.867,-500.508,2.6625
-1.9504e-02,97.6562,418.555,-499.102,2.70312
-1.9500e-02,98.2422,418.75,-498.203,2.6875
-1.9496e-02,98.1641,417.383,-497.266,2.6875
-1.9492e-02,98.2422,417.031,-496.562,2.68281
-1.9488e-02,98.5938,416.133,-495.547,2.66719
-1.9484e-02,98.0469,414.727,-494.57,2.68594
-1.9480e-02,98.0469,414.609,-494.336,2.67031
-1.9476e-02,97.8906,414.492,-493.906,2.65938
-1.9472e-02,97.8906,414.023,-493.398,2.65781
-1.9468e-02,97.3828,413.594,-490.469,2.63906
-1.9464e-02,97.2266,411.562,-490.859,2.64688
-1.9460e-02,97.3438,409.727,-490.508,2.67813
-1.9456e-02,98.8672,409.609,-490.859,2.675
-1.9452e-02,100,408.398,-491.094,2.68281
-1.9448e-02,102.227,407.812,-494.727,2.68594
-1.9444e-02,103.828,408.203,-494.258,2.72656
-1.9440e-02,105.078,407.422,-494.57,2.73281
-1.9436e-02,106.172,407.383,-494.766,2.74063
-1.9432e-02,107.305,407.383,-495.156,2.73906
-1.9428e-02,108.438,407.07,-495.586,2.70312
-1.9424e-02,109.453,406.055,-496.758,2.69531
-1.9420e-02,109.844,405.977,-497.461,2.71094
-1.9416e-02,110.352,405.469,-498.398,2.76406
-1.9412e-02,111.484,405.898,-499.727,2.73906
-1.9408e-02,112.188,406.289,-500.43,2.75313
-1.9404e-02,113.281,406.914,-501.953,2.78438
-1.9400e-02,113.594,407.422,-502.539,2.80156
-1.9396e-02,113.984,407.617,-503.359,2.85781
-1.9392e-02,115.117,408.945,-504.805,2.85
-1.9388e-02,114.805,409.414,-503.047,2.8375
-1.9384e-02,115.352,408.438,-505.391,2.85469
-1.9380e-02,116.172,408.398,-506.953,2.85469
-1.9376e-02,117.695,407.93,-508.75,2.87031
-1.9372e-02,119.688,408.203,-509.961,2.88125
-1.9368e-02,121.25,407.891,-511.836,2.875
-1.9364e-02,123.125,408.242,-513.359,2.90625
-1.9360e-02,123.672,408.32,-514.336,2.91562
-1.9356e-02,124.492,408.906,-515.156,2.92656
-1.9352e-02,124.141,408.398,-515.234,2.97031
-1.9348e-02,123.477,408.242,-512.617,2.97188
-1.9344e-02,123.359,407.109,-515.391,2.93125
-1.9340e-02,123.984,408.945,-516.484,2.95469
-1.9336e-02,124.961,409.414,-516.602,2.95156
-1.9332e-02,125.664,409.453,-516.602,2.95625
-1.9328e-02,126.602,408.438,-518.945,2.95938
-1.9324e-02,128.359,409.922,-520.352,2.96406
-1.9320e-02,129.57,409.961,-520.469,2.99063
-1.9316e-02,130.078,409.922,-521.172,3.00781
-1.9312e-02,130.547,410.039,-521.367,3.04062
-1.9308e-02,130.234,409.102,-519.219,3.06094
-1.9304e-02,130.781,408.086,-520.469,3.0375
-1.9300e-02,132.812,407.227,-521.562,3.0375
-1.9296e-02,134.336,406.211,-522.852,3.05156
-1.9292e-02,136.133,405.977,-523.281,3.07812
-1.9288e-02,138.203,404.766,-525,3.09844
-1.9284e-02,139.531,404.57,-525.391,3.09688
-1.9280e-02,141.055,404.18,-525.703,3.08906
-1.9276e-02,141.25,403.359,-526.211,3.07812
-1.9272e-02,141.133,403.32,-525.547,3.10469
-1.9268e-02,140.391,402.539,-522.266,3.08906
-1.9264e-02,140.039,399.805,-524.18,3.09688
-1.9260e-02,141.445,401.328,-524.727,3.08438
-1.9256e-02,142.344,401.406,-524.531,3.07344
-1.9252e-02,142.539,399.883,-524.18,3.08906
-1.9248e-02,143.984,399.258,-526.836,3.09688
-1.9244e-02,145.195,400.117,-526.523,3.09688
-1.9240e-02,146.289,399.961,-526.016,3.10938
-1.9236e-02,146.719,399.453,-525.938,3.10469
-1.9232e-02,146.914,398.672,-525.508,3.12187
-1.9228e-02,146.328,397.773,-523.164,3.11719
-1.9224e-02,146.484,396.055,-523.203,3.11406
-1.9220e-02,147.812,394.609,-523.672,3.1375
-1.9216e-02,149.375,393.711,-524.297,3.12969
-1.9212e-02,150.977,392.188,-524.805,3.15312
-1.9208e-02,153.711,391.367,-528.672,3.17344
-1.9204e-02,155.781,391.992,-529.102,3.16562
-1.9200e-02,156.68,391.055,-528.984,3.19531
-1.9196e-02,158.398,390.547,-529.688,3.19375
-1.9192e-02,159.844,390.039,-530.312,3.19063
-1.9188e-02,160.742,389.531,-530.625,3.21875
-1.9184e-02,161.055,388.32,-528.867,3.21406
-1.9180e-02,162.031,386.484,-529.961,3.22812
-1.9176e-02,164.102,385.391,-531.328,3.23594
-1.9172e-02,166.406,384.844,-532.305,3.25469
-1.9168e-02,168.633,383.633,-533.75,3.27969
-1.9164e-02,170.391,382.305,-534.18,3.3375
-1.9160e-02,171.914,382.109,-534.766,3.30781
-1.9156e-02,172.5,381.289,-535.195,3.29688
-1.9152e-02,172.891,380.977,-535.156,3.29219
-1.9148e-02,172.031,380.156,-531.523,3.28125
-1.9144e-02,171.523,377.734,-533.164,3.31563
-1.9140e-02,172.93,378.672,-533.867,3.3125
-1.9136e-02,173.945,378.438,-533.75,3.31719
-1.9132e-02,174.414,377.656,-533.047,3.31719
-1.9128e-02,175.078,376.094,-532.812,3.28438
-1.9124e-02,175.078,375,-532.227,3.31719
-1.9120e-02,174.844,373.477,-530.82,3.32187
-1.9116e-02,174.766,373.906,-529.766,3.30937
-1.9112e-02,174.062,373.281,-527.852,3.29219
-1.9108e-02,171.719,372.07,-523.008,3.28125
-1.9104e-02,170.703,369.492,-523.906,3.26875
-1.9100e-02,170.352,369.648,-523.203,3.24844
-1.9096e-02,169.844,369.648,-521.68,3.22812
-1.9092e-02,168.984,368.828,-520.117,3.21562
-1.9088e-02,169.336,367.5,-520.43,3.19844
-1.9084e-02,169.844,367.461,-520.039,3.17344
-1.9080e-02,169.375,367.109,-518.281,3.21406
-1.9076e-02,168.125,365.547,-516.992,3.23438
-1.9072e-02,168.633,365.586,-515.977,3.22031
-1.9068e-02,167.227,364.922,-511.602,3.20625
-1.9064e-02,166.445,362.305,-510.82,3.19531
-1.9060e-02,166.289,360.664,-510.078,3.16719
-1.9056e-02,166.602,358.75,-509.375,3.18281
-1.9052e-02,167.852,358.125,-508.867,3.15938
-1.9048e-02,169.57,356.914,-511.484,3.13906
-1.9044e-02,170.664,357.148,-510.664,3.1625
-1.9040e-02,171.016,355.82,-509.961,3.15469
-1.9036e-02,171.367,354.766,-509.258,3.1625
-1.9032e-02,171.172,354.18,-508.672,3.17344
-1.9028e-02,171.289,354.375,-507.461,3.17813
-1.9024e-02,171.289,352.891,-505.391,3.15938
-1.9020e-02,171.719,350.938,-505.391,3.16562
-1.9016e-02,172.539,350,-505.391,3.15781
-1.9012e-02,173.32,348.398,-505.625,3.17813
-1.9008e-02,176.562,348.203,-509.258,3.17344
-1.9004e-02,178.281,348.477,-508.984,3.17969
-1.9000e-02,179.297,347.656,-508.984,3.19375
-1.8996e-02,179.922,347.188,-509.297,3.18281
-1.8992e-02,180.82,346.562,-509.688,3.22031
-1.8988e-02,181.523,346.758,-509.453,3.22812
-1.8984e-02,181.25,345.781,-507.617,3.22344
-1.8980e-02,182.148,344.102,-508.555,3.23594
-1.8976e-02,183.555,343.086,-509.492,3.25937
-1.8972e-02,185.234,341.914,-510.703,3.25625
-1.8968e-02,187.656,341.055,-514.258,3.30156
-1.8964e-02,190.703,342.5,-515.391,3.30937
-1.8960e-02,192.305,342.5,-515.859,3.33281
-1.8956e-02,193.438,342.188,-516.797,3.33594
-1.8952e-02,194.57,342.188,-517.773,3.325
-1.8948e-02,195.664,341.602,-518.633,3.36875
-1.8944e-02,196.484,342.07,-520.117,3.3625
-1.8940e-02,197.812,342.617,-521.445,3.36094
-1.8936e-02,198.906,343.125,-523.086,3.38125
-1.8932e-02,199.609,343.438,-524.102,3.39844
-1.8928e-02,200.43,344.258,-525.938,3.41875
-1.8924e-02,200.547,345.234,-527.539,3.45781
-1.8920e-02,202.07,346.367,-529.297,3.42969
-1.8916e-02,202.383,347.891,-531.094,3.42656
-1.8912e-02,202.383,348.672,-533.164,3.45781
-1.8908e-02,203.008,350.234,-534.648,3.41719
-1.8904e-02,203.398,350.703,-535.977,3.44687
-1.8900e-02,204.531,351.523,-537.227,3.45
-1.8896e-02,205.43,351.367,-538.125,3.47031
-1.8892e-02,206.523,350.703,-539.102,3.49063
-1.8888e-02,208.945,349.531,-541.875,3.50313
-1.8884e-02,209.805,349.844,-539.453,3.48281
-1.8880e-02,210.586,348.086,-539.844,3.49063
-1.8876e-02,211.602,347.656,-540.664,3.5
-1.8872e-02,212.93,346.992,-541.172,3.50469
-1.8868e-02,213.75,346.562,-541.133,3.51562
-1.8864e-02,213.438,346.133,-539.102,3.51562
-1.8860e-02,214.141,344.023,-540.234,3.54375
-1.8856e-02,216.211,343.711,-541.172,3.55625
-1.8852e-02,217.93,342.422,-541.68,3.56406
-1.8848e-02,218.828,341.289,-543.008,3.60156
-1.8844e-02,219.844,340.703,-543.672,3.62031
-1.8840e-02,220.781,340.078,-543.594,3.60156
-1.8836e-02,221.289,340.273,-543.672,3.60625
-1.8832e-02,221.133,340.078,-543.164,3.62656
-1.8828e-02,219.453,339.18,-539.414,3.6625
-1.8824e-02,218.906,337.227,-540.977,3.65312
-1.8820e-02,220.039,338.672,-541.641,3.62031
-1.8816e-02,219.844,338.75,-540.742,3.60625
-1.8812e-02,220.156,338.359,-539.922,3.6375
-1.8808e-02,221.68,337.344,-542.305,3.62031
-1.8804e-02,221.992,337.93,-541.641,3.62187
-1.8800e-02,221.875,338.008,-541.133,3.6125
-1.8796e-02,221.367,337.812,-540.664,3.60938
-1.8792e-02,221.484,337.617,-540.156,3.60469
-1.8788e-02,220.664,337.539,-536.992,3.6
-1.8784e-02,219.531,335.469,-537.305,3.6
-1.8780e-02,220.273,334.492,-537.305,3.58438
-1.8776e-02,220.859,334.062,-537.5,3.6
-1.8772e-02,221.875,333.438,-537.578,3.60938
-1.8768e-02,223.789,332.969,-540.859,3.59375
-1.8764e-02,225.234,333.789,-541.445,3.61719
-1.8760e-02,225.234,333.086,-540.977,3.64531
-1.8756e-02,226.016,333.984,-541.25,3.62969
-1.8752e-02,226.328,333.945,-541.445,3.62187
-1.8748e-02,226.328,334.18,-539.609,3.62031
-1.8744e-02,225.859,332.227,-539.414,3.62187
-1.8740e-02,226.133,331.523,-540.352,3.65469
-1.8736e-02,227.383,330.625,-541.367,3.65312
-1.8732e-02,228.984,330.508,-542.07,3.66094
-1.8728e-02,228.984,329.492,-539.141,3.67813
-1.8724e-02,230.078,326.875,-539.961,3.70625
-1.8720e-02,231.133,325.547,-540.117,3.71406
-1.8716e-02,232.344,323.945,-539.727,3.73125
-1.8712e-02,233.633,323.008,-539.727,3.72188
-1.8708e-02,234.688,322.07,-542.695,3.71875
-1.8704e-02,236.094,322.773,-543.711,3.71406
-1.8700e-02,237.617,324.023,-543.672,3.71094
-1.8696e-02,237.109,323.008,-542.266,3.72188
-1.8692e-02,236.602,323.125,-541.484,3.675
-1.8688e-02,235.664,322.891,-538.086,3.70156
-1.8684e-02,235,320.859,-537.109,3.69844
-1.8680e-02,234.453,319.336,-537.109,3.6875
-1.8676e-02,234.492,317.852,-536.406,3.72344
-1.8672e-02,235.898,316.992,-536.484,3.72656
-1.8668e-02,237.93,316.836,-539.258,3.72188
-1.8664e-02,239.219,317.305,-538.906,3.71875
-1.8660e-02,239.414,317.422,-538.203,3.72344
-1.8656e-02,239.531,316.523,-538.242,3.73125
-1.8652e-02,239.648,315.703,-537.695,3.74687
-1.8648e-02,239.961,316.523,-536.211,3.75156
-1.8644e-02,238.828,315.156,-534.648,3.72188
-1.8640e-02,238.906,313.867,-535.352,3.73906
-1.8636e-02,240.078,313.164,-535.664,3.74844
-1.8632e-02,240.781,312.148,-536.289,3.775
-1.8628e-02,242.969,311.758,-539.453,3.78438
-1.8624e-02,245,313.125,-540.156,3.77656
-1.8620e-02,245.742,313.242,-540.547,3.78438
-1.8616e-02,246.367,313.164,-541.172,3.74844
-1.8612e-02,246.523,313.125,-541.641,3.75156
-1.8608e-02,246.328,312.734,-541.25,3.78438
-1.8604e-02,245.82,312.734,-539.609,3.7625
-1.8600e-02,246.172,311.836,-540.938,3.78438
-1.8596e-02,247.461,311.133,-541.953,3.79531
-1.8592e-02,249.062,311.016,-542.656,3.79531
-1.8588e-02,248.906,309.883,-539.766,3.82344
-1.8584e-02,249.492,307.578,-540.938,3.85625
-1.8580e-02,250.938,306.641,-541.68,3.82969
-1.8576e-02,252.031,305.742,-541.953,3.85
-1.8572e-02,252.656,304.727,-542.266,3.86406
-1.8568e-02,253.672,304.102,-541.562,3.86875
-1.8564e-02,254.141,302.188,-543.008,3.86563
-1.8560e-02,256.602,302.812,-543.828,3.88437
-1.8556e-02,257.422,302.07,-542.656,3.87344
-1.8552e-02,258.242,300.43,-541.992,3.89375
-1.8548e-02,260.742,299.023,-544.844,3.87813
-1.8544e-02,262.305,298.906,-543.828,3.88125
-1.8540e-02,263.125,298.203,-543.281,3.87813
-1.8536e-02,263.594,297.227,-543.32,3.88437
-1.8532e-02,264.141,296.172,-542.812,3.86875
-1.8528e-02,264.805,295.391,-542.305,3.88437
-1.8524e-02,263.594,294.766,-538.945,3.90625
-1.8520e-02,263.789,292.812,-539.648,3.90156
-1.8516e-02,265.156,291.836,-539.961,3.89688
-1.8512e-02,266.953,290.938,-540.664,3.90938
-1.8508e-02,268.594,289.57,-544.023,3.92656
-1.8504e-02,270.742,290.195,-544.102,3.92969
-1.8500e-02,271.523,289.688,-543.828,3.94219
-1.8496e-02,272.422,289.766,-544.18,3.91875
-1.8492e-02,272.969,289.414,-544.609,3.90938
-1.8488e-02,273.359,288.789,-544.688,3.92188
-1.8484e-02,272.539,288.555,-542.383,3.93906
-1.8480e-02,273.047,287.148,-543.164,3.95938
-1.8476e-02,273.867,286.719,-544.18,3.96719
-1.8472e-02,275.586,286.133,-545,3.97812
-1.8468e-02,277.656,285.938,-549.062,4.00781
-1.8464e-02,279.18,286.836,-549.922,4.0125
-1.8460e-02,280.352,287.461,-550.703,4.02344
-1.8456e-02,280.664,287.344,-551.406,4.02812
-1.8452e-02,281.602,287.773,-552.305,4.03125
-1.8448e-02,282.578,287.578,-556.211,4.04062
-1.8444e-02,282.305,288.984,-553.555,4.0875
-1.8440e-02,282.695,287.734,-554.336,4.08438
-1.8436e-02,283.75,286.719,-554.688,4.04844
-1.8432e-02,284.766,285.508,-554.766,4.06094
-1.8428e-02,287.266,284.18,-557.305,4.06719
-1.8424e-02,287.656,284.102,-553.32,4.06719
-1.8420e-02,287.5,281.445,-552.852,4.09375
-1.8416e-02,288.008,280.273,-552.734,4.0875
-1.8412e-02,289.023,279.531,-552.461,4.07969
-1.8408e-02,289.805,278.75,-552.305,4.07656
-1.8404e-02,289.336,278.711,-548.867,4.08438
-1.8400e-02,288.711,276.367,-549.102,4.1
-1.8396e-02,290.039,275.078,-549.375,4.10781
-1.8392e-02,291.445,274.336,-549.688,4.10469
-1.8388e-02,292.227,273.438,-549.805,4.1125
-1.8384e-02,293.281,272.812,-549.297,4.15
-1.8380e-02,293.398,272.422,-548.555,4.15312
-1.8376e-02,292.539,271.406,-547.852,4.14531
-1.8372e-02,291.836,271.406,-546.523,4.11406
-1.8368e-02,290.039,271.523,-541.992,4.09688
-1.8364e-02,288.711,269.492,-542.656,4.06406
-1.8360e-02,288.789,269.805,-542.773,4.05156
-1.8356e-02,287.773,269.766,-541.25,4.03594
-1.8352e-02,286.875,269.297,-539.219,4.03125
-1.8348e-02,287.266,268.438,-540.547,4.00313
-1.8344e-02,288.008,269.492,-540.117,4.00313
-1.8340e-02,287.305,269.492,-538.633,3.99219
-1.8336e-02,286.055,269.18,-537.07,3.98281
-1.8332e-02,285.117,268.555,-535.469,3.9625
-1.8328e-02,283.633,269.609,-531.914,3.92969
-1.8324e-02,281.914,268.047,-531.133,3.92188
-1.8320e-02,281.562,267.539,-531.016,3.89062
-1.8316e-02,281.289,266.914,-530.312,3.87813
-1.8312e-02,280.703,266.055,-529.18,3.89375
-1.8308e-02,281.172,265.938,-529.375,3.87813
-1.8304e-02,281.172,265.508,-528.438,3.90625
-1.8300e-02,281.719,265.195,-528.242,3.925
-1.8296e-02,282.188,264.023,-527.852,3.92656
-1.8292e-02,282.578,262.578,-527.031,3.95938
-1.8288e-02,283.398,261.68,-526.914,3.93906
-1.8284e-02,284.844,260.82,-527.031,3.91094
-1.8280e-02,285.469,259.453,-527.344,3.93906
-1.8276e-02,286.875,258.125,-527.422,3.93125
-1.8272e-02,288.398,256.484,-527.344,3.97031
-1.8268e-02,290.547,254.258,-530.195,4.00781
-1.8264e-02,292.852,254.766,-530.625,3.9875
-1.8260e-02,294.414,253.867,-530.508,4.01875
-1.8256e-02,295.703,253.438,-530.781,4.00313
-1.8252e-02,296.289,252.422,-531.406,4.01562
-1.8248e-02,296.289,251.602,-531.406,4.05313
-1.8244e-02,296.836,251.602,-528.789,4.06719
-1.8240e-02,297.656,250.195,-530.078,4.06406
