Laboratory/3rd_day/tek0017.csv

Model,DPO3014
Firmware Version,2.40

Waveform Type,ANALOG,,,
Point Format,Y,,,
Horizontal Units,s,,,
Horizontal Scale,0.01,,,
Horizontal Delay,0,,,
Sample Interval,1e-05,,,
Record Length,10000,,,
Gating,0.0% to 100.0%,,,
Probe Attenuation,500,,,
Vertical Units,V,,,
Vertical Offset,0,,,
Vertical Scale,250,,,
Vertical Position,1.98,,,
,,,,
,,,,
,,,,
Label,,,,
TIME,CH1,CH2,CH3,CH4
-5.0000e-02,-31.3281,-129.648,157.617,-1.65938
-4.9990e-02,-34.4141,-127.148,157.695,-1.67344
-4.9980e-02,-35,-125.312,155.781,-1.69531
-4.9970e-02,-35.9375,-124.023,154.102,-1.70312
-4.9960e-02,-37.2266,-122.617,156.094,-1.72031
-4.9950e-02,-39.0234,-122.539,157.617,-1.75156
-4.9940e-02,-39.8438,-122.773,157.773,-1.74844
-4.9930e-02,-40.7031,-122.539,158.359,-1.8
-4.9920e-02,-41.5625,-122.031,157.93,-1.8125
-4.9910e-02,-41.4844,-121.953,157.617,-1.80938
-4.9900e-02,-42.4219,-121.797,160.352,-1.81719
-4.9890e-02,-43.5938,-123.672,162.461,-1.85156
-4.9880e-02,-43.4766,-125.312,162.93,-1.84063
-4.9870e-02,-43.5156,-126.211,163.945,-1.81563
-4.9860e-02,-43.2031,-126.719,164.609,-1.78906
-4.9850e-02,-42.8125,-126.914,164.453,-1.77031
-4.9840e-02,-42.4609,-126.562,163.984,-1.76562
-4.9830e-02,-42.1094,-126.211,162.617,-1.78281
-4.9820e-02,-41.6016,-125.195,161.445,-1.77188
-4.9810e-02,-40.3516,-125.508,158.711,-1.73438
-4.9800e-02,-41.7188,-123.125,160.508,-1.75156
-4.9790e-02,-44.2188,-122.305,161.602,-1.76875
-4.9780e-02,-44.1406,-123.32,161.562,-1.79063
-4.9770e-02,-42.3047,-124.688,162.148,-1.75781
-4.9760e-02,-42.4219,-126.133,163.281,-1.75781
-4.9750e-02,-43.6719,-125.703,165,-1.79688
-4.9740e-02,-42.5,-125.82,162.773,-1.79844
-4.9730e-02,-39.8438,-125.547,159.492,-1.78906
-4.9720e-02,-40.0781,-123.32,159.805,-1.80938
-4.9710e-02,-43.2031,-121.016,159.805,-1.79219
-4.9700e-02,-43.7109,-119.414,157.422,-1.81719
-4.9690e-02,-43.9453,-118.047,155.391,-1.82031
-4.9680e-02,-44.6875,-116.406,156.602,-1.83281
-4.9670e-02,-46.0156,-115.977,157.617,-1.85
-4.9660e-02,-46.5625,-115.938,157.266,-1.83125
-4.9650e-02,-46.6797,-116.055,156.445,-1.8125
-4.9640e-02,-46.7188,-116.602,157.617,-1.84375
-4.9630e-02,-46.6016,-117.812,158.789,-1.82344
-4.9620e-02,-47.0703,-116.328,158.633,-1.80938
-4.9610e-02,-47.5391,-113.594,156.836,-1.80625
-4.9600e-02,-47.0703,-113.438,154.297,-1.775
-4.9590e-02,-46.5234,-114.102,154.219,-1.76875
-4.9580e-02,-48.4375,-113.398,157.461,-1.80938
-4.9570e-02,-52.8906,-112.539,160.352,-1.85156
-4.9560e-02,-55.4688,-112.383,160.898,-1.90625
-4.9550e-02,-57.5391,-111.367,162.148,-1.90781
-4.9540e-02,-59.6875,-110.195,163.281,-1.90938
-4.9530e-02,-60.4297,-109.648,162.578,-1.93438
-4.9520e-02,-59.6875,-109.297,163.398,-1.93594
-4.9510e-02,-58.8672,-109.766,163.32,-1.91563
-4.9500e-02,-58.9844,-109.922,164.18,-1.88594
-4.9490e-02,-61.4062,-109.336,165.625,-1.89219
-4.9480e-02,-62.0703,-109.609,164.414,-1.90469
-4.9470e-02,-62.3828,-108.438,164.609,-1.91875
-4.9460e-02,-62.8125,-107.422,164.141,-1.91406
-4.9450e-02,-62.9297,-107.109,163.398,-1.90625
-4.9440e-02,-63.6328,-107.266,166.016,-1.96094
-4.9430e-02,-64.6484,-108.984,167.578,-1.92813
-4.9420e-02,-64.1406,-110.625,168.555,-1.93594
-4.9410e-02,-63.6719,-111.641,169.023,-1.94844
-4.9400e-02,-63.3203,-112.227,169.414,-1.94531
-4.9390e-02,-62.5391,-112.656,169.414,-1.92656
-4.9380e-02,-61.5625,-112.891,168.633,-1.93281
-4.9370e-02,-60.5078,-113.594,166.992,-1.94688
-4.9360e-02,-62.5781,-111.797,170.234,-1.95
-4.9350e-02,-66.5625,-110.352,172.031,-1.975
-4.9340e-02,-68.3984,-109.297,171.484,-1.9875
-4.9330e-02,-69.8828,-107.422,171.523,-1.97031
-4.9320e-02,-71.2891,-105.312,171.25,-2
-4.9310e-02,-72.8516,-102.969,170.664,-2.01406
-4.9300e-02,-74.2188,-100.352,169.141,-1.99531
-4.9290e-02,-75,-98.6719,167.734,-1.99531
-4.9280e-02,-76.25,-97.3047,169.219,-1.98281
-4.9270e-02,-77.4219,-97.1094,170.234,-1.97969
-4.9260e-02,-77.4219,-97.6172,169.766,-1.99688
-4.9250e-02,-77.8906,-97.6562,169.648,-2
-4.9240e-02,-77.1094,-97.5391,169.062,-2.00313
-4.9230e-02,-76.9922,-96.5234,168.203,-1.99063
-4.9220e-02,-76.3672,-95.7422,166.523,-1.98125
-4.9210e-02,-75.0781,-95.7422,164.531,-1.9875
-4.9200e-02,-74.2188,-95.4297,165.547,-1.96875
-4.9190e-02,-74.0234,-96.6406,166.289,-1.97656
-4.9180e-02,-75.3516,-95.4688,166.641,-2
-4.9170e-02,-78.0078,-93.5547,165.781,-2.00938
-4.9160e-02,-80.3125,-92.0312,167.539,-2.03594
-4.9150e-02,-82.5,-91.875,169.727,-2.03125
-4.9140e-02,-83.5938,-92.0312,170.469,-2.05938
-4.9130e-02,-84.7266,-91.5625,170.938,-2.0375
-4.9120e-02,-85.7422,-90.8984,171.367,-2.04375
-4.9110e-02,-86.1719,-89.9609,171.445,-2.05938
-4.9100e-02,-86.7969,-89.1406,170.586,-2.06406
-4.9090e-02,-86.2891,-88.8281,168.945,-2.04219
-4.9080e-02,-86.3672,-88.1641,171.094,-2.03594
-4.9070e-02,-86.6406,-89.8047,172.891,-2.05938
-4.9060e-02,-86.0938,-91.5625,172.617,-2.08438
-4.9050e-02,-85,-92.8516,172.695,-2.08594
-4.9040e-02,-83.75,-93.8672,172.188,-2.08438
-4.9030e-02,-82.4219,-94.9609,170.742,-2.03906
-4.9020e-02,-83.4375,-93.0859,173.203,-2.07812
-4.9010e-02,-86.3672,-91.7188,174.141,-2.09063
-4.9000e-02,-85.5078,-90.8594,171.367,-2.08281
-4.8990e-02,-82.7344,-90.1562,167.344,-2.0625
-4.8980e-02,-82.8906,-87.4219,166.875,-2.025
-4.8970e-02,-85,-84.6875,167.031,-2.05
-4.8960e-02,-84.9219,-83.6719,163.672,-2.04531
-4.8950e-02,-84.4531,-82.4609,161.367,-2.04844
-4.8940e-02,-85.0781,-81.4062,162.578,-2.04219
-4.8930e-02,-85.5859,-81.6016,163.906,-2.02188
-4.8920e-02,-85.1172,-82.6953,163.32,-2.05469
-4.8910e-02,-84.2188,-84.0234,161.445,-2.05469
-4.8900e-02,-85.4688,-82.5391,164.766,-2.04219
-4.8890e-02,-89.6094,-81.25,167.422,-2.04375
-4.8880e-02,-91.2109,-80.625,166.758,-2.07812
-4.8870e-02,-92.6562,-79.6094,167.07,-2.09375
-4.8860e-02,-93.8672,-78.2031,167.188,-2.11406
-4.8850e-02,-95.3516,-76.3672,166.758,-2.11719
-4.8840e-02,-96.1719,-74.8047,165.781,-2.13906
-4.8830e-02,-96.25,-73.4375,163.984,-2.13281
-4.8820e-02,-96.6016,-72.3828,165.195,-2.12969
-4.8810e-02,-97.4609,-73.0859,166.172,-2.11719
-4.8800e-02,-96.9141,-73.8281,165.781,-2.10938
-4.8790e-02,-96.0156,-75.1562,164.297,-2.11719
-4.8780e-02,-96.5625,-73.9453,167.266,-2.13438
-4.8770e-02,-99.8047,-73.3203,169.062,-2.14531
-4.8760e-02,-98.9844,-73.1641,166.758,-2.12031
-4.8750e-02,-96.5234,-72.7734,163.438,-2.07812
-4.8740e-02,-96.4453,-70.5469,163.516,-2.05156
-4.8730e-02,-98.2422,-68.4766,164.102,-2.06406
-4.8720e-02,-98.2031,-67.8516,161.172,-2.06406
-4.8710e-02,-97.7734,-66.8359,159.414,-2.03438
-4.8700e-02,-97.4609,-66.0938,161.094,-2.06406
-4.8690e-02,-98.2422,-67.1094,162.07,-2.075
-4.8680e-02,-97.5781,-68.8672,161.875,-2.06563
-4.8670e-02,-96.1719,-71.25,161.211,-2.07969
-4.8660e-02,-98.0469,-70.4297,165.352,-2.08594
-4.8650e-02,-100.977,-70.8594,167.93,-2.11719
-4.8640e-02,-100.586,-71.0547,166.289,-2.13438
-4.8630e-02,-98.2031,-70.8594,163.516,-2.14531
-4.8620e-02,-98.125,-69.4141,163.984,-2.14688
-4.8610e-02,-100.312,-67.8125,164.609,-2.15469
-4.8600e-02,-100.586,-67.1484,162.578,-2.125
-4.8590e-02,-100.195,-66.9922,160.391,-2.13281
-4.8580e-02,-102.031,-65.5469,162.461,-2.15938
-4.8570e-02,-104.883,-64.7656,164.961,-2.16719
-4.8560e-02,-104.883,-66.25,166.406,-2.16406
-4.8550e-02,-103.672,-67.4219,167.227,-2.15938
-4.8540e-02,-103.008,-67.5391,165.703,-2.13438
-4.8530e-02,-103.398,-66.2891,164.453,-2.14062
-4.8520e-02,-103.555,-65.8203,164.961,-2.13281
-4.8510e-02,-104.297,-66.6016,166.133,-2.15938
-4.8500e-02,-105.703,-66.1328,167.031,-2.20156
-4.8490e-02,-107.812,-64.5312,166.523,-2.2
-4.8480e-02,-107.93,-63.3984,166.914,-2.20156
-4.8470e-02,-106.562,-63.75,166.836,-2.17813
-4.8460e-02,-106.406,-64.5312,167.031,-2.17813
-4.8450e-02,-108.164,-63.8672,168.516,-2.18594
-4.8440e-02,-107.773,-64.7656,167.266,-2.18125
-4.8430e-02,-107.5,-65.9766,166.055,-2.17969
-4.8420e-02,-108.359,-65.2344,169.57,-2.19844
-4.8410e-02,-111.445,-65.1953,172.188,-2.24375
-4.8400e-02,-110.938,-65.6641,170.898,-2.25
-4.8390e-02,-108.633,-65.6641,168.008,-2.23281
-4.8380e-02,-108.125,-63.7109,168.008,-2.23906
-4.8370e-02,-110.352,-61.9531,169.023,-2.22344
-4.8360e-02,-110.195,-61.875,166.406,-2.21875
-4.8350e-02,-110,-61.2109,163.945,-2.21406
-4.8340e-02,-111.055,-58.9062,165.664,-2.20938
-4.8330e-02,-114.102,-56.9141,167.344,-2.22344
-4.8320e-02,-113.75,-55.9375,164.18,-2.23594
-4.8310e-02,-111.25,-54.8047,159.922,-2.18125
-4.8300e-02,-110.078,-52.9688,159.062,-2.17188
-4.8290e-02,-111.445,-52.0703,159.062,-2.16875
-4.8280e-02,-111.523,-53.2031,159.219,-2.15938
-4.8270e-02,-111.68,-54.6875,160.664,-2.19531
-4.8260e-02,-113.438,-54.0234,162.422,-2.22813
-4.8250e-02,-116.523,-52.2656,163.984,-2.25625
-4.8240e-02,-118.906,-50.4297,163.398,-2.2625
-4.8230e-02,-120.82,-48.3203,163.164,-2.26875
-4.8220e-02,-122.5,-46.0156,162.617,-2.31094
-4.8210e-02,-124.023,-44.7656,160.859,-2.29375
-4.8200e-02,-125.195,-43.5547,162.578,-2.27031
-4.8190e-02,-126.367,-43.4766,165,-2.27344
-4.8180e-02,-126.133,-44.7656,164.883,-2.26875
-4.8170e-02,-125.742,-45.0781,165.352,-2.28281
-4.8160e-02,-125.195,-45.4297,165.156,-2.29688
-4.8150e-02,-124.375,-45.7422,164.648,-2.28906
-4.8140e-02,-123.164,-46.1719,163.906,-2.27656
-4.8130e-02,-121.445,-47.0312,161.211,-2.28281
-4.8120e-02,-121.406,-45.5078,162.539,-2.275
-4.8110e-02,-124.141,-44.2188,164.531,-2.27656
-4.8100e-02,-124.492,-44.375,162.656,-2.30156
-4.8090e-02,-124.688,-43.4375,161.914,-2.27656
-4.8080e-02,-124.492,-42.4219,161.172,-2.28125
-4.8070e-02,-123.75,-42.2656,158.555,-2.25938
-4.8060e-02,-124.062,-40.625,160.703,-2.25313
-4.8050e-02,-127.383,-39.4531,163.32,-2.25313
-4.8040e-02,-128.281,-39.375,161.953,-2.26094
-4.8030e-02,-128.75,-38.3203,161.914,-2.27969
-4.8020e-02,-129.023,-37.7344,161.445,-2.26875
-4.8010e-02,-129.336,-36.7578,160.352,-2.26406
-4.8000e-02,-129.258,-35.5078,159.375,-2.24844
-4.7990e-02,-128.242,-35.5078,156.562,-2.24844
-4.7980e-02,-129.102,-33.6719,158.516,-2.24375
-4.7970e-02,-131.836,-32.3438,160.938,-2.25313
-4.7960e-02,-132.695,-32.4609,159.492,-2.27031
-4.7950e-02,-133.125,-31.2891,159.023,-2.28906
-4.7940e-02,-133.359,-30.5859,158.672,-2.30781
-4.7930e-02,-133.398,-29.6484,157.5,-2.32344
-4.7920e-02,-133.125,-28.8672,156.133,-2.29844
-4.7910e-02,-131.641,-28.7891,153.242,-2.26875
-4.7900e-02,-132.031,-27.3828,155.273,-2.26406
-4.7890e-02,-134.609,-26.1328,157.93,-2.26719
-4.7880e-02,-135.312,-26.4844,156.055,-2.28125
-4.7870e-02,-135.156,-25.7812,155.781,-2.2875
-4.7860e-02,-135.469,-25.2734,155.078,-2.29531
-4.7850e-02,-135.078,-24.5312,153.945,-2.27031
-4.7840e-02,-134.375,-23.5156,152.812,-2.25938
-4.7830e-02,-133.242,-23.8281,150.078,-2.24844
-4.7820e-02,-132.93,-22.7344,151.992,-2.25
-4.7810e-02,-135.43,-22.0312,154.297,-2.24375
-4.7800e-02,-135.625,-22.6172,152.93,-2.25313
-4.7790e-02,-135.273,-22.4219,152.539,-2.25313
-4.7780e-02,-135.43,-21.7969,152.07,-2.26875
-4.7770e-02,-134.922,-22.4609,149.805,-2.24844
-4.7760e-02,-135,-20.8984,151.367,-2.23281
-4.7750e-02,-137.852,-19.6484,154.57,-2.24688
-4.7740e-02,-139.023,-20.0391,153.242,-2.27031
-4.7730e-02,-139.18,-19.4922,152.93,-2.27031
-4.7720e-02,-139.531,-18.5547,153.008,-2.25938
-4.7710e-02,-139.531,-18.0078,152.422,-2.26094
-4.7700e-02,-139.023,-17.2656,151.289,-2.29063
-4.7690e-02,-138.164,-17.6953,148.438,-2.28281
-4.7680e-02,-138.008,-15.9375,149.609,-2.25625
-4.7670e-02,-140.469,-14.8047,152.305,-2.25313
-4.7660e-02,-140.938,-15.3125,150.547,-2.25625
-4.7650e-02,-140.469,-14.4141,150.156,-2.275
-4.7640e-02,-140.625,-13.9453,149.062,-2.28281
-4.7630e-02,-140.195,-14.1797,147.188,-2.24375
-4.7620e-02,-140.234,-12.1484,148.32,-2.25469
-4.7610e-02,-143.359,-11.1719,151.055,-2.27031
-4.7600e-02,-144.102,-11.3672,149.688,-2.25469
-4.7590e-02,-144.023,-10.4688,149.414,-2.26875
-4.7580e-02,-144.453,-9.92188,148.789,-2.2625
-4.7570e-02,-144.453,-9.33594,147.93,-2.275
-4.7560e-02,-143.516,-8.75,146.523,-2.25469
-4.7550e-02,-142.344,-8.55469,144.336,-2.25469
-4.7540e-02,-142.734,-7.42188,145.43,-2.24844
-4.7530e-02,-145.039,-6.5625,148.203,-2.24219
-4.7520e-02,-145.078,-6.95312,146.523,-2.25469
-4.7510e-02,-144.844,-7.42188,145.039,-2.26719
-4.7500e-02,-145.703,-5.74219,147.266,-2.28438
-4.7490e-02,-148.477,-5,150.273,-2.27656
-4.7480e-02,-147.852,-5.50781,148.398,-2.30313
-4.7470e-02,-145.664,-5.85938,145,-2.28438
-4.7460e-02,-144.805,-4.72656,145.156,-2.26406
-4.7450e-02,-145.352,-3.82812,146.719,-2.275
-4.7440e-02,-145,-4.72656,144.336,-2.27344
-4.7430e-02,-143.945,-5.23438,141.992,-2.275
-4.7420e-02,-143.984,-4.21875,144.57,-2.28125
-4.7410e-02,-146.719,-3.82812,148.125,-2.275
-4.7400e-02,-147.422,-5.19531,147.383,-2.2625
-4.7390e-02,-147.578,-5.23438,147.93,-2.27656
-4.7380e-02,-147.617,-5.50781,148.242,-2.27344
-4.7370e-02,-147.578,-5.82031,148.086,-2.28125
-4.7360e-02,-146.875,-6.05469,147.617,-2.26719
-4.7350e-02,-146.055,-7.69531,145.664,-2.27344
-4.7340e-02,-145.898,-7.10938,148.047,-2.28125
-4.7330e-02,-148.281,-7.30469,151.562,-2.29531
-4.7320e-02,-148.086,-8.55469,150.938,-2.30938
-4.7310e-02,-147.852,-9.33594,150.664,-2.32188
-4.7300e-02,-148.555,-8.04688,152.07,-2.32188
-4.7290e-02,-150.312,-7.03125,151.211,-2.31406
-4.7280e-02,-150.117,-6.32812,151.445,-2.31094
-4.7270e-02,-148.477,-6.67969,151.211,-2.30156
-4.7260e-02,-147.266,-6.52344,148.398,-2.28125
-4.7250e-02,-146.719,-4.6875,146.445,-2.28281
-4.7240e-02,-146.719,-4.29688,146.172,-2.28125
-4.7230e-02,-146.406,-5.39062,146.406,-2.28906
-4.7220e-02,-146.367,-5.46875,146.953,-2.29375
-4.7210e-02,-148.438,-3.51562,147.227,-2.275
-4.7200e-02,-149.297,-2.07031,145.82,-2.27344
-4.7190e-02,-149.766,0.0390625,144.844,-2.25313
-4.7180e-02,-149.766,1.79688,143.711,-2.25625
-4.7170e-02,-149.57,2.10938,141.25,-2.23281
-4.7160e-02,-150.43,4.21875,143.164,-2.24219
-4.7150e-02,-153.672,5.03906,146.055,-2.2875
-4.7140e-02,-154.57,4.53125,144.805,-2.31406
-4.7130e-02,-155.078,5.19531,144.492,-2.33438
-4.7120e-02,-155.078,6.05469,144.57,-2.31875
-4.7110e-02,-155.195,6.5625,144.141,-2.33906
-4.7100e-02,-154.688,6.79688,142.852,-2.34375
-4.7090e-02,-153.75,6.40625,140.742,-2.31719
-4.7080e-02,-153.398,8.16406,141.914,-2.33438
-4.7070e-02,-156.172,8.63281,144.531,-2.34375
-4.7060e-02,-156.289,7.96875,143.086,-2.35313
-4.7050e-02,-155.703,8.4375,142.852,-2.34219
-4.7040e-02,-155.273,8.63281,142.188,-2.34531
-4.7030e-02,-154.805,8.94531,141.562,-2.33594
-4.7020e-02,-153.672,8.90625,140.391,-2.32188
-4.7010e-02,-152.031,8.125,137.891,-2.30469
-4.7000e-02,-151.016,9.29688,138.555,-2.29844
-4.6990e-02,-152.695,9.84375,141.25,-2.28281
-4.6980e-02,-152.383,8.59375,139.531,-2.28438
-4.6970e-02,-151.211,8.00781,138.672,-2.30469
-4.6960e-02,-151.992,9.6875,138.594,-2.29063
-4.6950e-02,-154.023,12.5781,138.75,-2.30156
-4.6940e-02,-154.57,14.7266,136.797,-2.26875
-4.6930e-02,-155.195,16.3672,134.336,-2.26875
-4.6920e-02,-156.797,18.5547,135.859,-2.28125
-4.6910e-02,-159.297,19.1016,137.461,-2.29375
-4.6900e-02,-159.375,18.0078,138.203,-2.32812
-4.6890e-02,-157.695,15.8203,138.906,-2.31094
-4.6880e-02,-155.898,14.8047,137.852,-2.30313
-4.6870e-02,-155.703,16.0938,137.109,-2.29375
-4.6860e-02,-154.766,16.3672,134.961,-2.26406
-4.6850e-02,-153.359,16.6016,132.578,-2.25
-4.6840e-02,-153.398,18.125,134.062,-2.22969
-4.6830e-02,-155.469,18.2031,136.523,-2.25938
-4.6820e-02,-155.586,16.6797,135.508,-2.27031
-4.6810e-02,-155.469,16.4453,134.844,-2.275
-4.6800e-02,-156.328,18.1641,135.43,-2.29063
-4.6790e-02,-157.969,19.5312,134.648,-2.31406
-4.6780e-02,-158.008,20.4297,134.844,-2.29531
-4.6770e-02,-156.172,19.7266,134.805,-2.28281
-4.6760e-02,-154.727,19.6875,132.461,-2.25469
-4.6750e-02,-154.531,21.7969,130.312,-2.24219
-4.6740e-02,-156.562,24.7266,131.328,-2.24844
-4.6730e-02,-160.156,27.5391,133.555,-2.29375
-4.6720e-02,-162.266,28.0469,132.383,-2.30156
-4.6710e-02,-163.828,29.8047,132.422,-2.2875
-4.6700e-02,-165.508,31.5234,132.383,-2.30469
-4.6690e-02,-166.523,32.8906,132.07,-2.30781
-4.6680e-02,-166.914,34.5312,131.719,-2.32188
-4.6670e-02,-167.07,35.8203,130.664,-2.34375
-4.6660e-02,-166.68,36.4453,129.18,-2.32812
-4.6650e-02,-165.859,36.6406,126.445,-2.30313
-4.6640e-02,-165.859,38.1641,127.969,-2.30313
-4.6630e-02,-167.773,38.3594,131.562,-2.34531
-4.6620e-02,-168.164,36.2109,130.117,-2.3625
-4.6610e-02,-167.93,36.1328,130.156,-2.35156
-4.6600e-02,-166.992,35.625,130.547,-2.35781
-4.6590e-02,-166.328,34.4141,129.531,-2.37031
-4.6580e-02,-166.133,35.7422,129.648,-2.36406
-4.6570e-02,-167.578,37.5781,130,-2.36406
-4.6560e-02,-168.008,38.9844,127.656,-2.3625
-4.6550e-02,-167.852,39.6875,124.922,-2.36406
-4.6540e-02,-168.711,41.7578,126.797,-2.34531
-4.6530e-02,-170.977,42.3828,128.945,-2.34531
-4.6520e-02,-169.883,42.1875,127.227,-2.33594
-4.6510e-02,-166.797,41.5625,123.672,-2.32812
-4.6500e-02,-165.625,42.1094,123.125,-2.27344
-4.6490e-02,-165.625,42.3828,125,-2.26094
-4.6480e-02,-164.062,40.9375,122.305,-2.23594
-4.6470e-02,-162.461,40.3906,120.898,-2.24688
-4.6460e-02,-161.953,41.4453,120.469,-2.2625
-4.6450e-02,-163.125,43.4766,120.273,-2.26875
-4.6440e-02,-163.672,44.2969,117.227,-2.26875
-4.6430e-02,-162.734,45.3125,114.258,-2.25313
-4.6420e-02,-163.555,47.3047,116.016,-2.275
-4.6410e-02,-166.367,48.2812,119.375,-2.27344
-4.6400e-02,-166.992,47.4219,118.281,-2.25625
-4.6390e-02,-167.07,47.5781,118.906,-2.26875
-4.6380e-02,-167.422,47.5391,119.062,-2.25625
-4.6370e-02,-167.188,47.3828,119.219,-2.26719
-4.6360e-02,-166.172,47.0312,118.633,-2.24688
-4.6350e-02,-164.805,46.0547,117.5,-2.22969
-4.6340e-02,-164.18,47.3828,117.07,-2.25313
-4.6330e-02,-165.43,48.7109,116.172,-2.23438
-4.6320e-02,-165.859,48.5938,116.641,-2.22969
-4.6310e-02,-165.859,46.875,118.594,-2.25469
-4.6300e-02,-165.82,45.8203,119.492,-2.25938
-4.6290e-02,-167.539,46.9141,121.758,-2.27031
-4.6280e-02,-168.516,46.6797,121.25,-2.29688
-4.6270e-02,-169.102,46.875,120.898,-2.30156
-4.6260e-02,-168.672,46.9922,121.484,-2.32344
-4.6250e-02,-168.359,47.0703,121.016,-2.29844
-4.6240e-02,-167.734,47.5391,120.312,-2.29531
-4.6230e-02,-166.211,46.5625,118.633,-2.26875
-4.6220e-02,-165.703,48.0078,117.695,-2.24844
-4.6210e-02,-166.914,50.0781,117.227,-2.24688
-4.6200e-02,-166.836,51.25,113.828,-2.24219
-4.6190e-02,-166.016,52.5,110.703,-2.22188
-4.6180e-02,-166.367,54.6484,111.953,-2.2
-4.6170e-02,-168.789,55.6641,115.195,-2.23438
-4.6160e-02,-169.805,54.4141,113.594,-2.24688
-4.6150e-02,-169.414,54.6484,113.789,-2.26094
-4.6140e-02,-169.219,54.8438,113.75,-2.26875
-4.6130e-02,-169.023,54.1797,112.773,-2.22656
-4.6120e-02,-169.062,56.1328,112.734,-2.21563
-4.6110e-02,-170.742,58.4766,113.281,-2.22969
-4.6100e-02,-171.836,59.8828,110.664,-2.20156
-4.6090e-02,-171.797,62.3438,109.219,-2.19219
-4.6080e-02,-171.484,64.2188,107.305,-2.18125
-4.6070e-02,-171.289,64.7266,104.219,-2.15938
-4.6060e-02,-171.25,66.6016,105.742,-2.14531
-4.6050e-02,-173.477,67.0312,109.531,-2.17969
-4.6040e-02,-173.711,65.3906,108.203,-2.20938
-4.6030e-02,-173.281,64.9609,108.516,-2.21563
-4.6020e-02,-172.969,64.7656,108.789,-2.23906
-4.6010e-02,-172.266,63.75,108.047,-2.24375
-4.6000e-02,-172.109,64.5703,107.969,-2.23906
-4.5990e-02,-173.789,66.6797,108.711,-2.24219
-4.5980e-02,-174.375,67.2656,106.328,-2.24844
-4.5970e-02,-173.984,68.75,105.234,-2.24688
-4.5960e-02,-173.633,69.9219,103.516,-2.2625
-4.5950e-02,-172.539,69.8828,100.547,-2.26094
-4.5940e-02,-172.539,70.9766,101.914,-2.24844
-4.5930e-02,-174.336,70.8984,106.094,-2.22344
-4.5920e-02,-174.023,68.8281,105.391,-2.19844
-4.5910e-02,-173.672,67.6562,104.883,-2.22656
-4.5900e-02,-174.258,68.4766,105.547,-2.25313
-4.5890e-02,-175.898,69.6875,106.055,-2.24063
-4.5880e-02,-175.195,71.25,104.258,-2.22969
-4.5870e-02,-172.5,71.7188,99.7656,-2.20781
-4.5860e-02,-169.883,72.3438,98.125,-2.16563
-4.5850e-02,-169.375,72.3047,99.2578,-2.12656
-4.5840e-02,-167.383,70.1172,96.7188,-2.1
-4.5830e-02,-164.844,69.4141,94.8828,-2.10469
-4.5820e-02,-163.672,70,94.0625,-2.08438
-4.5810e-02,-164.18,71.7188,94.1406,-2.08906
-4.5800e-02,-163.633,72.3047,91.5625,-2.08594
-4.5790e-02,-162.539,72.6562,88.2422,-2.08906
-4.5780e-02,-162.539,73.9844,89.4141,-2.09375
-4.5770e-02,-164.531,74.2188,93.4375,-2.10313
-4.5760e-02,-164.648,71.9922,92.3047,-2.11875
-4.5750e-02,-164.297,71.2109,92.0703,-2.09688
