Graphs creation/Experiment simulation comparison/step1_Step60to30_Detail_tek0003.csv

Model,DPO3014
Firmware Version,2.40

Waveform Type,ANALOG,,,
Point Format,Y,,,
Horizontal Units,s,,,
Horizontal Scale,0.01,,,
Horizontal Delay,0,,,
Sample Interval,1e-05,,,
Record Length,10000,,,
Gating,0.0% to 100.0%,,,
Probe Attenuation,500,,,
Vertical Units,V,,,
Vertical Offset,0,,,
Vertical Scale,250,,,
Vertical Position,1.3,,,
,,,,
,,,,
,,,,
Label,,,,
TIME,CH1,CH2,CH3,CH4
-5.0000e-02,338.086,-20.4297,-317.227,-4.31563
-4.9990e-02,337.734,-22.0312,-315.273,-4.325
-4.9980e-02,338.242,-23.9844,-314.844,-4.33125
-4.9970e-02,339.336,-26.2109,-315.078,-4.325
-4.9960e-02,340.977,-27.0703,-314.18,-4.31719
-4.9950e-02,339.844,-28.2422,-311.992,-4.30469
-4.9940e-02,339.531,-29.8828,-311.25,-4.31406
-4.9930e-02,340.156,-31.7578,-310.742,-4.30469
-4.9920e-02,341.211,-32.1094,-309.453,-4.27969
-4.9910e-02,341.211,-33.2031,-309.141,-4.31563
-4.9900e-02,342.734,-34.2188,-309.414,-4.32188
-4.9890e-02,343.047,-35.1562,-308.789,-4.32812
-4.9880e-02,343.906,-36.2891,-309.531,-4.325
-4.9870e-02,345.391,-37.3438,-310.391,-4.32812
-4.9860e-02,346.953,-37.2266,-310.508,-4.31563
-4.9850e-02,345.82,-37.2266,-308.75,-4.33906
-4.9840e-02,345.234,-38.0859,-308.789,-4.34531
-4.9830e-02,344.961,-38.8672,-308.906,-4.35781
-4.9820e-02,345.898,-38.5938,-308.438,-4.34844
-4.9810e-02,343.281,-38.3203,-305.898,-4.33594
-4.9800e-02,341.992,-38.5156,-305.195,-4.32812
-4.9790e-02,341.016,-38.7109,-304.766,-4.31406
-4.9780e-02,340.273,-38.3203,-303.906,-4.29844
-4.9770e-02,340.703,-38.9453,-304.258,-4.26875
-4.9760e-02,341.016,-40.0391,-301.602,-4.26406
-4.9750e-02,340.195,-42.9688,-298.125,-4.26719
-4.9740e-02,342.5,-46.6797,-297.695,-4.25
-4.9730e-02,346.992,-49.2969,-299.648,-4.25
-4.9720e-02,348.555,-49.2969,-300.352,-4.26875
-4.9710e-02,349.609,-48.1641,-302.227,-4.275
-4.9700e-02,349.922,-48.5547,-302.461,-4.30781
-4.9690e-02,348.477,-49.2578,-299.492,-4.29531
-4.9680e-02,348.477,-51.9922,-298.32,-4.28906
-4.9670e-02,349.336,-54.5312,-297.773,-4.28281
-4.9660e-02,350.703,-55.8984,-296.445,-4.25938
-4.9650e-02,348.75,-57.0312,-292.852,-4.275
-4.9640e-02,348.203,-58.9844,-291.562,-4.27031
-4.9630e-02,347.305,-60.3906,-290.156,-4.24219
-4.9620e-02,347.617,-61.6406,-288.398,-4.2
-4.9610e-02,347.188,-62.3828,-287.031,-4.18906
-4.9600e-02,347.656,-63.1641,-286.836,-4.20469
-4.9590e-02,349.688,-63.9062,-288.242,-4.20469
-4.9580e-02,352.227,-63.8281,-289.961,-4.24063
-4.9570e-02,353.164,-63.4766,-291.016,-4.25625
-4.9560e-02,355.156,-63.7891,-293.711,-4.28281
-4.9550e-02,359.062,-64.9609,-297.539,-4.31719
-4.9540e-02,361.523,-66.0547,-296.602,-4.31563
-4.9530e-02,358.75,-68.125,-290.859,-4.3375
-4.9520e-02,358.789,-72.0312,-289.57,-4.33594
-4.9510e-02,359.609,-75.2734,-287.891,-4.31406
-4.9500e-02,360.938,-77.6562,-285.664,-4.29531
-4.9490e-02,358.75,-79.5312,-281.406,-4.28906
-4.9480e-02,357.93,-81.8359,-279.062,-4.2875
-4.9470e-02,356.719,-84.2578,-277.031,-4.26875
-4.9460e-02,356.836,-85.4688,-274.492,-4.24063
-4.9450e-02,356.172,-86.9531,-272.5,-4.21875
-4.9440e-02,356.523,-87.6562,-271.836,-4.22031
-4.9430e-02,357.773,-88.5938,-272.578,-4.22188
-4.9420e-02,360.117,-88.8672,-274.57,-4.23438
-4.9410e-02,360.625,-88.3984,-275.078,-4.25469
-4.9400e-02,362.227,-88.9062,-277.5,-4.28438
-4.9390e-02,366.328,-90.2344,-281.406,-4.28906
-4.9380e-02,368.633,-91.1328,-280.117,-4.275
-4.9370e-02,369.531,-93.7109,-278.75,-4.27031
-4.9360e-02,370,-94.6875,-278.867,-4.26875
-4.9350e-02,370.469,-93.5156,-279.57,-4.26719
-4.9340e-02,369.453,-93.4375,-279.375,-4.27969
-4.9330e-02,366.406,-93.2031,-274.844,-4.27969
-4.9320e-02,365.352,-95.2344,-274.062,-4.23906
-4.9310e-02,366.133,-96.875,-273.594,-4.24063
-4.9300e-02,365.742,-97.2656,-272.227,-4.22656
-4.9290e-02,365.547,-97.8125,-271.172,-4.20781
-4.9280e-02,366.289,-97.9688,-271.523,-4.2125
-4.9270e-02,365.742,-97.2656,-271.016,-4.22969
-4.9260e-02,365.977,-97.1875,-272.5,-4.2625
-4.9250e-02,367.969,-98.1641,-275.234,-4.2875
-4.9240e-02,369.023,-98.9844,-272.969,-4.27344
-4.9230e-02,367.07,-101.055,-268.477,-4.25
-4.9220e-02,367.93,-103.945,-267.891,-4.24063
-4.9210e-02,367.812,-105.039,-265.547,-4.26719
-4.9200e-02,368.125,-107.031,-265.391,-4.25938
-4.9190e-02,368.828,-109.062,-264.727,-4.25625
-4.9180e-02,370.312,-110.195,-263.906,-4.23906
-4.9170e-02,368.203,-109.883,-260.898,-4.21563
-4.9160e-02,366.836,-110.781,-260.273,-4.2
-4.9150e-02,365.781,-111.562,-259.609,-4.17188
-4.9140e-02,365.938,-111.25,-258.711,-4.15
-4.9130e-02,366.641,-112.148,-259.57,-4.13906
-4.9120e-02,367.07,-112.969,-257.383,-4.125
-4.9110e-02,366.211,-115,-253.984,-4.13281
-4.9100e-02,367.852,-118.281,-254.18,-4.15156
-4.9090e-02,368.359,-119.023,-253.047,-4.15313
-4.9080e-02,370.312,-120.938,-253.477,-4.18125
-4.9070e-02,371.172,-122.695,-253.828,-4.19375
-4.9060e-02,373.477,-123.75,-253.945,-4.20469
-4.9050e-02,371.758,-123.398,-252.109,-4.21406
-4.9040e-02,371.523,-123.633,-252.227,-4.19375
-4.9030e-02,372.422,-124.844,-253.477,-4.21875
-4.9020e-02,373.477,-125.625,-252.148,-4.19844
-4.9010e-02,371.328,-127.227,-247.461,-4.1375
-4.9000e-02,371.836,-129.531,-246.758,-4.11094
-4.8990e-02,370.898,-130.039,-244.57,-4.11406
-4.8980e-02,370.859,-131.484,-244.062,-4.12031
-4.8970e-02,371.055,-132.891,-243.75,-4.10469
-4.8960e-02,371.914,-133.477,-243.438,-4.09688
-4.8950e-02,373.477,-135,-244.062,-4.08594
-4.8940e-02,374.57,-136.68,-242.812,-4.10313
-4.8930e-02,374.609,-138.75,-240.156,-4.1125
-4.8920e-02,377.383,-141.836,-240.977,-4.14375
-4.8910e-02,378.555,-142.852,-240.352,-4.175
-4.8900e-02,380.43,-145.195,-241.367,-4.18594
-4.8890e-02,381.68,-146.406,-241.133,-4.22188
-4.8880e-02,381.484,-147.305,-240.352,-4.22344
-4.8870e-02,381.445,-148.789,-240.508,-4.20781
-4.8860e-02,381.953,-148.477,-239.492,-4.16563
-4.8850e-02,381.406,-148.281,-238.75,-4.16563
-4.8840e-02,379.922,-149.648,-236.211,-4.15313
-4.8830e-02,377.227,-151.914,-231.211,-4.11406
-4.8820e-02,376.133,-154.023,-227.5,-4.06406
-4.8810e-02,375.352,-155.586,-225.078,-4.04219
-4.8800e-02,375.508,-156.602,-223.789,-4.07188
-4.8790e-02,373.789,-156.406,-221.836,-4.075
-4.8780e-02,373.242,-156.797,-221.719,-4.05
-4.8770e-02,372.695,-157.344,-221.562,-4.05
-4.8760e-02,372.812,-156.836,-221.602,-4.00781
-4.8750e-02,373.945,-157.344,-222.852,-4
-4.8740e-02,374.688,-157.461,-221.602,-4.00469
-4.8730e-02,373.906,-158.828,-219.336,-3.99531
-4.8720e-02,376.289,-160.898,-220.664,-4.01719
-4.8710e-02,378.945,-161.953,-221.992,-4.03594
-4.8700e-02,380.781,-164.336,-221.016,-4.05
-4.8690e-02,381.406,-168.242,-218.672,-4.05781
-4.8680e-02,380.938,-169.219,-216.562,-4.02188
-4.8670e-02,378.047,-168.516,-214.609,-3.98906
-4.8660e-02,375.117,-167.891,-212.148,-3.94688
-4.8650e-02,372.188,-167.734,-208.438,-3.90781
-4.8640e-02,371.602,-168.398,-207.891,-3.88594
-4.8630e-02,373.906,-169.492,-209.883,-3.91563
-4.8620e-02,375.43,-171.016,-209.453,-3.96875
-4.8610e-02,373.047,-171.445,-204.766,-3.98438
-4.8600e-02,373.398,-174.18,-204.766,-3.95938
-4.8590e-02,374.102,-176.445,-203.945,-3.92031
-4.8580e-02,375.664,-177.773,-202.891,-3.9125
-4.8570e-02,373.594,-177.227,-200.273,-3.90156
-4.8560e-02,372.188,-177.617,-200.078,-3.89375
-4.8550e-02,371.836,-178.32,-200.547,-3.87969
-4.8540e-02,373.32,-179.18,-199.648,-3.86094
-4.8530e-02,370,-179.453,-195.078,-3.85
-4.8520e-02,370.352,-180.859,-194.922,-3.85313
-4.8510e-02,372.617,-182.266,-196.836,-3.86094
-4.8500e-02,375.352,-183.555,-196.562,-3.87031
-4.8490e-02,373.594,-183.867,-192.734,-3.9
-4.8480e-02,374.453,-186.641,-193.203,-3.90625
-4.8470e-02,375.508,-188.906,-193.32,-3.9
-4.8460e-02,377.812,-190.273,-192.695,-3.85156
-4.8450e-02,376.328,-189.609,-190.273,-3.83438
-4.8440e-02,375.703,-189.727,-190.469,-3.86406
-4.8430e-02,375.43,-190.625,-191.797,-3.86719
-4.8420e-02,377.578,-191.133,-191.172,-3.82656
-4.8410e-02,375.273,-191.328,-187.227,-3.82344
-4.8400e-02,375.352,-192.812,-187.695,-3.80938
-4.8390e-02,378.359,-194.297,-190.156,-3.82344
-4.8380e-02,381.406,-195.586,-190.469,-3.86563
-4.8370e-02,379.766,-195.898,-187.109,-3.89219
-4.8360e-02,380.742,-198.438,-187.93,-3.87031
-4.8350e-02,381.797,-199.57,-186.836,-3.86406
-4.8340e-02,381.133,-200.43,-185.352,-3.85781
-4.8330e-02,380.586,-202.383,-184.961,-3.79844
-4.8320e-02,382.812,-203.672,-182.93,-3.78281
-4.8310e-02,379.688,-204.688,-178.086,-3.79844
-4.8300e-02,379.531,-206.641,-177.539,-3.78906
-4.8290e-02,378.008,-205.977,-175.703,-3.79531
-4.8280e-02,377.188,-206.445,-175.859,-3.79063
-4.8270e-02,378.594,-208.398,-177.305,-3.78438
-4.8260e-02,379.805,-209.141,-174.922,-3.76094
-4.8250e-02,377.344,-210,-171.211,-3.75
-4.8240e-02,377.656,-211.562,-171.484,-3.75156
-4.8230e-02,378.242,-211.797,-171.211,-3.75
-4.8220e-02,379.258,-213.984,-170.547,-3.74063
-4.8210e-02,377.305,-215.82,-166.133,-3.70312
-4.8200e-02,377.93,-218.867,-164.336,-3.6875
-4.8190e-02,375.352,-219.258,-160.938,-3.67031
-4.8180e-02,373.789,-220.078,-159.375,-3.66094
-4.8170e-02,372.422,-220.625,-157.852,-3.65625
-4.8160e-02,371.602,-221.133,-156.641,-3.61563
-4.8150e-02,371.562,-221.367,-156.914,-3.59063
-4.8140e-02,371.68,-221.602,-155.898,-3.59219
-4.8130e-02,370.547,-221.25,-153.633,-3.59844
-4.8120e-02,371.875,-221.875,-155.195,-3.61406
-4.8110e-02,373.75,-221.953,-156.641,-3.64531
-4.8100e-02,374.844,-223.398,-156.641,-3.65
-4.8090e-02,373.047,-224.766,-153.75,-3.63438
-4.8080e-02,374.453,-227.266,-152.734,-3.64219
-4.8070e-02,372.617,-226.797,-149.727,-3.64219
-4.8060e-02,371.836,-227.5,-149.57,-3.61563
-4.8050e-02,371.172,-228.477,-150.039,-3.62031
-4.8040e-02,372.93,-229.727,-148.711,-3.6
-4.8030e-02,369.961,-229.531,-144.258,-3.55156
-4.8020e-02,369.805,-230.664,-144.688,-3.56719
-4.8010e-02,372.109,-231.836,-147.109,-3.55625
-4.8000e-02,375.078,-232.93,-147.93,-3.56719
-4.7990e-02,373.75,-231.992,-144.922,-3.59844
-4.7980e-02,374.336,-233.945,-146.68,-3.61094
-4.7970e-02,376.055,-235.859,-148.359,-3.62813
-4.7960e-02,380.312,-238.008,-148.164,-3.625
-4.7950e-02,376.992,-237.305,-142.812,-3.6
-4.7940e-02,375.781,-239.453,-142.656,-3.59219
-4.7930e-02,376.133,-241.719,-142.539,-3.575
-4.7920e-02,378.242,-243.828,-140.859,-3.55938
-4.7910e-02,373.555,-243.086,-134.297,-3.53125
-4.7900e-02,371.055,-244.961,-132.773,-3.50938
-4.7890e-02,369.883,-246.406,-131.055,-3.45625
-4.7880e-02,368.945,-246.562,-128.516,-3.4375
-4.7870e-02,368.203,-246.68,-128.203,-3.43438
-4.7860e-02,369.023,-246.914,-128.359,-3.44063
-4.7850e-02,368.086,-246.328,-126.523,-3.4375
-4.7840e-02,368.828,-246.719,-128.75,-3.46094
-4.7830e-02,370.742,-246.328,-130.977,-3.4625
-4.7820e-02,372.07,-247.07,-131.406,-3.47188
-4.7810e-02,369.531,-247.188,-128.047,-3.48281
-4.7800e-02,368.164,-248.32,-126.484,-3.4625
-4.7790e-02,367.695,-250.273,-125.859,-3.43125
-4.7780e-02,368.711,-251.797,-123.477,-3.41563
-4.7770e-02,365.469,-252.5,-118.867,-3.39375
-4.7760e-02,365.352,-253.789,-118.086,-3.36563
-4.7750e-02,364.531,-253.008,-117.656,-3.34844
-4.7740e-02,365.938,-254.297,-118.242,-3.35938
-4.7730e-02,363.75,-255.195,-114.766,-3.33281
-4.7720e-02,363.555,-256.25,-113.242,-3.30625
-4.7710e-02,361.836,-255.781,-111.602,-3.3125
-4.7700e-02,361.836,-257.109,-111.133,-3.28438
-4.7690e-02,359.062,-257.852,-106.914,-3.25
-4.7680e-02,357.969,-258.789,-104.805,-3.21875
-4.7670e-02,357.93,-259.727,-104.883,-3.2375
-4.7660e-02,359.727,-260.391,-105.117,-3.21719
-4.7650e-02,357.109,-258.867,-101.523,-3.2125
-4.7640e-02,356.328,-259.805,-102.539,-3.23594
-4.7630e-02,357.5,-261.211,-103.945,-3.22656
-4.7620e-02,359.336,-262.578,-101.562,-3.2125
-4.7610e-02,358.594,-264.648,-98.8672,-3.18906
-4.7600e-02,359.453,-268.164,-96.5234,-3.18438
-4.7590e-02,359.766,-270.82,-92.8516,-3.18594
-4.7580e-02,362.344,-274.57,-93.0078,-3.20312
-4.7570e-02,366.25,-277.812,-95.0391,-3.25313
-4.7560e-02,367.5,-278.477,-93.7109,-3.25938
-4.7550e-02,363.516,-277.891,-89.6094,-3.21719
-4.7540e-02,360.078,-276.602,-88.6719,-3.18281
-4.7530e-02,359.844,-275.703,-90.2734,-3.175
-4.7520e-02,360.156,-274.883,-90.1562,-3.15781
-4.7510e-02,360.43,-275.273,-90,-3.15469
-4.7500e-02,361.68,-276.953,-89.7656,-3.16406
-4.7490e-02,359.805,-276.133,-86.875,-3.19688
-4.7480e-02,360,-277.93,-87.6953,-3.19844
-4.7470e-02,362.031,-280.508,-88.5547,-3.21094
-4.7460e-02,364.766,-282.93,-86.7578,-3.18594
-4.7450e-02,361.211,-282.422,-81.4453,-3.17656
-4.7440e-02,359.648,-284.492,-81.0547,-3.1625
-4.7430e-02,360.312,-287.5,-80.625,-3.14219
-4.7420e-02,361.719,-289.688,-77.0703,-3.1
-4.7410e-02,358.945,-290.586,-72.0703,-3.06094
-4.7400e-02,359.102,-292.578,-71.3281,-3.06563
-4.7390e-02,358.359,-292.148,-70.2344,-3.07344
-4.7380e-02,358.203,-292.07,-71.4844,-3.05313
-4.7370e-02,359.141,-293.438,-73.0469,-3.05938
-4.7360e-02,361.172,-293.984,-72.0312,-3.03906
-4.7350e-02,356.406,-291.953,-67.2266,-3.02813
-4.7340e-02,354.648,-292.422,-67.1484,-3.01406
-4.7330e-02,353.32,-292.812,-67.7734,-3.01875
-4.7320e-02,355.039,-293.789,-66.1328,-2.99219
-4.7310e-02,353.438,-294.453,-63.2031,-2.96563
-4.7300e-02,352.969,-296.445,-61.3672,-2.97969
-4.7290e-02,349.727,-296.055,-56.5625,-2.9875
-4.7280e-02,349.023,-298.047,-55.9766,-2.95
-4.7270e-02,349.141,-300.156,-55.1172,-2.90938
-4.7260e-02,351.289,-302.578,-52.9297,-2.90469
-4.7250e-02,349.18,-303.203,-48.6328,-2.88906
-4.7240e-02,348.906,-304.688,-48.7109,-2.87656
-4.7230e-02,348.828,-304.102,-49.1797,-2.91094
-4.7220e-02,350.781,-305.117,-50.3516,-2.90469
-4.7210e-02,349.18,-305.391,-48.0078,-2.90156
-4.7200e-02,350,-306.289,-47.8125,-2.89062
-4.7190e-02,348.711,-305.039,-47.6562,-2.89219
-4.7180e-02,349.492,-305.781,-48.2812,-2.88438
-4.7170e-02,346.875,-305.391,-45.8984,-2.85625
-4.7160e-02,346.523,-306.133,-45.5469,-2.82188
-4.7150e-02,344.453,-304.18,-44.8828,-2.80938
-4.7140e-02,344.141,-304.023,-44.9219,-2.8125
-4.7130e-02,341.133,-303.438,-42.3438,-2.80938
-4.7120e-02,339.766,-303.086,-41.6406,-2.77344
-4.7110e-02,337.461,-300.352,-41.6406,-2.75938
-4.7100e-02,336.797,-299.57,-41.9141,-2.73125
-4.7090e-02,336.055,-300.781,-40.625,-2.71406
-4.7080e-02,334.336,-301.523,-37.2266,-2.69375
-4.7070e-02,333.32,-303.438,-34.4922,-2.68594
-4.7060e-02,333.867,-306.289,-31.6797,-2.68438
-4.7050e-02,333.516,-308.516,-28.1641,-2.65938
-4.7040e-02,335.43,-311.406,-28.4375,-2.6625
-4.7030e-02,338.594,-313.32,-29.9609,-2.69844
-4.7020e-02,339.961,-313.555,-30.1172,-2.69844
-4.7010e-02,337.656,-313.086,-27.8516,-2.66563
-4.7000e-02,334.492,-312.461,-25.1953,-2.65781
-4.6990e-02,332.422,-313.164,-23.3984,-2.63281
-4.6980e-02,332.148,-314.844,-21.0938,-2.625
-4.6970e-02,331.094,-315.781,-18.4766,-2.60781
-4.6960e-02,332.5,-317.266,-19.2969,-2.57812
-4.6950e-02,333.672,-317.07,-20.0391,-2.61875
-4.6940e-02,336.406,-318.711,-21.3672,-2.62813
-4.6930e-02,335,-318.516,-19.1016,-2.65938
-4.6920e-02,334.023,-319.141,-18.6719,-2.62344
-4.6910e-02,333.398,-320.039,-18.5156,-2.6125
-4.6900e-02,335.508,-321.406,-17.2266,-2.59063
-4.6890e-02,331.133,-318.945,-12.6172,-2.57031
-4.6880e-02,328.516,-319.375,-12.8125,-2.55313
-4.6870e-02,328.359,-320.742,-13.3203,-2.55625
-4.6860e-02,328.594,-321.094,-10.8594,-2.52813
-4.6850e-02,327.031,-322.148,-8.59375,-2.53594
-4.6840e-02,327.031,-323.906,-6.75781,-2.50313
-4.6830e-02,324.961,-323.555,-3.125,-2.49844
-4.6820e-02,323.906,-325,-3.08594,-2.50313
-4.6810e-02,325.312,-326.875,-2.92969,-2.47188
-4.6800e-02,327.383,-328.672,-0.195312,-2.47188
-4.6790e-02,323.32,-328.281,4.76562,-2.47969
-4.6780e-02,321.602,-329.258,5.19531,-2.46406
-4.6770e-02,322.539,-331.211,5.35156,-2.43438
-4.6760e-02,323.555,-332.5,8.59375,-2.4
-4.6750e-02,319.844,-331.562,13.4375,-2.39688
-4.6740e-02,317.773,-332.188,13.6328,-2.37969
-4.6730e-02,318.203,-334.648,13.3203,-2.36875
-4.6720e-02,319.297,-335.82,16.2891,-2.35
-4.6710e-02,316.992,-335.781,19.2969,-2.325
-4.6700e-02,317.344,-336.484,18.3984,-2.32188
-4.6690e-02,318.594,-335.43,16.3672,-2.31563
-4.6680e-02,320.039,-336.094,15.1953,-2.30781
-4.6670e-02,318.281,-335.156,17.3438,-2.31875
-4.6660e-02,316.836,-334.922,17.6562,-2.32344
-4.6650e-02,316.836,-336.133,16.7188,-2.33125
-4.6640e-02,317.5,-336.523,18.7109,-2.32812
-4.6630e-02,316.562,-337.656,20.1953,-2.31875
-4.6620e-02,317.344,-339.062,21.3281,-2.30156
-4.6610e-02,315.82,-338.008,24.0234,-2.28438
-4.6600e-02,315.586,-339.336,22.6562,-2.2875
-4.6590e-02,315.898,-339.57,23.1641,-2.28281
-4.6580e-02,315.352,-338.75,23.8281,-2.2875
-4.6570e-02,314.023,-338.75,22.8516,-2.2625
-4.6560e-02,315.195,-339.375,23.5156,-2.26875
-4.6550e-02,312.461,-337.695,26.0938,-2.25313
-4.6540e-02,310,-338.32,27.6172,-2.22031
-4.6530e-02,308.359,-338.906,30.8984,-2.175
-4.6520e-02,307.383,-339.492,33.0078,-2.13906
-4.6510e-02,305.547,-338.203,33.7109,-2.14062
-4.6500e-02,305.625,-338.32,33.4375,-2.14688
-4.6490e-02,303.633,-338.125,35.6641,-2.1125
-4.6480e-02,303.008,-337.461,35.9375,-2.09375
-4.6470e-02,301.602,-334.805,35.1172,-2.09688
-4.6460e-02,301.758,-334.141,33.3594,-2.1125
-4.6450e-02,300.781,-334.57,33.7109,-2.10938
-4.6440e-02,300.742,-335.234,35.8203,-2.12344
-4.6430e-02,300,-336.797,37.6953,-2.1
-4.6420e-02,301.055,-339.258,39.1406,-2.08438
-4.6410e-02,300.508,-338.75,42.2656,-2.09688
-4.6400e-02,300.508,-341.055,41.2891,-2.11406
-4.6390e-02,301.484,-342.5,40.8984,-2.10625
-4.6380e-02,303.086,-344.297,42.6562,-2.09219
-4.6370e-02,301.641,-345.508,46.3672,-2.06406
-4.6360e-02,301.133,-346.719,47.7734,-2.0625
-4.6350e-02,300.43,-345.547,47.6953,-2.05625
-4.6340e-02,301.211,-346.406,46.7188,-2.08906
-4.6330e-02,301.875,-348.047,48.0078,-2.075
-4.6320e-02,302.305,-350,51.0156,-2.05
-4.6310e-02,299.375,-349.258,55.0781,-2.06875
-4.6300e-02,298.32,-350.469,55.0391,-2.04375
-4.6290e-02,298.242,-352.188,54.7656,-2.01875
-4.6280e-02,300.703,-354.531,56.6016,-2.00156
-4.6270e-02,297.383,-352.539,60.7031,-1.9875
-4.6260e-02,295.664,-352.539,60.0391,-1.96094
-4.6250e-02,295.273,-352.852,59.4922,-1.95625
-4.6240e-02,297.344,-353.672,60,-1.94844
-4.6230e-02,294.961,-352.734,62.7344,-1.93906
-4.6220e-02,293.047,-353.828,64.2969,-1.92813
-4.6210e-02,291.641,-355.195,67.1875,-1.92188
-4.6200e-02,291.211,-355.977,68.8281,-1.87344
-4.6190e-02,290.273,-355.078,68.9062,-1.8875
-4.6180e-02,290.977,-355.625,68.0078,-1.90625
-4.6170e-02,288.984,-355.195,69.9609,-1.90469
-4.6160e-02,289.414,-355.43,69.8047,-1.9
-4.6150e-02,288.945,-354.023,68.3984,-1.92813
-4.6140e-02,288.984,-353.359,67.7344,-1.90625
-4.6130e-02,289.141,-354.219,68.3203,-1.89531
-4.6120e-02,289.297,-355.625,70.3906,-1.90625
-4.6110e-02,287.93,-356.289,73.2031,-1.89844
-4.6100e-02,287.461,-359.141,75.4297,-1.85156
-4.6090e-02,286.875,-362.266,79.1406,-1.82969
-4.6080e-02,287.266,-364.805,81.8359,-1.79688
-4.6070e-02,289.141,-366.875,81.875,-1.775
-4.6060e-02,288.398,-367.07,83.9453,-1.78281
-4.6050e-02,284.57,-366.719,86.8359,-1.76562
-4.6040e-02,280.039,-365.547,90.5859,-1.70781
-4.6030e-02,277.422,-365.273,92.9297,-1.61563
-4.6020e-02,276.445,-366.328,95.5078,-1.59375
-4.6010e-02,273.633,-364.766,98.9844,-1.59219
-4.6000e-02,272.188,-365.469,98.4766,-1.59219
-4.5990e-02,272.773,-367.5,97.5781,-1.57812
-4.5980e-02,274.336,-368.242,99.7656,-1.54688
-4.5970e-02,271.367,-365.781,102.812,-1.56719
-4.5960e-02,270.156,-365.781,100.742,-1.61875
-4.5950e-02,270.156,-365.82,99.4531,-1.60625
-4.5940e-02,269.57,-365.469,100.977,-1.58125
-4.5930e-02,268.555,-366.992,103.203,-1.56563
-4.5920e-02,267.617,-368.359,106.641,-1.54531
-4.5910e-02,264.453,-367.383,110.234,-1.50625
-4.5900e-02,262.734,-367.539,109.805,-1.48906
-4.5890e-02,262.969,-368.867,108.945,-1.48438
-4.5880e-02,265.547,-369.883,110.469,-1.48906
-4.5870e-02,262.812,-366.875,112.93,-1.48438
-4.5860e-02,261.094,-366.172,110.547,-1.48906
-4.5850e-02,261.016,-365.195,109.18,-1.49063
-4.5840e-02,260.82,-364.336,109.102,-1.475
-4.5830e-02,259.766,-365,110.195,-1.44063
-4.5820e-02,259.297,-365.273,112.695,-1.45156
-4.5810e-02,257.539,-365.156,115.078,-1.45
-4.5800e-02,256.211,-366.68,116.367,-1.45625
-4.5790e-02,255.586,-369.062,119.336,-1.39531
-4.5780e-02,255.859,-370.742,121.289,-1.39688
-4.5770e-02,255.586,-370.078,121.055,-1.40313
-4.5760e-02,257.461,-371.484,119.961,-1.42813
-4.5750e-02,255.547,-370.547,121.758,-1.39688
-4.5740e-02,254.141,-370.391,122.344,-1.36719
